<?xml version="1.0"?>
<VTKFile type="PUnstructuredGrid" version="0.1" byte_order="LittleEndian">
<PUnstructuredGrid GhostLevel="0">
<PPoints> 
<PDataArray type="Float64" NumberOfComponents="3"/> 
</PPoints>
<PCells>
<PDataArray type="Int32" Name="connectivity" NumberOfComponents="1"/>
<PDataArray type="Int32" Name="offsets"      NumberOfComponents="1"/>
<PDataArray type="UInt8" Name="types"        NumberOfComponents="1"/>
</PCells>
<PPointData Scalars="Material">
<PDataArray type="Float64" Name="u"/>
<PDataArray type="Float64" Name="v"/>
<PDataArray type="Float64" Name="w"/>
<PDataArray type="Float64" Name="p"/>
</PPointData>
<Piece Source="Avg_137_vtu/P0000000.vtu"/>
<Piece Source="Avg_137_vtu/P0000001.vtu"/>
<Piece Source="Avg_137_vtu/P0000002.vtu"/>
<Piece Source="Avg_137_vtu/P0000003.vtu"/>
<Piece Source="Avg_137_vtu/P0000004.vtu"/>
<Piece Source="Avg_137_vtu/P0000005.vtu"/>
<Piece Source="Avg_137_vtu/P0000006.vtu"/>
<Piece Source="Avg_137_vtu/P0000007.vtu"/>
</PUnstructuredGrid>
</VTKFile>
