\relax 
\providecommand*\new@tpo@label[2]{}
\citation{jordan2013}
\citation{papamoschou2011}
\citation{wei2006}
\citation{rod_2014}
\citation{Singh_2003}
\citation{Risso_Fabre_1996}
\citation{Risso_Fabre_1996}
\citation{voropayev}
\citation{voropayev}
\citation{lz2014}
\@writefile{toc}{\contentsline {section}{\numberline {1}Wave Packet Analysis of Jet Aeroacoustics}{1}}
\@writefile{toc}{\contentsline {section}{\numberline {2}Confined Jets}{1}}
\citation{ak_2006}
\citation{V_S_2013}
\citation{rod_2014}
\bibstyle{plain}
\bibdata{references}
\bibcite{ak_2006}{{1}{}{{}}{{}}}
\bibcite{jordan2013}{{2}{}{{}}{{}}}
\@writefile{toc}{\contentsline {section}{\numberline {3}PIV in the study of aeroacoustics}{2}}
\@writefile{toc}{\contentsline {section}{\numberline {4}Conclusions}{2}}
\bibcite{lz2014}{{3}{}{{}}{{}}}
\bibcite{papamoschou2011}{{4}{}{{}}{{}}}
\bibcite{Risso_Fabre_1996}{{5}{}{{}}{{}}}
\bibcite{rod_2014}{{6}{}{{}}{{}}}
\bibcite{Singh_2003}{{7}{}{{}}{{}}}
\bibcite{V_S_2013}{{8}{}{{}}{{}}}
\bibcite{voropayev}{{9}{}{{}}{{}}}
\bibcite{wei2006}{{10}{}{{}}{{}}}
\providecommand\NAT@force@numbers{}\NAT@force@numbers
