Variables = x, y, z, u, v, w, p, u_x, u_y, u_z, v_x, v_y, v_z, w_x, w_y, w_z, p_x, p_y, p_z

Zone, I=800, F=POINT
           4          0.8         0.25      2.93497       3.8896     -1.15436     -10.1899      49.8633     -12.5697     -17.9929     -84.7119     -12.8017      38.2195     -69.1006      2.14823     -45.2506     -22.4475      1.94654     -46.7288 
           4         -0.8         0.25      1.98067    -0.686302      3.12383     -13.0604      39.5617      27.5595     -121.885      38.4463      2.02164      57.0071      61.5789      36.5625     -68.9592      213.726      22.2153      136.902 
           4          0.8         0.75      2.86982      3.45838     -1.36798     -10.6359     -30.0611      -32.425      5.22153     -144.584     0.231193     -41.9022     -35.7482     -14.1759      24.9511     -15.2803     -22.4356      10.1148 
           4         -0.8         0.75     0.630767     0.303734      2.20524     -11.6415      55.5973      13.1868      22.5883      16.7936     0.363083      25.7609     -2.59245      28.6721     -5.15285      83.2668      1.47489     -1.18115 
           6          0.8         0.25       2.2591     -2.05277     -0.45721     -14.0005     -24.2776     -35.1871      15.5723      25.8928      9.90757     -16.2857     -30.9561     -3.90073      20.6978      1.49149      6.11806     -22.5996 
           6         -0.8         0.25      4.55385     0.101761    -0.650346     -23.6609     -19.0712      19.0295     -112.118     -6.12889      34.8001     -109.495      36.6876      12.5711     -3.89033     -14.5239     -24.8514       10.454 
           6          0.8         0.75      2.93603     -2.08717    -0.270766     -14.3485      -5.8052     -35.7014      42.0638      39.6774      13.0692      9.48847     -31.9331     -9.33619     -3.17384     -40.1557    0.0718708     -4.06474 
           6         -0.8         0.75      3.30748     -0.87141    -0.575292     -23.0305      19.2838       18.281     -9.00784      48.8726     -33.3681      11.4552      32.8441    -0.554309      12.2519     -96.6578     -1.54967      38.4383 
           7          0.8         0.25     -1.45832     -2.70906     -3.60822     -16.7958     -77.0017     -11.0535     -39.1011      16.6821      19.9973     -61.8225     -4.01122     -28.4708      51.8753     -81.6234     -66.5316      99.3424 
           7         -0.8         0.25      6.05021     -2.19121     -3.38205     -25.7807      19.8715     -26.9593     -167.203     -33.6369      93.9004      51.5253      44.2647     -47.8556     -84.5165     -147.032      107.531     -99.8052 
           7          0.8         0.75     -1.56187      -3.6159     -2.91327     -16.6977     -16.4009     -2.28121      37.9161     -13.2722     -11.5867     -11.2719     -65.1126     -65.5722      18.1296     -118.152     -38.2494     -66.6468 
           7         -0.8         0.75       4.5934     -2.11091     -4.50956     -28.0297      19.0554     -126.544      16.3658     -52.7985      15.2073     -61.2779     0.674601     -62.4534     -22.8795     -34.5765     -91.0221     -108.816 
           8          0.8         0.25       5.8454      3.36795    0.0368782     -23.8234      8.68386     -18.3962      49.1733    0.0538047      24.5141      7.83148     -57.4636     -37.2453     -30.2936      53.7666     -45.7199      52.9403 
           8         -0.5         0.25      6.67792     0.509803    0.0466655    -0.545199     -5.05628     -1.50934      30.7041     -12.2345      12.2129      19.0912     -15.0767     -22.6426     -7.41649      4.65454     -84.5079      23.8478 
           8          0.8         0.75      6.71301      3.18624    -0.691169      -22.821      30.5886      -16.929      4.18768      3.67831      13.2113     -7.98438     -8.12398     -29.9133     -39.5231      10.1773     -58.1734       26.495 
           8         -0.8         0.75      4.61803    -0.791491     0.718623      1.57858     -31.2155     -1.67158     -55.3421      -31.441      8.39151      6.85637      33.3994      41.0665      21.3008     -40.5364       -20.24      31.8184 
          10          0.8         0.25       5.6001     0.392991     0.349722      7.74409      4.45884      -2.6713     -2.33071     0.527801     -1.19194      12.7421      2.01483      12.1835     -4.16827     -12.6535      6.60578      -17.803 
          10         -0.8         0.25      2.43876     0.770255     0.633371      3.06932      10.4624     -25.7233      4.41933      14.0038     -54.6299    -0.850302      7.97466      5.44722      39.8606     -2.40812      14.0046     -23.3182 
          10          0.8         0.75       5.3724     0.205204     0.350823      7.44498     0.484013     -4.20798     -22.7118     -33.4101     -6.66853     -32.4833      20.2484      15.2572      5.60287     -16.8288     -11.9275     -7.77085 
          10         -0.8         0.75       2.4457     0.111494      1.05771      2.63525      18.6809     -48.5935     0.777892      3.38235     -16.0115     -44.9976      19.4293      17.3201     -5.11211     -11.4258      39.5829     -7.58699 
