Variables = x, y, z, u, v, w, p, u_x, u_y, u_z, v_x, v_y, v_z, w_x, w_y, w_z, p_x, p_y, p_z

Zone, I=800, F=POINT
           4          0.8         0.25      3.50019     0.320935    -0.593946     -15.3728       20.848     -11.3458     -28.5914      36.5255     -10.1889      23.9877      8.29349      45.7844      10.2561     -25.9333     -11.3227     -6.34476 
           4         -0.8         0.25      4.73578  -0.00659791      1.04879     -14.4439      52.4953      3.61866     -130.307     -39.3852      -39.215      107.886      165.897     -54.4974      12.2224      287.401       75.175     -99.0928 
           4          0.8         0.75      3.10479     0.256997    -0.410445     -15.6693     -4.47232      -9.9591      -15.524      44.8208     -7.25857     -23.1467     -14.8303      32.7244    -0.381812     -32.5668     -6.06018     -15.1243 
           4         -0.8         0.75      2.29679     0.698945     0.804353     -13.1246      79.2562        12.23     -78.8177      1.89654     -19.1426     -40.4907      137.213     -43.8968     -30.8776      152.753     -6.29137      172.948 
           6          0.8         0.25       1.9841      2.26833      0.56761     -15.3849     -5.77392      25.3558     -2.75558     -8.14472     -17.1535      26.3445       9.8228     -35.6869      9.61922      10.6547      2.07044      3.82948 
           6         -0.8         0.25      4.15084     -1.93538    -0.210768     -13.6337      13.8452      13.9648     -17.5446      30.3166      6.51253      39.9239     -14.8575      3.38536      -19.123     -11.6749      7.97738     -13.2786 
           6          0.8         0.75      1.78214      1.78652     0.785598     -15.3394      7.43698       42.083      -10.027      19.1414     -12.8314     -69.6633      12.4502      4.16572      14.3592      8.22526      16.4156     -1.96226 
           6         -0.8         0.75      3.97679     -1.57807    -0.464785     -13.8191 -0.000156964      14.3191     -10.5106     -7.23808     -4.22534      2.48954      16.7619     -11.8244     -3.49052      7.63484      5.09716     0.467132 
           7          0.8         0.25      3.30699    -0.246088    -0.555524     -10.9099     -24.9501     -7.64932    -0.795309     -9.99574      34.3637     -25.4225     -20.6171      -6.2792     -15.4467     -35.0152      9.24645     -64.2473 
           7         -0.8         0.25      7.61878     -1.07218      1.50543     -13.1251      11.5014      26.8603      16.5191     0.847156      27.7888     -12.4157     -21.6662      18.5195     -44.5313     -6.58076      76.6539      39.9443 
           7          0.8         0.75      2.71233     -1.54548    -0.872693     -12.0202     -8.86469      18.7596     -50.5398     -26.3556      5.23842     -97.2935     -5.20165       43.413     -7.70658     -18.7222     -4.12527     -31.1987 
           7         -0.8         0.75       7.4749    -0.794946     0.817332     -12.6193      2.95234      4.01018     -34.5318      6.92874      2.75819      33.1508     -2.45028     -8.00974     -10.1445      -6.5983      69.5673      6.51421 
           8          0.8         0.25      5.48674     -3.17045      2.64014     -25.3461      27.8382     -29.9201     -29.7209       30.004     -22.7281      40.4941      1.99774     -43.8757     -11.2936     -69.7709      15.8594      37.9348 
           8         -0.5         0.25      8.82547     0.348232     0.988567     -18.1243      2.81522      57.3217     -52.5784     -11.6011      36.4033      -5.2191     -23.4895      84.0515     -38.7736     -3.96592     -16.4367      39.0304 
           8          0.8         0.75      5.12282     -2.11416      2.79572     -24.1811      16.1752     -23.1371      8.07989     -11.1236     -30.7528      43.7968     -19.3393     -15.0393      16.7573     -68.1792     -56.1408       94.258 
           8         -0.8         0.75      4.60135      1.10845       1.7257     -16.0814    -0.322799     -2.57353     -25.4587     -50.9146      18.6779     -24.8026     -12.3943     0.364941     -15.9387     -27.7007      3.46466     -7.81971 
          10          0.8         0.25      4.08126      1.79552    -0.191087    -0.468209    0.0273484     -6.16401     0.868255     -5.79854     -4.20588      1.27551     0.488836    -0.633425      3.59656      13.9858      3.56743      1.28844 
          10         -0.8         0.25      4.57284    -0.871204     0.101597    0.0724725     -7.03606      9.60759     -30.7227     -6.18587      7.12952      4.82796      14.7668     -1.72152     0.756236      29.7858      14.7244     -14.5883 
          10          0.8         0.75       4.1008       1.8188    -0.139545    -0.449213     0.889055     -5.60514     0.442034      -5.7593     -2.73927     0.863979      1.14678     0.796418      1.75761      14.5766      4.16139     0.370961 
          10         -0.8         0.75      3.88253    -0.589904    0.0776658    -0.126611     -9.42013      16.5502     -36.3615      0.64702      7.39368      25.4833      28.1814     -4.31351     0.856151      18.9738      10.9604     -3.27851 
