Variables = x, y, z, u, v, w, p, u_x, u_y, u_z, v_x, v_y, v_z, w_x, w_y, w_z, p_x, p_y, p_z

Zone, I=800, F=POINT
           4          0.8         0.25      2.21813    -0.803249     0.245278      3.97088    -0.352766      1.24343      1.01191     -18.1399     -14.2631      12.8625     -8.89667     -3.10808      12.7899      29.7307     -5.40235      4.36811 
           4         -0.8         0.25      4.61934     0.417117     0.888235    -0.259929      -46.389      39.0996      8.63136      49.1102      2.72296      26.1767      105.156     -52.4166   -0.0378147     -98.8616      41.3066     -5.36101 
           4          0.8         0.75      2.16348    -0.749888     0.508966       3.9708       9.7864     -4.24727      -3.1557     -6.93281     -16.0255      -6.5941     -4.97758     -1.07439      10.2085      17.7912     -11.0226     -6.49549 
           4         -0.8         0.75       4.9447     0.742296      0.78922     -0.71118     -34.3616      15.5383      20.3261     -25.3611       6.7277     -2.76718      117.016     -58.5008     -5.20343     -113.498      6.75873     -42.6528 
           6          0.8         0.25      1.55562    -0.851281    -0.865938     -10.9779     -1.47844     -1.39509      -62.881      17.4688      5.60106     -61.8026      13.2037      62.2402     -7.86518     -105.955      87.8398      185.066 
           6         -0.8         0.25      5.78258    -0.219008     0.914354     -5.04718     -3.10468     -21.7481      11.5756      6.49202     -1.72328      10.2606      10.9367      19.4064     -2.88648      39.8136        21.08       20.461 
           6          0.8         0.75      1.44449     -1.18128    -0.969912     -7.36475     -7.26819      4.45433      38.3501     -9.05753      14.5189       21.254      1.35985      43.5855      -4.0993      2.93382      32.8392      133.211 
           6         -0.8         0.75      5.34631    -0.182985     0.513695     -4.96724      52.2625     -22.9219     -53.2755      1.67335     -9.30274     -11.5074      77.3651     -5.39854     -37.1433     -21.6512      40.6865    -0.875786 
           7          0.8         0.25      6.18425      2.38629      1.14516     -9.25465     -25.5245      9.48785      66.9279     -21.1685      32.7113      68.2406      18.4677      -22.368      13.6081      67.7195      116.037      148.573 
           7         -0.8         0.25     0.881834     0.847751      1.70755     -13.1645      18.5382      52.7606     -2.61739       13.842     -14.5595      1.77371      -27.216      83.0984      2.41944     -33.3741     -30.9773     0.552738 
           7          0.8         0.75      6.65717      3.10744      1.30351     -6.88593     -13.0552      95.9814     -21.2857     -7.28363      16.8576      12.4385      54.9032     -5.00556      2.61949      32.4866      49.1221      85.9147 
           7         -0.8         0.75     0.868878     0.901107      1.81083     -13.5111     -3.32287       50.264      9.34783     -21.9371     -2.45525     -12.4937     -32.7388      84.9527     0.377379     -30.3802      55.8391     -26.4955 
           8          0.8         0.25      4.22786     -0.95011      -1.7848     -1.31745      33.0542     -7.79443      10.4802     -28.4573     -52.0219      -26.497      13.1688      21.9499       20.007     -27.4416     -20.9668     -36.2793 
           8         -0.5         0.25      7.08403     -1.91575    -0.401714     0.901428     -2.71731     -5.70601      16.3114      15.5699     -12.7173      7.67116     -16.5787      12.6445      13.4945      18.6671      28.8068     -4.71518 
           8          0.8         0.75      3.97628     -1.55864     -1.36128     -2.46711      4.36167    -0.909864     -40.6954     -42.9893     -19.4369      -29.815      33.5682      15.1666      16.7337     -38.7333     -6.53486     -67.1277 
           8         -0.8         0.75        6.057     -2.70344     -1.32277    -0.501244     -1.09572      21.7166      5.82547      4.02726     -12.0371     -25.9398     -2.05392      37.4469      11.7328      9.86804      3.14711      6.58217 
          10          0.8         0.25      2.25805      1.04673    -0.225889     -5.79595     0.576641      13.2639      20.1051     -9.32241      1.44949      12.9839     -20.9052      7.46866     -2.92839       6.9404     -27.1389     -16.7805 
          10         -0.8         0.25      2.68819       1.2931       2.2375     -7.44245      4.70822      3.88005      43.7931     -7.94864     -5.83468      15.9218     -20.8152     -33.9084      2.40104     -21.2204     -34.5106      27.8756 
          10          0.8         0.75      2.72398      1.08658   -0.0950486     -5.74701      4.14873      22.0755      20.9454     -15.7448     -18.2964     -7.77571     -31.9795     -13.8182      15.5168      3.41984     -40.3556      18.4992 
          10         -0.8         0.75      3.51464      1.41738      1.46081      -6.6579      49.8354     -13.5834      32.8076     -12.8644      23.2469     -12.7798     -41.5525      45.7957     -77.1775     -26.4957     -74.7104      23.0931 
