Variables = x, y, z, u, v, w, p, u_x, u_y, u_z, v_x, v_y, v_z, w_x, w_y, w_z, p_x, p_y, p_z

Zone, I=800, F=POINT
           4          0.8         0.25      2.68679    -0.861653   -0.0118352      3.70332     -3.84293     -2.63738      -4.5513      6.98344      5.51792     -5.44566      6.99416     -3.91661      1.51462        -8.78      1.33787      2.98671 
           4         -0.8         0.25      6.08583     -1.53324     0.962369     -2.56964      44.8839      12.1478     -54.7871     -16.8865     0.877471     -26.9864     -4.90861      13.3371     -31.0002      68.1051     -1.75904     -16.8579 
           4          0.8         0.75      2.78645    -0.932272    0.0561753       3.7584     -5.50035     0.157108      18.7381     -14.0898      2.29643      2.44721     -6.02707     -9.94717       5.4672     -19.2341     -1.77925      1.65049 
           4         -0.8         0.75      5.59474     -1.29042     0.663183     -2.70317      9.04748     -7.94635      12.0376     -14.0102     -1.38449      61.1359      15.8103    -0.641699      9.88909      16.4527     -6.61014     -3.18094 
           6          0.8         0.25      2.47998    -0.205892    -0.332912     -7.88489    -0.599848      7.92771     -22.9467     -5.30719      4.91929       11.615       -27.99     -8.51099     -15.4215      11.0345     -11.3348      2.49115 
           6         -0.8         0.25        3.726      0.12781     0.439159      -4.8532      32.1599     -27.0651      4.53925     -29.4703      15.4797      11.2567      24.4015      53.4461     -33.3911     -61.5512     -21.2278      8.47396 
           6          0.8         0.75      2.21525     -0.22207    -0.517025     -8.11951      16.4686     -1.21524     -5.26664     -10.3597     -3.37086     -17.1707     -28.9146      -11.464     -4.65236      8.48252     -5.90372     -14.4319 
           6         -0.8         0.75      3.74667     0.153337    -0.115168     -4.68265      53.2177       7.1627      3.48117     -27.9926     -10.4404     0.798334      14.9373      40.8136     -13.1529     -14.7326      -9.8335      10.2008 
           7          0.8         0.25      4.71201     0.998372    -0.432447     -6.54061     -17.9419      38.9609      32.6242       8.0308      57.7538       28.314      15.7779     -93.3721     -17.6332      35.1728      109.933     -26.9789 
           7         -0.8         0.25    -0.101775       1.1637      1.80809     -14.6299     -12.8847      65.7301     -12.9873      11.0377    -0.609541      43.9609      31.1704      42.2916      13.6028      18.5456      32.9601     -19.8527 
           7          0.8         0.75      4.66903      1.20559    -0.407691     -7.09502      16.3907       27.517     -28.1836      14.5211     -52.4558      2.80148      9.11122     -151.567      25.7976      18.3936      7.78976     -17.0371 
           7         -0.8         0.75    -0.254412      1.46891      2.13555     -14.5978      26.5014      37.4301      19.4326      21.2449     -52.0658     -4.78704      22.1299     -27.4468      9.36736      10.1273      47.2918      11.8336 
           8          0.8         0.25      3.80742    -0.286179     -3.08707      1.28345     -5.09206      51.3312     -1.40368     -17.6058     -34.2018     -60.6503      19.5047      39.9386      40.1831      23.7699     -78.8891      35.0172 
           8         -0.5         0.25      7.73439     -2.48833    -0.389629     -3.54304      8.16922     -6.07605     -4.17773       6.0324     -3.37249      14.5946      14.6987      1.46392     -3.72695      20.7783      15.4038       2.2493 
           8          0.8         0.75      3.57707    -0.703664     -2.05952      1.67715      18.9573     -37.6017     -14.0691      43.0879      -62.775      33.0576       19.867      45.7276      41.8912     -14.2135     -87.8293     -5.77779 
           8         -0.8         0.75       4.5776     -1.40657      1.04861     -4.21362      12.0333       41.108     -6.09233      -17.117     -31.2096      -15.833     -2.30628      16.0628      21.0861     -20.3352      1.36844     -8.83327 
          10          0.8         0.25      4.76598     0.661231     0.425266      -12.969      24.0882     -57.2045      53.4574      50.0221     -60.4788      155.028     -39.7003      16.8322      34.3695     -7.83436     -4.43828      61.3931 
          10         -0.8         0.25      5.48881      3.30156     0.885571     -2.85515     -31.6458     -38.3874      42.5067     -11.3026      0.20916     -7.87111      10.9561     -11.0662      26.6118      29.5173     -42.7095     -22.1299 
          10          0.8         0.75      6.37856      2.96328      1.36704     -11.9552     -6.83677     -148.534      91.3614      32.7798     -63.1194      64.2053     -25.8543     -16.8246      62.0139     -14.1528      7.15142      44.8016 
          10         -0.8         0.75      5.48241      3.29241      1.21653     -3.09303      10.9271      4.42898     -40.2996      21.1479     -27.1914      4.81191      44.1717      12.0704      7.47504      11.0535      35.5125     -8.07855 
