Variables = x, y, z, u, v, w, p, u_x, u_y, u_z, v_x, v_y, v_z, w_x, w_y, w_z, p_x, p_y, p_z

Zone, I=800, F=POINT
           4          0.8         0.25      2.74442      -1.3256     0.772081     -10.5014      33.3584      18.1021      27.2491     -5.25951     -28.8146      46.6958     -14.1927     -42.4335    -0.344666      -45.387     -39.5387     -31.6496 
           4         -0.8         0.25       2.0148      2.21352    -0.273074     -11.0786      6.64854     0.892862      4.98611     -18.2603      10.9855      59.7205      -16.919     -49.1928     -15.8682     -39.2209      12.9003       34.812 
           4          0.8         0.75      3.82387     0.032138     0.635417     -10.5574      24.8771     0.484767      69.6316     -6.10184     -12.2504      74.6213     -5.56738     -37.3559     -17.3161     -22.4345     -33.3672      25.0671 
           4         -0.8         0.75       2.1391      2.50744    -0.511391     -10.4835      8.82545      9.25346     -1.47917     -36.3454      2.72717     -12.3079      10.2911     -13.7047     -12.7122      4.86706     -21.5405      19.1036 
           6          0.8         0.25      3.26883     0.185484     0.779643     -3.71428      14.8347     -5.27017      12.1129     -7.53343     -17.6227     -8.64202      -16.257     -24.3043      6.75294      21.3691      11.0497    -0.131929 
           6         -0.8         0.25      8.67864     -2.47742      1.76769     -11.1144     -87.5559      47.6787      3.65475     -111.636     -12.9073      65.8008     -23.3507      -37.167      72.2537      343.284      131.524     -120.862 
           6          0.8         0.75      3.14397    -0.294564      1.02951     -3.59081      9.62228     -13.8051     -19.6274      -23.281     -15.3516     -39.0983     -15.1807     -30.7969      7.34056     -10.2754       23.609      6.71463 
           6         -0.8         0.75      7.94029    -0.488365      2.57845     -13.4752      5.24312      91.6829     -82.0116     -221.109     -5.80715      99.3877      6.15057      2.85767      1.99646      300.187      16.7129     -88.4504 
           7          0.8         0.25      3.03467      1.05792    -0.203231      -7.9652     -12.9862     -47.9302     -18.3763     -43.6402      9.06199      4.27743     -24.8427     -49.9325      1.45513      15.7304      30.5592     -4.18722 
           7         -0.8         0.25      7.35711     0.783493      0.11676     -14.2993      14.2773      7.71802     -9.80283     -8.49432     -35.1401      18.6277      8.22822     -6.59475      15.6023    -0.726816     0.682044     0.374524 
           7          0.8         0.75      1.80867   0.00113456     0.131566     -8.37258     -25.9502     -70.5623     -86.5385     -66.2657      2.23993     -110.252     0.580131     -67.5713      22.0257      25.6545      9.71666     -38.1097 
           7         -0.8         0.75      6.84328      1.12919     0.430015     -14.3529      5.98295    -0.342423     -27.5965     -5.18367     -14.6563      11.9369      -8.8725       7.6411      8.96311     -4.84671     -16.9329     -1.83213 
           8          0.8         0.25      3.65265     0.106807    -0.683162     -29.2557     -26.5169     -16.4025      23.7785      4.30782      15.1545      108.415       12.043     -29.9974      10.0269      8.52306      56.6654      81.5108 
           8         -0.5         0.25      9.83333     -3.13997    -0.306763     -16.9417      4.53425     -20.6904     -46.5399     -6.63188      45.5009     -65.4644      12.9435      47.1263     -44.7121      42.8152      -30.711     -3.30675 
           8          0.8         0.75      4.72699       1.7338    -0.430558     -27.5253     -26.8949      123.639      57.9909     -37.0362      13.0064      18.5678      19.1742     -54.7009      13.9452     -24.5457      5.89966      82.8444 
           8         -0.8         0.75      2.85965     -0.91862      2.54988     -17.6413   -0.0463627     -2.47623     -3.70215     -3.19106      15.0362     -5.55342      18.3001     -13.3558     -14.5685      16.7844     -40.7551      58.9502 
          10          0.8         0.25      3.63756     0.759413     0.319438      4.25443      -1.1415      2.54647     -9.07641      5.22837     -1.83748      10.4816     -1.01087      6.30725      4.37728     0.478481     0.461595     -2.49196 
          10         -0.8         0.25      2.46484      1.93791      -1.3404      3.34263     -1.50806      5.98417      10.7484      13.7921      25.6378      18.9608      14.4221      3.38158     -26.4877      0.33679     -14.8262     -14.6965 
          10          0.8         0.75       3.6731     0.901576     0.162017      4.21899       5.4825     -5.25725      9.93452      8.14614      13.9399     -0.49278      -7.6776      16.5589     -19.6258     0.101407      2.86978     -1.13948 
          10         -0.8         0.75      2.11744      1.69658     -1.66664      3.03941      17.2251     -10.6629      -43.339      30.8644     -6.28829     -43.4153      18.2023      8.75551     -9.84637       -16.32     -38.0271     -5.55856 
