Variables = x, y, z, u, v, w, p, u_x, u_y, u_z, v_x, v_y, v_z, w_x, w_y, w_z, p_x, p_y, p_z

Zone, I=800, F=POINT
           4          0.8         0.25      4.63879      2.88333     0.267667      3.36852      2.56196     -8.37434     -2.23985     -9.32602      1.64879     -0.90653     -2.04898    -0.148263     -3.02513      23.0325     -3.35093     -7.95292 
           4         -0.8         0.25      5.43576     -4.79089    0.0799756      -14.702      50.7597      23.6185      73.8487      82.0759     -20.6995     -14.0125     -111.133      38.1781       -28.06      161.487      -40.497      105.685 
           4          0.8         0.75      4.63349      2.87247     0.186305      3.20197     -1.46845      -7.8712    -0.281164     -8.58024      1.84936     -1.33511     -1.79125     -1.60995     -4.02442      27.4445     -2.60427     -9.15705 
           4         -0.8         0.75      6.14902     -4.28559  -0.00519054     -12.2489      5.94088      9.14459     -2.44634      88.9918      -14.039      59.4797     -42.2866      62.1818      4.39801     0.381027     -21.2352      98.8615 
           6          0.8         0.25     0.977939    -0.223986      -1.0743     -17.3641      39.0056     -15.5946      15.4847     0.305901     0.221395      40.9347     -30.1723     -38.8959     -32.1981      23.9666      6.74324     -8.35729 
           6         -0.8         0.25        7.886     -1.36417      -1.5361   -0.0185873     -8.81774      7.15104      9.07677     -37.5794      1.47825      2.21378      4.28266    -0.445631     -1.03236      35.8998     -15.4626      5.59685 
           6          0.8         0.75      1.33016    -0.237387     -1.58602     -17.7704      19.9156     -29.3008      37.7331     -31.0032     -5.67784     -25.4678     -36.8062      14.7419     -12.4802      129.346     -8.70917     -41.6692 
           6         -0.8         0.75       8.2094     -1.32834     -1.46815    0.0917942     0.275934     0.984178      18.9792     -40.3913     0.841125     -2.58305       4.9362     0.999103      4.74226      6.18424     -14.6123      7.94142 
           7          0.8         0.25      3.46451     0.701681     -1.77631     -4.81468     -30.6033      5.98906      13.6518       -39.45     -20.5438     -15.3218       21.173      12.5319      47.2124     -4.53684     -35.1616      36.1083 
           7         -0.8         0.25      4.73053       1.4607     -0.40988     -4.05845      -1.1712     -13.7357      7.35805      6.64806     -5.41643     -2.48842     -4.73575      51.2176      6.22259      22.5189      16.9287     -17.5349 
           7          0.8         0.75      4.50662     0.568752    -0.955313     -4.70024     -39.3379     -45.4775      67.4011      18.6235      4.28383      18.1134      9.39714       6.6013      23.7718     -2.16244     -8.06313     -29.9494 
           7         -0.8         0.75        4.627     0.971588    -0.126164     -4.29096     -10.2118     -3.97302     -11.6875      16.8206     -23.4241     -36.3895     -31.7653      106.897      27.3611      14.0493     -33.7819      -2.8825 
           8          0.8         0.25      4.14047      1.24743      1.62885       1.7075      16.0408      20.8565      49.5961     -7.75966     -5.28951     -27.4057     -57.9763     -58.2332      -6.2828      14.5355     -4.89932      20.6362 
           8         -0.5         0.25      4.80975    -0.427878     0.670484     -12.7147      15.5678     -6.56437      37.3749       -15.26     -62.3426     -52.3461     -3.29294      22.2587      41.0207      37.1628      8.79592     -15.4806 
           8          0.8         0.75      4.75949     0.655737      1.64895      1.37384      13.5576      40.9788     -19.5984     -3.61099     -16.0659     -9.83721      8.23057      -81.614      6.85812      12.3754     -21.5419     -45.2881 
           8         -0.8         0.75       2.0724     -1.85247     -1.75855     -11.6631      5.26101     -26.4537     -12.8479      9.13657     -12.7516      -7.2668      2.39093      17.8355      10.6686      2.96462      2.59765        21.54 
          10          0.8         0.25      1.29977     -4.18441    -0.390246     -13.1044      15.1981       -13.46     -17.1012      -4.7164      6.85581      8.53526      16.9133     -49.6483     -24.6982     -45.6893      26.8129      -70.936 
          10         -0.8         0.25      5.67925      1.10502     0.674807    -0.552189     -10.3814      20.3124      30.1607     -65.1616      40.2715      42.6603      42.8694     -44.0834     -32.6304     -17.2619     -36.8108      7.20763 
          10          0.8         0.75      1.16093     -2.95922    -0.562512     -14.1079     -1.27564     -23.5824      1.85768      2.38235     -12.2555      97.2775      21.3178     -52.8073      15.3166      -53.837     -8.62898      2.47649 
          10         -0.8         0.75      5.85899      1.88009     0.389229    -0.683498     -11.4429      18.2603     -4.95825     -3.92329      7.61556      18.3969      21.5276     -9.64768      9.04711     -12.3615     -49.1305     -17.0383 
