Variables = x, y, z, u, v, w, p, u_x, u_y, u_z, v_x, v_y, v_z, w_x, w_y, w_z, p_x, p_y, p_z

Zone, I=800, F=POINT
           4          0.8         0.25      5.40332      4.00611    -0.111866     -16.0286     -4.69892     -12.7309      2.03514     -10.9491     -4.09727    -0.111529      7.22529     -0.14674       5.4931      53.8902      14.0892      2.14444 
           4         -0.8         0.25     -1.24496     -1.77228     -1.65223     -37.8727    -0.593051      98.2041      -27.184     -54.1133     -34.4403      45.3269     -2.85534      38.2007       46.181      35.8364     -38.1018      22.1788 
           4          0.8         0.75      5.39168      4.01517  -0.00133179      -16.041     -1.62583     -14.6277     -1.45037      -9.4152     -3.98349      2.40155      6.01761      3.77968      5.29087      43.9628      10.6353     -3.23679 
           4         -0.8         0.75     -1.14951      -1.5665    -0.724003     -37.1966       29.313      74.3863      27.5289      -81.082     -71.5998     -29.0795     -2.73133     -5.93387      45.0112      145.286     -166.843      51.3804 
           6          0.8         0.25      2.16914     -2.13126     0.705289     -14.2313     -4.93764     -8.21748      19.6558      4.31498      2.66709     -3.56811     -5.09156       1.5447     -3.61382     -13.9511      4.80494     0.047773 
           6         -0.8         0.25      5.43659    -0.874336     0.717929     -3.42079     -55.9902      26.1666      19.7602     -36.6185      11.9621     0.704738     -36.8708      6.10178      42.9857     -40.0194     -23.1934     -17.9871 
           6          0.8         0.75      2.42183     -2.16634      0.59125     -14.2725     -6.48153     -2.45792      3.75812       6.1286      8.50939    -0.141215     -2.44844     0.666229      -5.7408     -17.5387      3.34419     -3.92381 
           6         -0.8         0.75      5.98142      -1.0999      1.45756     -3.95904     -32.8368      40.1736      36.9801     -87.2575       11.104     -31.5765     -54.6805     -1.35642      15.2835     -87.3854      9.34029     -26.1102 
           7          0.8         0.25      2.25412      3.87978    0.0253688     -18.6893       18.198     -41.9224       27.141      6.48774      15.2164      -27.039      8.19066     -12.6954     -27.0375      34.6757      31.2526      54.1496 
           7         -0.8         0.25      7.13757     0.850163    -0.367956    -0.729378     -35.0513      9.99654     -32.1139       48.346      23.8453      18.8655    -0.224316     -7.03547      13.8543      3.39258     -57.7286      36.2826 
           7          0.8         0.75      2.11193      3.03253    -0.351708     -18.0431      27.6009      35.1765     -27.3937      11.6484     -15.9771     -44.7704      26.6422    -0.988065     -6.00422      31.2473       62.759      19.1614 
           7         -0.8         0.75       6.4498     0.906768   -0.0835241    -0.386895      -22.924      23.8591     -14.6046      12.4851      9.85305     -13.3122     -32.6356      5.79757      16.8006     -21.4841     -33.9378     0.233604 
           8          0.8         0.25      6.30401      1.20955     -0.91966     -1.61737     -4.20101      6.02161      39.4696      7.95058     -23.3288      27.0823     -12.0623     -33.8312      27.8664      23.1426      35.3442      -3.9539 
           8         -0.5         0.25      3.76185      1.47996     0.415132     -20.4048      10.0234     -7.73428      14.9394     -12.5615      1.51934     -6.08699      -7.1522      79.9996     -7.41703      1.32012      30.1885     -10.2182 
           8          0.8         0.75      6.83708      1.99168     -0.56504     -2.23648     -13.1215     -15.5122     -6.85185      1.22361     0.839184      13.2348      6.66362       16.004      13.7897      33.1717      11.0099     -53.7097 
           8         -0.8         0.75     0.627163     0.733749     -1.27693     -17.3925     -9.51515     -3.54294      21.9513     -25.3342     -10.5704      24.0832     -9.06086       10.154      19.4333      11.3353     -39.1078      14.1465 
          10          0.8         0.25      1.16578      -3.3368   -0.0920104     -8.67094     -13.2943     -11.7038      2.17872     0.205614     -17.4234     -7.70692     -6.31902     -7.37775      29.7249     -42.5095      8.49306     -33.6479 
          10         -0.8         0.25      3.68168      1.47587     -2.55971     -3.50656     -18.0073     -2.64323      12.0821      -13.319      11.8841      34.2084      10.5594     -4.62821      4.53618     -15.4826     -29.9795     -18.6548 
          10          0.8         0.75     0.770996     -3.40189      0.30943     -9.44305     -23.7262      3.03637     -40.0133       9.9858      11.7445     -7.28967    -0.938022     0.209534      6.85165     -48.7693      11.6195     -37.9533 
          10         -0.8         0.75       3.4054      1.44862     -2.29947     -4.14553     -17.2189     -11.1502     -50.9782     -2.19468      3.08633     -15.2889      17.7633     -19.6956      13.0742      19.2121     -20.4093     -26.6974 
