Variables = x, y, z, u, v, w, p, u_x, u_y, u_z, v_x, v_y, v_z, w_x, w_y, w_z, p_x, p_y, p_z

Zone, I=800, F=POINT
           4          0.8         0.25      3.51228      1.80849   -0.0912044     -20.1609      14.8962     -77.2131      38.6027     -2.65044     -75.8203      117.441      14.5668      -53.873      49.2392      94.2639      105.916      107.566 
           4         -0.8         0.25      3.79483     -2.42082    0.0937052     -5.55351     -26.4749      37.5071     -4.15835      141.565     -26.3717      17.9514      -14.783      7.06959      47.2755      1.47681      1.87339      21.0934 
           4          0.8         0.75      4.08682      2.81386       1.5976     -17.9674     -1.64177     -21.3078      2.96776     -52.8476     -93.8123     -38.4925     -9.62687     -11.9711      99.3994       50.069      93.3366      91.6212 
           4         -0.8         0.75      2.81125     -2.01244     0.778844     -5.86201      7.22991      29.3894     -79.1889      76.1005      6.34874      22.4438     -13.5408      3.33851      6.31754      6.27883      42.9775     -29.7207 
           6          0.8         0.25       3.0129     0.594819     0.866324     -14.2135      14.7499     -45.2759      7.90062      18.0973     -18.3478     -10.7725      11.5825      60.0288      1.82756     -46.8936      21.7752     -33.7617 
           6         -0.8         0.25     0.868984     -1.36754     0.175888     -22.9095       10.512      9.25695     -1.95967     -32.6304      13.9316     -4.62644      38.8752      -23.508     -11.9767      52.6554     -66.6589     -42.0682 
           6          0.8         0.75      3.10091     0.578005      1.11592     -14.4148      34.0191     -8.27919     0.307723      -26.328     -29.9407     -4.22218      -15.246      29.7724      16.0991     -54.9674      27.3397      11.5898 
           6         -0.8         0.75      1.38121     -1.48271     0.284124     -23.4671     -19.7473      83.3706      49.3234     -44.3488      3.73093     -13.0155      31.6412      2.16549      24.7004      71.3566     -60.7988     -7.95663 
           7          0.8         0.25      2.60205     0.441824    -0.385671     -4.25952     -18.7378      17.0982      15.7053     -23.3551      3.70603     -14.2673     -11.5334     -18.1155      20.0695     -22.5197     -46.6601     -25.9652 
           7         -0.8         0.25      5.22652     -2.34921     -1.53749      -6.4684      -1.4248    -0.228786     -2.33072     -1.28298     -10.3305      31.5687      13.9979     -19.3121      13.8948      11.2966      25.8727    -0.489542 
           7          0.8         0.75      3.21167     0.536134     0.142669     -4.97105     -14.5124     -38.6413      48.9544     -12.9674     -6.33906      22.7719     -24.3204     -39.9869      25.8812     -53.1005     -8.73987     -38.4171 
           7         -0.8         0.75       5.0584     -1.87272     -1.35406     -6.48172      3.55427       13.808    -0.682598      -9.2167     -1.59587     -5.76957      4.18787     0.296301      -2.8753      11.6387      17.8665      0.92684 
           8          0.8         0.25      6.27744     -1.84293     0.941345     -8.99086      54.3731      80.0945     -7.13555      15.0225     -113.005      45.4008     -9.17588     -29.7749       62.048     -94.9895     -47.0533      56.4168 
           8         -0.5         0.25      5.55045    0.0394822    -0.495429     -9.98192      6.07845     -42.8727     -50.6196       36.483     -5.92175       90.787     -2.63088     -53.4461     -2.72395     -16.2706      91.6422     -16.6243 
           8          0.8         0.75      5.95479     -1.28692      2.64582     -9.24315      45.6311      65.3085     -24.1457     -21.6684     -118.013     -13.2656     -7.11556      69.3735      74.5804     -101.773      67.9768     -111.654 
           8         -0.8         0.75       5.9792    -0.614139    0.0716351     -6.33525      14.2717     -12.3045    -0.224173     -5.78576     -5.69974       -6.693     -33.6394      -45.699     -5.86526      6.93788      29.8543      17.7837 
          10          0.8         0.25      3.34685      2.95363      0.52847     -8.78939      11.5165     -2.73036     -7.34758      15.4877      1.34172     -7.41274     -5.06395     -35.5291     -12.8168      30.6899      3.51196      15.6601 
          10         -0.8         0.25      6.87575     -1.19238     -2.01938      -3.5711     -3.74883       1.4019      17.8638      23.6357      1.13662     -23.2607     -5.99115       4.8645     0.318982     -1.66266      19.7082   -0.0526531 
          10          0.8         0.75      2.93413      2.41239     0.254433     -8.66765      8.33683     -36.8701     -30.3474      3.70842    -0.887624     -35.3602     -4.40848     -7.01411     -6.40974      30.1006      10.3729    -0.596974 
          10         -0.8         0.75      7.06879    -0.876937     -1.81696     -3.44246      10.3451      24.0129     -7.65984      13.6081     -23.7578      35.3207     -2.02068      25.7803      8.22762     -27.4945      7.29623     -8.07323 
