Variables = x, y, z, u, v, w, p, u_x, u_y, u_z, v_x, v_y, v_z, w_x, w_y, w_z, p_x, p_y, p_z

Zone, I=800, F=POINT
           4          0.8         0.25      3.63459     -1.37852     0.924272     -23.0741       -80.54     -55.4944      18.8628      30.7291      24.5131     -23.3435     -29.0987     -7.12712      37.4109      -61.092      21.6789      6.22991 
           4         -0.8         0.25        2.273      0.95404     0.429412     -25.2652      71.7474      39.6053      55.6734     -116.828      26.0294     -53.5676     -121.629      3.96678     -39.7789      134.033      6.98617     -21.6759 
           4          0.8         0.75      3.65089     -1.30909      1.67202     -23.1744     -76.7814     -36.6974     -11.5407       70.693      22.7605      27.4666     -51.6923      12.9486      37.2233     -11.5321      4.45392     -17.5974 
           4         -0.8         0.75      3.08611     0.770512    -0.742292     -25.4562      51.2983      36.4477      8.04965      -147.21     -5.70445      23.5054     -65.9113      8.97179     -45.7929      83.4289     -47.4473     -2.76155 
           6          0.8         0.25      4.98019    -0.144291     0.399317     -13.1156      13.1784     0.342228     0.551152      25.4755     -3.67772      5.82986      5.41563     -12.2725     -7.97007     -22.4766     -31.0673    -0.898198 
           6         -0.8         0.25      5.35974    -0.261581     -1.10245     -16.1349     0.358888      2.17096      16.5306     -9.96942     -16.0696      15.0074      13.9688      25.7664       5.5583      12.7995     0.573496     0.741696 
           6          0.8         0.75      5.16611     0.134697     0.186618     -13.1918      11.3407     -18.2874      8.77446      31.6641      13.2709      20.3903     -8.60397     -32.7232      -11.294     -29.2039     -28.6384     -4.77074 
           6         -0.8         0.75      5.89002    -0.320513    -0.987482     -16.1495     -17.4234     -1.20677      16.8166     -30.8078      6.35135     -19.8073      23.9852      9.04608      3.59334      46.2185      10.7337     0.457572 
           7          0.8         0.25      1.37646    -0.918649     -1.85997     -21.3272      45.1762      140.516      5.84137       58.542     -81.1817     -19.9132      14.1323     -7.04674      36.0325      26.1591     -2.16647      36.2405 
           7         -0.8         0.25      7.31149     0.275922     0.572805     -29.1618     -1.45048      43.7012     -53.9233     -10.1566      4.92016      18.1995      14.8021      -35.987     -2.17164      30.6732      19.5293       24.464 
           7          0.8         0.75      1.89075     -1.68708    -0.734809     -21.4079      23.7461      30.2407      17.5721      74.8042     -58.3297     -40.2938      22.4662     -27.6702      46.5224      2.78438     -42.7114     -56.8125 
           7         -0.8         0.75       4.9665     0.366005     0.219167     -28.7935      8.40089     -40.4887     -129.251      16.1982      27.3371     -14.7032     -17.4158     -30.3168     -32.0248      26.2722      14.9055     -8.11832 
           8          0.8         0.25      5.09406    -0.572399      2.05902     -37.4919     -6.42371     -6.16562      30.9141     -27.6942       21.241     -74.1729     -41.8465      -5.3274     -22.8475      86.8408     -48.1198      72.1993 
           8         -0.5         0.25      9.49445     -2.05127    -0.877331     -15.3411      24.6252      22.6955     -10.9073      10.7722      8.85782      50.6436      8.77148     -2.22178     -34.2497      10.4633      2.00957      9.18136 
           8          0.8         0.75      5.41267     -1.13308      2.36575     -35.7625     -75.2018      31.0271      10.5685      61.2982       19.548      13.2356     -40.3249      11.8206      58.8326      79.1734     -8.54937      64.9456 
           8         -0.8         0.75      4.62908      -1.6529    -0.738096     -12.4226     -7.34695     -8.01291       5.7884      20.6484      43.8674      22.4194      41.5889     -94.0373     -35.1488      13.6477      5.03376      69.4367 
          10          0.8         0.25      3.54252     0.330301    -0.276726      -1.9635      4.00696     -4.10306      1.27227     -4.22881      4.75236      21.1424      2.43539     -19.1621     -9.08736      2.15004      3.83287    -0.698353 
          10         -0.8         0.25      2.59083      1.34129     0.833356     -3.10324     -1.24213      1.97981        17.01     -1.87358      11.8506     -2.90612      22.8061     -3.41561     -8.92219     -2.49522     -15.1041     -2.72486 
          10          0.8         0.75      3.78291     0.899853    -0.151858     -1.96536     -1.07816     -5.05993      16.0426     -1.97609     -13.2802      24.3821     -7.35595      -11.641       15.548    -0.534303     -5.82116    0.0303507 
          10         -0.8         0.75      2.88787      1.48127     0.842249      -3.1839     -15.6542      6.99882      10.6455      22.0907      6.29589      2.94558      20.3605     0.418237       8.9975     -2.04297      -17.336     -7.26117 
