Variables = x, y, z, u, v, w, p, u_x, u_y, u_z, v_x, v_y, v_z, w_x, w_y, w_z, p_x, p_y, p_z

Zone, I=800, F=POINT
           4          0.8         0.25      3.94486      0.11753      1.50933     -20.4141      54.1248     -11.2711      11.6296      73.8223     -40.6078      14.0473      -1.8181     -16.1382      -3.4843     -87.9171     0.413263     -62.2008 
           4         -0.8         0.25      1.10551   -0.0506048      1.19333     -21.5261     -96.3434      89.3478     -38.1413      27.8766      50.3532      27.8205     -2.15731      47.7024       41.359      26.8685     -56.0117     -37.9589 
           4          0.8         0.75      3.96111      1.23987      1.38015     -21.2185      19.3226     -6.62231     -10.6248      57.4016     -30.8936      54.7779      15.7058     -35.3454      8.00719     -28.0486     -6.07716     -14.7324 
           4         -0.8         0.75     0.796184     0.726232     0.908375     -21.7656      12.1504      16.2609     -7.58349      12.4821      47.1868      58.5887      18.4344      43.0416     -56.4638     -63.1605     -72.6236     -15.0325 
           6          0.8         0.25      2.89674     -1.36249     0.908478      -7.0597      -3.7996     -2.87051      17.7164     -1.83174      3.63363      2.48511      12.2204      3.76893     -2.31506     -3.47926    -0.907897      -8.0296 
           6         -0.8         0.25      5.53328      2.08766    -0.229734     -16.8152     -13.9416      20.6094     -3.61353     -32.1488      10.0185       36.374     -9.67513      -8.7783     -1.72766      -76.794      9.51066      23.4597 
           6          0.8         0.75      3.14751     -1.32971     0.942307     -7.27948     -7.02355     -12.0583     0.659867     -6.45589     0.991362     -3.68957      3.23984      3.51201      6.07885     -10.2435     0.715314     -12.9691 
           6         -0.8         0.75      6.18244      2.16714    -0.571357     -16.4965      41.3049     -7.31391      51.4336      25.7985      -4.7296     -19.3192      8.76705      1.58084     -21.6939     -42.7717      9.53042       12.967 
           7          0.8         0.25       1.4204     0.905017     -1.26322     -21.4851     -32.1106     -1.18008       29.514     -48.9125      29.8486     -3.75581      46.0619       13.099      5.94207     -37.9506      45.3191      6.65046 
           7         -0.8         0.25      5.10018      -1.1902    -0.508511     -32.9891     -19.5387     -14.1688      54.0381     -12.6459      35.8561      14.4541      20.8056     -42.0106     -7.11878      23.3954    -0.956505     -31.7437 
           7          0.8         0.75      2.25527      1.30682     -1.36335     -20.9033     -25.1888     0.636524      15.5878      5.89764      26.4663      30.3409      8.12352      -25.306     -2.41549     0.755556     -64.4351      30.0703 
           7         -0.8         0.75      6.20712      -1.2124     -1.00138     -33.6266     -5.12588      52.0253      43.7137     -5.27725      36.9896     -18.4143      1.02012     -12.7759     -19.7001      39.4535      6.78004     -11.4934 
           8          0.8         0.25      4.03337     -0.93897     -1.11807      -25.785      27.8657     -18.5752     -63.7742      44.9781     -41.4629      78.8411     -31.3825      34.2848      11.2059     -106.678       110.66      42.0738 
           8         -0.5         0.25      8.65328     -1.92055    0.0570741     -2.15675      1.52257       8.0793     -15.5725      1.93134      7.20924      8.03743      5.82391     -1.52762     -9.30687      17.2995     -11.3138     -3.23086 
           8          0.8         0.75      3.46433     0.134894    -0.409122     -25.2757      -1.5786      18.5107    -0.703754      46.7257     -38.3593      12.0912     -44.6695      36.5175      41.7834     -74.1495     -11.6232      22.5991 
           8         -0.8         0.75      6.65765     -2.49769     -0.26015     -0.86521      9.61686      8.59507      21.1055     0.835416      2.56692     -9.77251     -1.58435      1.48733      -12.295      21.4698     -15.9975    -0.422462 
          10          0.8         0.25      4.74516      1.11005    0.0357492      4.95725      20.7641     -6.06315     -27.3151     0.652658     -15.9049    -0.675431      13.3993      15.9536     -7.27069      2.64661     -1.41493     0.854192 
          10         -0.8         0.25      4.55815    -0.369504     0.512095      1.36253     -20.0185      56.7832      19.1806      7.97265      13.1631     -7.02016     -12.9805     -4.40472      6.50127      13.2542      12.2857     -8.81568 
          10          0.8         0.75       4.2397     0.887404    -0.190931      5.00406      13.4135     -11.8044      -16.682      3.19094     -2.16772     -16.4239      15.1171     -7.24954     -11.8846     -1.50738      9.89678      4.85921 
          10         -0.8         0.75       4.9606    -0.242458     0.381401      1.26563     -12.6615      36.5101      18.0774     -1.28316      30.4201      14.0424     0.310976     -34.3295     -16.5131      19.8171      26.6563      3.03376 
