Variables = x, y, z, u, v, w, p, u_x, u_y, u_z, v_x, v_y, v_z, w_x, w_y, w_z, p_x, p_y, p_z

Zone, I=800, F=POINT
           4          0.8         0.25       2.3301     -1.10031     0.219763     -4.25119     -5.50066      12.4246     -7.72202       13.457      8.94608      5.12156      8.04612     -1.62889     -6.76377     -2.93708      10.0737      1.54999 
           4         -0.8         0.25       4.2183     0.832054      1.54496     -7.51906     -2.01863      28.4898      5.77251     -77.7367      9.65457     -12.1991     -71.0867     -8.13812     -16.2306     -80.8439      2.44151     -16.2949 
           4          0.8         0.75      2.28351     -1.04852    0.0238726     -4.13493     -4.08211      14.1036      8.71346      8.20727      13.7977     -5.63624      17.7139     -1.71639     -9.73113     -5.94533      16.0311      11.2485 
           4         -0.8         0.75      4.34875     0.502968     0.698376     -7.81572       24.809     -23.0852      4.33355     -48.4029      21.9225     -6.94995     -58.7234     -17.6817     -55.2169     -47.5403     -23.8354      -21.545 
           6          0.8         0.25      2.40702     -1.05162    -0.546815     -13.7741     -11.4156      26.5663     -31.5846      20.2594      6.71875     -8.21887     0.234197      17.4194      4.40068     -30.0918     -22.5594     0.408454 
           6         -0.8         0.25       4.0198     0.401043      -1.1439     -13.0078      19.0252     -24.4089      30.8778         4.42     -2.20779     -20.3437     -11.6472      24.4093     -7.16535      37.4584      -23.525     -21.0964 
           6          0.8         0.75      2.41299    -0.996073    -0.515663      -13.761     -5.67669     -5.86669      20.7243      5.41759      5.47828      10.1684     -1.13758      17.6565     -6.12171      -27.337     -2.79562      6.33471 
           6         -0.8         0.75      4.48209     0.286837      -1.0473     -12.9569      26.4073     -26.9416      15.6746      8.11636     -29.5532      21.8223     -3.72179      27.0149      8.73492       38.315      2.59981      20.1681 
           7          0.8         0.25      4.27803   -0.0346113      0.46404     -13.2519     -39.6936     -33.6185      74.7691     -23.7198      13.5994      14.4713      7.91657       16.389      43.6415     -40.3944      28.1124      44.5966 
           7         -0.8         0.25     0.140468     0.745924      2.13917     -21.1631     -9.28842      42.9363      18.9445      24.9526      21.0572     -10.8016     -36.9928      18.5378     -18.0074     -4.04673     -59.5956      4.18219 
           7          0.8         0.75       5.0816     0.621074      1.84249     -12.1686     -23.4041      16.0916      1.96549     -68.3604     -39.7708      44.2583      -2.2618     -21.1832      69.5897      17.7621      90.2986      40.1155 
           7         -0.8         0.75  -0.00178146      0.63719      1.61164     -21.0219     -1.09483     -13.5844     -24.2083      29.4286      26.6678      10.0779     -12.0285     -21.1186     -21.8388     -15.2186      85.7792      1.90711 
           8          0.8         0.25      3.57848    -0.634913    -0.944838      -5.8931      6.64633      8.10894      3.12477      2.69745     -26.5509      24.1049      1.06954      29.0791      21.5162      34.1919     -17.6106     -22.9007 
           8         -0.5         0.25       8.3949     -2.68411    -0.824677     -8.57422     -2.16273      32.2347     -18.9261      7.82525     -7.02889      12.5282     -8.47658      2.31452      10.2849      14.1053     -10.5594     -17.3835 
           8          0.8         0.75      3.63023    -0.498543     -1.10675     -6.74559      25.4619      20.9803     -7.07095     -19.8557      8.86561       -8.921      12.4111      61.7187     -36.5072     -18.7165     -1.43807     -52.7167 
           8         -0.8         0.75      4.63734     -2.03837      1.60185     -9.64905      17.0712      10.7316      27.8717     -49.7446      19.1605     -27.3334     -34.0651     -46.6602     -37.8191     -16.2296     -5.18474     -9.85077 
          10          0.8         0.25      3.71978      1.54164      1.03256     -10.2592     -60.6963      -141.86     -18.3107     -45.1035      29.1269     -17.8028      61.4382      48.9576      35.2007     -44.8457       10.771      -6.6331 
          10         -0.8         0.25      3.36008     0.971114       2.7866     -13.3317     -2.41731     -10.1096      -20.343     -41.8454     -12.9918     -35.5634      18.0613      27.2213      12.9395      5.68634      61.8419      -3.6668 
          10          0.8         0.75       3.3869      1.28039      1.59055     -10.4157     -55.4277     -120.058     -6.31333     -44.6125      44.0478     -9.95994      29.9537      24.3892      16.1134     -52.3953     -23.0349     -3.41456 
          10         -0.8         0.75      3.05359      1.14326       2.9904     -13.2318      13.7047      7.86475     -32.4677     -15.0962     -7.50745      39.5639      35.5043      21.0574     -12.1562     -7.05218    0.0532006       1.0046 
