Variables = x, y, z, u, v, w, p, u_x, u_y, u_z, v_x, v_y, v_z, w_x, w_y, w_z, p_x, p_y, p_z

Zone, I=800, F=POINT
           4          0.8         0.25     0.774754     -1.80811     0.169965     -18.0537      27.7454     -13.6313      52.0439      41.1112      7.96507      28.6173     -18.0868     -11.1575     -26.4409      10.6989      47.5316     -15.0533 
           4         -0.8         0.25      3.18353     0.139154       0.3342     -15.9282      67.8669     -28.4655      21.5459      23.3483     -15.8409      183.124     -14.5832     -15.8774     -28.5653       52.647     -96.1219     -11.0974 
           4          0.8         0.75      1.40413     -1.37985    -0.124823     -17.9945     -4.89339     -26.4068      1.31596      35.6269     -6.83098      16.2405     -7.66301     -14.8291      2.42302     0.361566      36.0908       16.198 
           4         -0.8         0.75      3.24265     0.321178    -0.573434     -16.3794     -28.1972      7.52544     -20.4871      -44.531      60.2839     -166.489      31.2104      43.2664     -42.4571      5.55284     -36.4164     -17.8652 
           6          0.8         0.25      2.45929    -0.719467     0.390229     -19.4457      -68.951     -90.6077      37.0577      26.7375      43.7382     -47.5806      11.9416       23.758      13.3937     -41.7635      -5.9634     -26.2856 
           6         -0.8         0.25      3.33075      1.06507      1.28649     -22.1934        22.37      19.7117     -6.38313     -9.65459      5.41486     -4.76805      6.43143     -3.76297     -19.7972      25.7449     -9.93762     -3.05792 
           6          0.8         0.75      3.60641    -0.901568     0.192893     -19.3774      15.7269     -15.5939      57.5011      21.3248      31.7574      52.4834     -8.70822      15.5477     -47.6082     -94.0621      24.5056      26.7031 
           6         -0.8         0.75      3.77478      1.01089      1.12027     -22.3334      7.79677      5.58254      44.2405      -5.3702     -7.75892     -1.40961     -6.36051     -17.6602      3.14713      59.0365      3.10243     -2.85732 
           7          0.8         0.25      4.41716       -0.107    0.0489706     -12.3611     0.326113     -19.6388      16.8063      4.60475      1.66579      42.1787      3.28915     -11.6583     -14.9827      10.4859      -22.492      25.5705 
           7         -0.8         0.25      3.46433     -1.09291     -1.10818     -15.7713       26.294      10.1974      21.5914     -11.7807      28.9609     -12.3061     -14.9876     -23.2249     -50.9244      14.2223      24.1509     -23.1353 
           7          0.8         0.75      4.55799      1.69829    -0.716618     -12.3724      37.5846      1.16475     -23.9735     0.503412      2.19183       87.649      3.98509     -52.2782     -42.1136     -15.0201     -11.6627     -19.4171 
           7         -0.8         0.75      4.05484     -1.51741     -1.98597     -16.4755      26.0966      -5.3956      21.0282     -8.40145      2.03055      -18.107     -2.09282     -8.13628     -29.6498     -2.87541     -9.25073     -48.5439 
           8          0.8         0.25      2.70193      -1.0635      2.40295     -12.4534      18.7498     -10.7987      51.1748      3.80408     -7.04773     -50.5813     -2.36499      76.3122     -8.39319      14.2758      35.0943      -53.339 
           8         -0.5         0.25      6.54177    -0.625199    -0.719306     -6.04545      18.1041      8.14882    -0.365652      8.70601     -16.7705      10.3915     -40.4257      56.2146     -5.46571     -8.66084      5.83123      44.3628 
           8          0.8         0.75      3.43473     -2.49704        1.769     -12.7227      28.5324     -13.7564      3.52952     -3.22126      36.0435     -48.5653      26.0577      138.313     -65.9843     -22.8105      88.0662      29.2264 
           8         -0.8         0.75       6.4992     0.401064     0.857639     -7.51508      41.6648      -29.222     -10.5303     -50.1086     -15.1532      -23.336     -8.59226     -43.4531     -23.1613     -33.5762      76.0471      36.1869 
          10          0.8         0.25      1.64633     0.259315     0.392228      -18.415     -2.35084     -26.5966      11.1279      20.0357     -1.23263     -40.3771      12.7278      27.8137      6.65382      -17.731      10.9285     -11.2222 
          10         -0.8         0.25      4.90475       -2.441      1.36246     -6.27686       31.798     -8.89375     -4.33513      14.7091     -8.80567      4.04515     -29.5572      19.4937     -17.7884      37.4679     -14.3702       11.705 
          10          0.8         0.75       1.9822    -0.186935     0.401732     -18.5748      3.27678     -7.90498      18.3813       4.8265    -0.357673     -7.89409      -2.5033      19.3634     -4.64604     -20.7664      11.8713      -3.7958 
          10         -0.8         0.75      4.87686     -1.89226      1.07645     -6.09048       19.391     -5.54921     -2.58762      27.7482     -7.40963      44.6327     -13.7463       1.8413     -11.7449       19.616      18.0689      8.02824 
