Variables = x, y, z, u, v, w, p, u_x, u_y, u_z, v_x, v_y, v_z, w_x, w_y, w_z, p_x, p_y, p_z

Zone, I=800, F=POINT
           4          0.8         0.25      4.47477      4.07685      1.48488     -28.6242      13.5105      8.00097     -10.7065      6.97655     -2.22132     -84.6672     -42.1216      42.8575      10.6354      83.8679      35.1763      -43.878 
           4         -0.8         0.25    -0.557695    -0.129903     0.283381     -29.9985      39.2268      4.66474      45.4494      35.7807     -86.7024      13.2401     -18.6498      105.204      84.8737     -26.3219      32.9512     -80.5873 
           4          0.8         0.75      3.72863      1.87688      1.26003     -28.0912      12.6653      16.3152     -45.9227      17.8112      49.0179     -98.7436     -77.0983      60.5496     -30.0726      63.5993      49.6414      85.5394 
           4         -0.8         0.75      1.33311    -0.548814      2.43587     -32.3124      -35.399     -51.7198       96.993      13.0588     -57.4413     -47.1227     -102.083      162.588      92.3819     -186.146      8.91603      -110.02 
           6          0.8         0.25      2.33468     -1.56331      0.92412     -16.3445     -9.05691      -5.7166      1.35793     -5.36693      2.47496     -1.11653    0.0686221   -0.0216349      6.21655     -20.8702       -11.71     -11.8213 
           6         -0.8         0.25      4.60735     0.130651     -1.13626     -27.1612    -0.781891     -19.2443      103.434      56.1492      21.4821     -48.9578     -52.9897     -20.9384     -7.12657      39.2591     -72.5447     -47.1965 
           6          0.8         0.75      2.59961     -1.55204      0.96672     -16.6382     -6.45528     -7.85655      22.3657     -2.49651      8.21975      0.47758     -10.0209     -3.44271    -0.183526     -25.2368     -9.33412     -15.9674 
           6         -0.8         0.75      6.18121    -0.348804     -1.56912     -27.5564     -12.4431     -2.91071      33.8956       61.117      28.9705      -3.5106     -67.1008      5.23804     -28.1076       54.117       15.619     -5.25002 
           7          0.8         0.25    -0.221575    -0.520553     -2.31757     -28.8627     -19.3852     -38.4302     -39.9397     -21.8706     -4.00348     -40.3675      77.9583      51.5083       15.529     -78.3304     -61.9632      30.2688 
           7         -0.8         0.25      5.59156     -2.46424     0.298794      -38.525      18.0051      25.9343      33.8763     -9.32751      18.7798      22.2544     -44.2297     -51.0705      -49.649      21.8612     -80.3836      15.5726 
           7          0.8         0.75    -0.644058    -0.474319     -1.89893     -27.8809     -49.1134     -11.5832      31.5072     -63.0856      33.2426      45.0247       55.111      48.4648      21.3803      -19.497     -35.0679      57.4993 
           7         -0.8         0.75      5.76921     -2.14676    -0.818164     -38.0962      15.7673     -25.7674     -6.99508     -45.3207      22.4458     -7.35849     -70.3365     -80.4737      -42.447      28.9207     -38.9212      15.8182 
           8          0.8         0.25      5.30359     -1.65841      3.58847     -33.6088     -3.88437      19.3331      7.93246     -18.4761      36.2495      22.0282     -69.4014     -9.68845      -33.546      37.5213     -14.6748      72.0921 
           8         -0.5         0.25      7.73676     -1.06356     0.291887     -8.73193     -4.02986     -1.19581     -9.68796      3.79319      4.93143     -4.31967     -9.85155     -1.04386     -1.41298      12.9894     -7.78541     -3.87779 
           8          0.8         0.75       4.9952    -0.842579      2.26653     -31.8858      31.4717      26.5976     -56.0915      15.5661      54.8323      65.6792      -34.336      21.6646     -83.2446      11.5137     -3.88762      54.1644 
           8         -0.8         0.75      6.49382     -1.97003     0.218744     -6.61847      -21.086       24.751     -6.09096     -8.64992       15.002     -22.4524     -9.97209      11.9887      8.17284      18.4699     -13.0833      13.0931 
          10          0.8         0.25      5.39857      1.10035     -0.25459    0.0557318      -9.9288     -8.58917     -14.7197    -0.991211     0.998852      -14.679      2.76532     -6.43258      6.90417     -6.44127      5.55754     -4.57697 
          10         -0.8         0.25      3.98821     0.143642      1.01916     -4.19084      4.41802      5.56005       6.2297      0.75331     -7.77038     -25.7921     -28.7547     -13.8064      2.08095     -7.71822      18.3699      14.0663 
          10          0.8         0.75      5.02827      1.04362  -0.00730986  -0.00966824     -11.2981     -28.3495      -15.922      3.49163     -1.56301      9.07438      9.43435     -10.3541      13.7988     -1.47393       6.8621     -2.99908 
          10         -0.8         0.75      3.33919    0.0446953     0.769317     -4.15115     -10.9525     -42.9345     -55.4447      8.89941      28.8309      20.6925     -34.4641     -43.4549      -19.315     -1.81879      2.95361     -17.3813 
