Variables = x, y, z, u, v, w, p, u_x, u_y, u_z, v_x, v_y, v_z, w_x, w_y, w_z, p_x, p_y, p_z

Zone, I=800, F=POINT
           4          0.8         0.25       4.6015      2.53642     0.161902     -3.18125    -0.886842     -8.72487     0.622359      -7.6373      1.31849    -0.839162      5.31444       1.3627      0.13991      14.5555      4.60901     -8.16221 
           4         -0.8         0.25      4.79638     -4.32263     -1.04187     -17.3337     -65.5493      54.4841     -53.2964     -21.0056     -39.7071     -26.2141      13.0967     -23.4489      90.7428     -38.8238      -32.075      34.0821 
           4          0.8         0.75      4.66965      2.57515     0.142555     -3.33815     0.548728     -7.23112      7.23762     -6.43121      2.16822      6.19061      2.40933      1.29231     -2.50026       18.352     0.800761     -7.62596 
           4         -0.8         0.75      4.42161      -3.9901    0.0876793     -17.2485     -15.5983       31.516      4.50459      22.7253     -24.2683      50.9601      7.51683     -35.1354      17.3707      52.7601     -30.8026     -18.6546 
           6          0.8         0.25      1.00522    -0.929753    -0.714751     -24.6224        2.957    -0.370161      33.4809     -33.9215      16.6736      57.9475     -21.2047     -57.5993     -15.0727     -92.9318      19.4945     -7.14533 
           6         -0.8         0.25      7.82206     -1.21006    -0.391759     -6.84584     -8.10645      14.9796     -13.6519      1.20358     -10.5812      15.8261     -8.15877     -5.31935      15.8342     -5.12675     -16.7762     -12.3798 
           6          0.8         0.75      1.86797    -0.405435     -1.00724     -24.4282      23.5474     -6.76042      40.0654     -9.50003      8.57436     -15.7285       34.453     -50.7173      -16.106     -71.6258      2.24549      18.9606 
           6         -0.8         0.75      7.53566    -0.932312     -0.33054     -6.89447      15.1682     -5.47772     -6.22816      7.75597      5.14825      6.76199      4.43029     -7.54168      -10.323       1.3779      -23.208      6.84266 
           7          0.8         0.25      3.36488      2.28899      -1.3914     -12.6433      13.0882     -9.58842     -68.4966      10.5647      -2.1034    -0.598153       27.543     -20.0817     -20.4688     0.686173     -21.5524      56.8722 
           7         -0.8         0.25      4.13588       1.0453    -0.540198     -11.1011     -19.6624     -7.14391      5.95582     -30.0094      20.1388      9.34628      29.6277      -15.396     -2.87103     -9.17233     -48.9811     -2.92233 
           7          0.8         0.75      2.88921      1.49196     -1.61852     -12.2109     -15.9295      78.2468       16.145      30.8738    -0.108214     -65.0703      -24.863      36.0533      13.5757      7.27303      105.994     -17.8016 
           7         -0.8         0.75      4.21381      1.44543    -0.709005     -11.3024     -16.0171      27.6801      3.99312     -17.2268      25.1079      19.6358        35.12     -44.0138     -11.7573     -22.7932     -87.1582     -8.71878 
           8          0.8         0.25      5.53176    -0.153213      2.40212     -5.72595      10.6545      18.0602     -7.38619     -62.2826      10.6193     -4.38745      29.4536      55.0276     -25.8846     -4.90402      51.0458      8.25233 
           8         -0.5         0.25       5.4464    -0.155885     0.347709     -18.5957   -0.0103156      16.1306      4.76529     -11.1418     -12.0155      2.54933     -5.15402      31.3615      11.5292    -0.483594      11.2607    -0.914401 
           8          0.8         0.75      5.25855     0.199517      1.75189      -5.2929      10.4387      60.3067     -17.7282     -11.6167      5.57459      21.1852      13.7297    -0.243821      -15.702       6.9831      5.01191      27.2754 
           8         -0.8         0.75      2.29261     -1.30874     -1.51748     -17.3061     -11.3445      3.89654       20.791      15.3686      22.3275     -1.56603      19.0125      -5.9637     -11.5176      18.7021     -22.3989     -3.89954 
          10          0.8         0.25     0.809456     -2.38916    -0.614109     -19.4156      24.4478      -4.2075     -39.9167      45.7013     -79.1176     -85.6001     -5.78421      68.9351       58.637     -22.2964      11.9295     0.556318 
          10         -0.8         0.25      5.66789     0.896385      1.83823     -5.67442     -24.0156      30.6277      54.0664      78.0795     -3.15684      -44.707      13.5768     -1.51428      28.3165      12.7331      1.30093     -23.9836 
          10          0.8         0.75      0.82157      -3.0565     0.344484     -19.2608      26.6514     -17.6172      29.7565      42.0364     -40.6896      40.1531    -0.710803      70.0507       12.407     -16.3999     -7.99539       13.391 
          10         -0.8         0.75      5.74325     0.339778      2.19474     -6.42097      14.6472      11.3115     -52.9569      75.8937      -16.841      1.43729      27.5315     -2.83184     -2.96449      51.0372     -2.81985     -33.0739 
