Variables = x, y, z, u, v, w, p, u_x, u_y, u_z, v_x, v_y, v_z, w_x, w_y, w_z, p_x, p_y, p_z

Zone, I=800, F=POINT
           4          0.8         0.25      3.85818      1.12071  -0.00319679     -15.6708      37.5417     -22.6808      44.6623      21.3725       -23.93      30.1669       22.067     -69.2868     -5.20574      5.41841      67.9065      50.5684 
           4         -0.8         0.25      2.64024    -0.444015      -2.0105     -7.98617      4.98869     -73.7092      14.2873       81.499     -16.8644     -27.5134      25.5745     -1.28937      16.4274     -38.5444      17.3507      42.4283 
           4          0.8         0.75      4.15524      1.45903     0.160295     -14.3391      17.2105     -88.5844       -45.95      12.9956     -20.4499      -2.1135      24.7237     -52.8369       15.371      25.6089     -3.56439      62.3571 
           4         -0.8         0.75      3.02826     0.150482     -1.12778     -7.38998      16.9522      -33.986      28.4124      15.7164     -72.1926      75.8792      -22.928     -23.9601       54.582     -77.0304      18.7907     0.877201 
           6          0.8         0.25      3.57303    -0.753014      1.17619      -16.174       5.7421    -0.301595      23.4592     -20.7113     -26.1827     -30.0735     -1.43935    -0.123129      12.6482      -105.37     -69.8819     -4.16537 
           6         -0.8         0.25      2.19999     -1.84127      1.11725     -18.2886     -7.68895      9.99893      6.25399     -11.4369     0.648259      15.5323      9.18772     -14.3294     -4.50177      33.4823     -18.3972     -10.8776 
           6          0.8         0.75      4.06157     -1.05468     0.986935     -16.2203      36.0344     0.249863      23.5453     -1.08561     -13.8619        21.12     -20.6741     -30.6804     -27.9784     -138.643     -65.3278      -6.0803 
           6         -0.8         0.75      2.30004      -1.5772     0.953285     -18.3673      1.35207       7.5514      4.64314     -11.3352      2.57534      2.00408      23.2203     -15.2581     -7.53237      34.5789     -16.3802      2.15678 
           7          0.8         0.25      1.12946      0.74768     -2.36352     -3.93902      -2.4249      -12.821     -40.0782     0.640502       4.9534     -58.5901      1.75651     -25.3804      -2.9025     -31.7503      15.2557     -7.00395 
           7         -0.8         0.25      5.61814    -0.582257    -0.665385     -4.82097      12.3425      13.0983     -23.4543     -2.49608      12.1818      34.2705      23.5363      51.9035     -17.5379      15.8443      10.6599     -3.02706 
           7          0.8         0.75      1.64545     0.350585     -2.46673     -3.98749     -6.01223     -33.3086      69.5605      12.8175      21.0879      22.0731      -18.331     -32.2669     -5.90223      2.72835      6.39058      6.91558 
           7         -0.8         0.75      5.36623    -0.362919     -1.17545     -4.98502    -0.368796      25.5265      -4.8966      4.98244      11.3494     -12.3502      15.9646      35.1015      -15.993      13.5802      17.7139     -12.0673 
           8          0.8         0.25      5.36799     -2.06407     0.705164     -10.9046     -29.7029     -5.63837       102.81      25.5696        17.81     -16.9431     -28.7312      14.5515      11.4207     -13.3064     -43.7967     -15.1468 
           8         -0.5         0.25      9.45476    -0.904872    -0.637487     -9.43282      5.13752      7.71853      25.9887      32.9904      42.0057      7.07866     -88.4034      -62.057     -48.7723     -36.4373      92.4337      148.117 
           8          0.8         0.75       6.6864     -1.99863      1.01779     -11.2263     -45.2362     -11.3555      5.09301      24.9959      34.1031      8.46062     -32.1996     -30.7931      15.5271     -29.4676     -50.5247     -1.02777 
           8         -0.8         0.75      5.50054     -1.63644     -1.41001     -10.1053     -1.07031     -72.8028      25.3413      28.4939     -12.9744      97.6311     -4.81809     -12.1364      16.2887      3.62427      41.9518     -36.6804 
          10          0.8         0.25      3.06624      2.28829    -0.799142     -6.89824      17.6695      -20.551      -0.4363      11.1983     -14.1711     -9.05565      11.3974     -25.7203      -5.1719      15.4558      5.80784     -3.64633 
          10         -0.8         0.25      6.88678     -3.34024     -1.91568     -4.87037      32.0355     -12.3858      10.0667      36.8139       -19.75      28.0801     -15.7655     -15.1265     -14.1855     -12.7244      54.5952     -63.4949 
          10          0.8         0.75      3.29122      2.33351    -0.721502     -6.90257      11.0031      -16.947      10.1397      19.8567     -23.0333      7.02338       4.2978     0.953503      12.8308      16.3145      1.37248      3.63006 
          10         -0.8         0.75       6.7284     -2.28237     -2.30822     -6.19984      31.2199     -7.96267       -23.62      35.3376     -10.2712      50.2495     0.734015     -38.4997     -19.5673     -41.9872      76.5278     -58.9243 
