Variables = x, y, z, u, v, w, p, u_x, u_y, u_z, v_x, v_y, v_z, w_x, w_y, w_z, p_x, p_y, p_z

Zone, I=800, F=POINT
           4          0.8         0.25      2.47132     -1.60525      1.00844     -14.5403      21.0149     -3.59377      7.87023     -10.8216     -17.7073      51.5888      -31.764     -29.2748      2.62109      34.0925     -23.9865     -36.0018 
           4         -0.8         0.25      2.47484       2.0872    -0.254235      -14.808      4.45592      -4.8423     -21.4662      19.0493      24.0553      33.3103      65.9095     -72.7494     -39.1818     -22.4483     -27.3434      41.5589 
           4          0.8         0.75       2.8336    -0.082047      1.20598     -14.7236      28.2833      33.7422      36.0379     -15.0471     -27.6863      78.9252     -40.6954     -52.2785      2.09724      5.83359     -59.6186      18.0372 
           4         -0.8         0.75      2.04766      2.40327    -0.626617     -14.1026     -3.73414      22.3793     -4.07117     -5.32067      12.0257      5.36855      20.9226     -35.6565      -1.0429    -0.745563     -31.4334      20.6234 
           6          0.8         0.25      2.70379     0.157713      1.19113     -8.87239    -0.478105       7.3735      16.7838     -9.73661    0.0143248      11.0042    -0.802066     -29.7207    -0.922982      22.6406     -2.18183      6.61673 
           6         -0.8         0.25      7.75481      1.12795      1.39181     -12.4519      36.9662      34.1745     -35.9325      78.3654     -19.5972      37.0247     -21.1345      19.0985     -8.43196     -115.959     -28.4361     -26.3779 
           6          0.8         0.75       2.9077     0.309204      1.34927     -8.83559     -9.77301     -20.0442     -4.51021     -10.9875     -5.05307     -4.39775      -4.8849     -19.1486      13.3881      37.2474      11.2476     -6.28094 
           6         -0.8         0.75      6.68023      2.04179     0.850319     -13.0668      22.0791      36.1103     -66.2907      78.9909      1.55178      44.1094     -12.2095      29.6936     -32.3725     -79.6125     -42.3849     -32.9725 
           7          0.8         0.25      3.31359      1.35355    0.0903918      -11.739     -28.1863      35.0809      24.5846      32.6322     -3.61268       58.841     -29.7016      19.6738      34.6234     -5.84047     -58.9405     -12.5422 
           7         -0.8         0.25      6.47403     0.730868   -0.0644705     -17.5426      10.2316     -1.55097      11.0047      5.83981      26.2941      15.9714     -6.96984     -10.8338     -35.7226      1.54253      2.38323     -7.23801 
           7          0.8         0.75      2.57846      1.17985     0.416634     -12.2287     -37.5013     -76.0465     -107.049     -51.2151      55.4431     -97.3575     -28.0616      20.5838     -4.80029      12.4186      51.6005      -26.278 
           7         -0.8         0.75      6.84733      1.03971    -0.420697     -17.4732       1.0264     -11.0679      3.91351   -0.0151537     -13.6032      18.1055      7.28719      -10.151      10.4775     -6.36953      10.6876      13.5261 
           8          0.8         0.25      3.63158    0.0834588     -2.87177     -31.3947     -7.34543      7.79882      -18.455      36.5938     -18.7997       -5.868     -9.65734     -13.5921      22.3205     -11.6266     -28.2194      101.445 
           8         -0.5         0.25      10.4923      -2.4461    -0.405763     -22.8584       17.715      22.8999      20.4573     -53.9415     -39.7407     -30.8838      -22.437      72.5772       29.739      28.7585      68.7522      19.1104 
           8          0.8         0.75      4.73553    -0.521521     -2.53508     -29.5857      9.22808      12.9313      99.0652      91.7198     -14.1666     -40.0028      0.46465      11.9186      8.10796      51.1232     -39.5719      60.8218 
           8         -0.8         0.75      3.41226    -0.630804      1.41616     -22.4302    -0.768205      15.6785     -37.6547      16.8987       5.5671     -19.9432      10.5257     -50.6261     -4.33866     -12.7922     -6.14405      56.0488 
          10          0.8         0.25      3.65799     0.808187     0.337252     0.894222      1.63702      6.08019     -3.34257     -4.45586     -10.2477     -1.42365     -2.40914      3.66781      6.72695     0.892411      1.16805     -4.12966 
          10         -0.8         0.25      2.17601      1.37599     -1.49034     0.251651        3.943      15.8358     0.733458      22.0354     -1.63955      6.21614     -28.5672    -0.534533     -4.94433     -8.34619       20.793        3.402 
          10          0.8         0.75      3.58375     0.779029      0.41631       0.8148      1.04906  -0.00710459     -4.11591     -3.64898      1.19764     -2.65197     -6.37579       2.0922     -2.57044     0.938112    -0.253392     -3.31126 
          10         -0.8         0.75      1.89865      1.47951     -1.32765     0.501546     -8.89214     -13.5974     -17.4187     -17.6043     -5.58924      2.17197     -36.2537     -20.4619      17.8988       1.9979      -8.1882      11.0324 
