Variables = x, y, z, u, v, w, p, u_x, u_y, u_z, v_x, v_y, v_z, w_x, w_y, w_z, p_x, p_y, p_z

Zone, I=800, F=POINT
           4          0.8         0.25      2.15492    -0.703963     0.298875      -1.0428    -0.319339      10.3393     -4.80999     -5.35451     -11.4417     0.368038     -3.77398     -1.68716      6.63364      19.0072      8.81182     -6.14969 
           4         -0.8         0.25       4.3349     0.455018     0.886962      -4.7933      8.74649      25.1695     -11.8226     -5.90066      4.51667     -23.2114      23.8736      11.1833      7.96045     -6.61631     -45.6026     -1.04795 
           4          0.8         0.75       2.0645    -0.817484     0.388107     -1.07184      9.67125      9.20369    -0.273483     -1.74909     -5.62728     -7.84753       6.2928     -3.58024    0.0667202      12.6051      16.3218      5.76833 
           4         -0.8         0.75      4.19076     0.193437     0.897151     -5.04984      15.5716     0.201429      13.9145      -44.127      11.7645     -8.07771      -18.172      11.6139     -7.59398      -14.138     -9.24125     -22.0228 
           6          0.8         0.25      2.01768     -1.10732     -0.92522      -11.289     -6.53022      -6.1253     -46.7009     0.148234      1.10705      3.00399     -9.33602       22.989      8.47958      -37.087     -29.6958      22.1113 
           6         -0.8         0.25      4.47424    0.0336891     -1.04957     -9.24794      3.04921      1.60433     -17.6958     -37.0425     0.950264      15.8517      14.7628     -22.0471      -12.435      -35.281      7.02172     -19.9881 
           6          0.8         0.75      2.07398     -1.00156    -0.973797     -11.0048      1.72947     -19.5695       38.795      14.7852       14.772      7.82302     -26.2315      17.8889     -12.3213     -28.5198     -9.62352      15.0436 
           6         -0.8         0.75      4.15054    0.0841795    -0.910757     -9.20996     -9.62761      13.9458     -4.79884      12.5944     -3.25028      4.03477     -6.29399     -14.8721      10.8293     -20.7074     -20.2735      14.1722 
           7          0.8         0.25      4.44868     -1.79645      2.57826      -11.602      52.5279      22.6523      85.3424      2.33402      0.38569      160.284      -1.8737     -56.4566     -52.7412     -95.0381     -114.967     -5.43399 
           7         -0.8         0.25     0.223275     0.847692      1.70697     -17.8767      6.54779      30.9144       5.8733      35.6721      39.0349     -8.65005     -51.3407      51.5525     -25.9417     -4.30343     -59.3922      1.46532 
           7          0.8         0.75      5.67714      1.92442      1.67733     -11.1913      33.1063       13.453      26.2218      40.4508     -3.62078       112.74     -50.4506     -9.68578     -47.5508     -30.0448     -39.0929      89.8944 
           7         -0.8         0.75     0.432315     0.994947      1.59038     -17.8886     -4.32579       69.707       22.568      21.0029     -2.95451       18.274     -30.3958       38.278      13.4135     -13.3127      19.0729     -12.6762 
           8          0.8         0.25      4.01202    -0.412185      -1.5198     -3.93534      8.59671       31.977      11.9113       -10.94     -41.0928     0.514966      23.2345      9.61141      31.2128     -19.5948      16.7268      -31.494 
           8         -0.5         0.25      8.21916     -2.54115    -0.292753     -5.07328     -22.3777     -4.50097       -46.01     -10.3292      11.1935      -4.0498      16.0101      11.5322      15.1739      19.4427     -5.03706     -4.04598 
           8          0.8         0.75       4.0518    -0.944385     -1.47294     -5.40841      4.90447      37.2094     -21.5944     -34.5536      15.0843     -36.9278      29.4227      24.4585     -19.9184     -46.8325     -3.34838     -96.3441 
           8         -0.8         0.75      6.15808     -2.83019    -0.481302     -6.05687      9.18359      21.3342     -17.1614      7.44388      9.92508      10.0657     -9.89737      18.8463      -20.465      10.1568      10.4659      35.9466 
          10          0.8         0.25      2.41698     0.715465     0.628716     -9.33027       -4.669     -38.2593      14.0377      14.4224      2.97707     -8.69261     -50.4553     -15.5077      4.39921     -25.2756     -22.5557     -41.2337 
          10         -0.8         0.25       3.0696     0.924571       2.3124     -10.8337     -4.38632     -53.2801      40.3365      6.71804      -12.912      29.1353     -40.5403      -14.661      21.3664       5.4372     -21.2161     -1.42303 
          10          0.8         0.75      2.84212     0.707405     0.663141      -9.8233     -4.53039     -15.4776      19.7945       37.821      10.4453      4.91256     -44.3127     -19.9682     -1.20596     -29.7669     -1.20727    -0.919776 
          10         -0.8         0.75      2.90739      1.62837      2.37795     -10.6502     -4.04358      28.0198     -60.5492     -3.40095      35.4622      16.2839     -32.6881      25.8875     -28.7526      23.8733     -40.5235      3.03117 
