Variables = x, y, z, u, v, w, p, u_x, u_y, u_z, v_x, v_y, v_z, w_x, w_y, w_z, p_x, p_y, p_z

Zone, I=800, F=POINT
           4          0.8         0.25      4.09337      1.05788     0.249098    -0.209967      2.31295     -5.34334     0.564896     -8.28143    0.0204251     -1.36642    -0.966665     -4.71118     -1.87373      3.93641     -1.12624      2.07745 
           4         -0.8         0.25      5.39589      -2.3511     -1.14983     -9.62203     -13.1015      10.7043      26.2469      12.8565     -4.68725     -20.9065      15.3377     -4.21817      15.3515       38.179     -30.2737      9.12937 
           4          0.8         0.75      4.03388     0.982039     0.214824    -0.211028      3.45334     -5.73121     -4.77174     -8.01386    -0.449687     -4.88772    -0.272046     -2.32118     -1.21238      1.27346     -1.80438     -1.52019 
           4         -0.8         0.75      5.69747     -2.69704    -0.846145     -9.46984     -2.63395      13.0525      4.14565      2.75807     -10.7628     -11.4878      1.56704    0.0179327      11.1692      14.8021     -8.60724      5.04331 
           6          0.8         0.25      1.28725    -0.420442     0.204497     -22.8053     -1.74095      8.72865     -2.46864      39.5506      -3.4724     -32.0567      5.90339    -0.106644     0.611864      3.21547      22.2119     -19.4213 
           6         -0.8         0.25       9.4869  -0.00600459    -0.352794     -6.70702     -17.8705     -34.6118     -7.85449     0.530566     -16.0977     -49.5628      1.43057      24.9772      36.3497      24.5802      45.8072      8.57315 
           6          0.8         0.75      1.19248     -1.33334     0.191346     -22.8999     -3.75842      3.63096     -2.32195      47.0423      6.48559     -35.3177     0.281371      17.3999     -2.53366      5.55674      -10.678      4.07622 
           6         -0.8         0.75      8.80312     -1.17198       0.1821     -6.41121     -15.0368     -23.4642     -39.2765      30.7417      2.80932     -63.4454      2.70783      24.7251      2.17435      41.4245      42.8961      20.6329 
           7          0.8         0.25       3.8613     0.118763     0.771519     -10.6382     -16.8286     -18.5313     -34.9707     -47.5875     -40.8706     -74.3922      33.5601      41.3622      51.5426     -92.0397      -63.287      16.0828 
           7         -0.8         0.25      2.44566      1.25339      1.42905     -11.3934     -22.4907     -3.49133      9.46005       3.8123      34.5301       -7.229      10.3249     -14.2676      -13.081     -34.1702     -4.12038     -13.9162 
           7          0.8         0.75      5.08994    -0.256568     0.880041     -10.5845      35.2737      40.3272      116.173     -44.6383      6.77067      42.8225     -27.4496      7.67225      -42.399      -41.533      32.8125     -3.58603 
           7         -0.8         0.75      2.85394      1.59438      1.58415     -11.5546       -20.34     -12.3769      31.8368     -21.7771      4.96556      30.9248     -42.3412     -25.7419      21.9268      -24.263      11.0315        12.03 
           8          0.8         0.25      6.13569      1.53592    -0.196942      -1.0618     -30.7165      62.0876     -3.62395     -7.73649      13.1552      7.55935     -23.3882     -8.96784      14.3054      67.8002      -38.953      57.7715 
           8         -0.5         0.25      6.64221     -1.00946    -0.558222     -12.2713     -32.6866      11.2143     -9.81438      35.9896        2.445     -7.52168     -39.7335      24.7506      34.5027      8.20609      4.93269     -7.69859 
           8          0.8         0.75       5.7425      1.66118     0.142432    -0.344822     -51.2294      3.35739     -33.6683       1.6303      41.0874     -5.79441     -8.14021      11.5264      20.1842       83.643     -16.4918      13.4251 
           8         -0.8         0.75       2.8437     -1.36532     -1.94302      -12.768    -0.950386     -11.3143      4.00336     -9.64877     -1.74382       7.7085     -5.67981     -16.5732      1.44483      4.09862      27.9782      11.2763 
          10          0.8         0.25      3.69369    -0.137535     -1.18079     -19.4449      49.6942     -19.2033      17.8238    -0.483062     -5.75968      39.3612     -1.55969       88.114     -50.2374     -30.9771     -5.75408     -20.9663 
          10         -0.8         0.25      4.18559     -0.15271      2.63347     -7.04317     -32.9272        31.99      11.6402     -46.7581      35.0235      52.4018      38.9753     -15.8774      1.88521     -24.0924      -3.3899    -0.639348 
          10          0.8         0.75      3.45949    -0.527341     -1.24021     -20.1561      3.91199      99.7073     -42.9685     -13.7817     -23.1772     -69.7152     -15.6375      142.461      20.4393     -5.63466      22.2109     -7.58007 
          10         -0.8         0.75      4.00331     0.432336      2.29982      -6.2443      2.82271     -13.3211     -37.4362     -43.6817      24.4635     -10.4848      57.5154     -15.8083     -25.6398     -30.2046     -56.6615      70.4662 
