Variables = x, y, z, u, v, w, p, u_x, u_y, u_z, v_x, v_y, v_z, w_x, w_y, w_z, p_x, p_y, p_z

Zone, I=800, F=POINT
           4          0.8         0.25      4.82625      3.35015     0.594995     -4.18235     -7.06752     -12.9941     -7.20946     -12.8314     0.633931      2.54869    -0.447985      1.22963      7.47972      52.8587       6.0514     -5.40716 
           4         -0.8         0.25       3.6954     -3.36501      3.00566      -20.799      11.9284      28.7643      35.1738     -64.8811      13.0542     -15.8317      29.9225       3.0292     -50.8995       35.728      6.86485      71.7629 
           4          0.8         0.75      4.54887      3.28235     0.667832     -4.22171      4.79498     -8.60118     -17.2479     -10.1682      1.77319     -8.58728     -6.30864      1.55296     -3.18252      49.6858      2.20852      1.03078 
           4         -0.8         0.75      4.66752     -3.91371       2.0077     -19.5456      57.5243      22.1694      51.8023     -4.84552      7.71248     -33.0306     -2.18822      3.28589     -46.0675     -18.8214      8.21416        42.21 
           6          0.8         0.25     0.552553    -0.268709     -0.67469     -22.7521      9.69282     -10.4378      6.65984      14.7938      -16.465      12.9221     -55.8099     -15.1514      13.0836      19.9118      21.6121     -40.6281 
           6         -0.8         0.25      7.43704     -1.75435    -0.806331      -6.1168    -0.583959     -28.1623     -2.53717     -17.0715      5.01093     -20.2865      26.3757      17.7408      4.19976     -31.9094     -2.04054     -11.7645 
           6          0.8         0.75      1.14179     -0.67259   -0.0881729      -24.368     -19.6256     -33.9398      68.9419      55.1971     -21.0318     -28.5416     -43.6557      32.3742      42.0793     -23.8566      48.8111     -109.066 
           6         -0.8         0.75      7.87611      -2.0972    -0.862128     -5.93179      1.93327     -22.6282      42.5534      2.86776      9.36691     -8.50099      16.0933      18.8747     -4.47181       5.1175     -1.31467      25.3317 
           7          0.8         0.25      5.18567      1.53671    -0.426415     -11.4911     -11.5818     -47.9141      45.4418      11.1432     -21.7193      80.5822     -75.8837     -55.1808      30.0997     -25.6055     -75.5506      51.8114 
           7         -0.8         0.25      4.87997       1.2567     0.476537     -9.20912         13.4      9.13211      10.9449      40.2337     -28.3325       5.2523     -47.1141      12.4401      6.54137     -13.9185      33.3027      5.97665 
           7          0.8         0.75      6.37841      2.21285    -0.127717     -10.7027     -10.8026      16.1304      29.6769    -0.774467      13.0426      2.38115     -28.6609      38.6671      -3.6459      34.2599     -89.0277      -15.024 
           7         -0.8         0.75      5.20832      1.54218     0.525744     -8.87262      18.8889      9.70088      17.9766       13.463     -14.2721      26.0811     -63.2659      27.2806     -0.64046     -31.2957      34.5054      16.6066 
           8          0.8         0.25      6.16113      1.47604      1.65477     -5.82251     -65.5594     -48.5378     -32.9476      8.94853      25.9616     -20.7869      93.7248      29.2159      47.0708      64.5641      -51.742     -202.124 
           8         -0.5         0.25      4.36292    0.0380116      1.00924      -19.486      -4.5143     -2.28353     -19.4472      3.48137      4.76819       1.7227      27.2416      86.3158     0.547701      39.2399      66.0648     -25.3724 
           8          0.8         0.75      4.19719     0.609252      2.52122     -7.98018     -45.1698     -69.8104      -139.66      37.8135      29.8584     -42.6728      112.748      38.1695      16.0493      74.8713      59.0054      47.5541 
           8         -0.8         0.75      1.91387     -1.90852     -1.31718       -17.47     -5.78821      3.11819      13.7465     -10.4343     -15.5267     -15.3301      3.81053      17.0251      24.8074      8.21761     -34.2455      8.55086 
          10          0.8         0.25      1.80146     -3.39479    -0.241637     -16.9195     -1.52531      11.2844     -14.8256      8.29505      17.0629     -16.3287     -19.1645      44.2743     -10.5548     -36.5496     -12.6845      3.17154 
          10         -0.8         0.25      6.45775      1.15544    0.0618927      -5.2109     -3.81919      39.5806      13.2561      8.81303      5.96919     -53.9521      12.8667     -38.5284     -1.22485      9.33328     -8.35581     -29.5442 
          10          0.8         0.75        1.275     -3.51282    -0.932676     -16.8992      17.6383      41.0754     -40.3873     -6.81385      19.5492      13.7743     -11.7645      34.5287     -41.7259     -37.8753      39.4675      1.69482 
          10         -0.8         0.75       5.9843    0.0135773  -0.00397549      -6.0275      4.34883   0.00838341     -35.1406      30.4524      1.49942      -35.314      16.6975     -4.93528     -6.74349       29.473     -17.1094     -50.6755 
