Variables = x, y, z, u, v, w, p, u_x, u_y, u_z, v_x, v_y, v_z, w_x, w_y, w_z, p_x, p_y, p_z

Zone, I=800, F=POINT
           4          0.8         0.25      3.12444     0.633643    -0.285016     -13.7789      3.58592     -30.7641      35.6598     -33.8594       3.1853      20.9246      50.3957      97.3898     -12.7406      58.2187      -16.526     -29.7725 
           4         -0.8         0.25      3.03455        1.464    -0.595093     -11.4477     -24.8992      3.82895     -29.9228      21.0486      2.98158      17.7089      1.61021     -2.52553      10.9947     -14.9019      12.5719      8.18028 
           4          0.8         0.75      3.51387     0.919683    -0.323151     -14.3734      3.99589     -38.8571        1.876     -35.8662     -25.8905      1.11653      58.5391       100.53      6.89757      59.0269     -19.5019     -25.9221 
           4         -0.8         0.75       2.7953      1.55617    -0.367647     -11.3883    -0.987177      13.9721      15.9519     -6.34326     -1.75322     -13.3671     -18.1525      -8.5205      4.92029     -26.6421      1.88098      4.72209 
           6          0.8         0.25      2.43118       1.1043     0.617859     -12.2158      8.96772       3.5434      11.0176      9.83744      8.76148     -5.80715      26.0928      28.2708     -16.0743      28.2967     -21.2723     -6.80402 
           6         -0.8         0.25      6.01796     -1.61481     -1.37092     -12.6963     -5.05511     -7.38318     -10.0644     0.150463      3.07205      14.0389     -6.17305      18.2937     -1.51302      19.8509      44.7003      23.8899 
           6          0.8         0.75      2.58047     0.735107    0.0382823     -12.4254      6.92996      6.06678      2.35824      1.25283      16.6783     -22.3003      23.7251      13.3989     -30.7335      20.6606     -21.9037     -12.2086 
           6         -0.8         0.75      5.74836     -1.32887     -1.46798      -12.141       4.6648      6.67523     -15.1817     -27.4189      11.4046       14.278     -31.3787      33.9976     -7.27422      64.3401     -6.26995       26.645 
           7          0.8         0.25      2.54845    -0.443237    -0.455173      -14.266        12.23       13.117     -28.8951     -15.3358      63.7255     -52.9891      25.3302      58.9418     -71.6568     -18.2683      38.2127     -52.8727 
           7         -0.8         0.25      6.01418    -0.725746    -0.991773     -17.9339     -24.9742      46.8503      7.53007     -97.4041      7.36367     -75.4374     -39.4146     -16.3836      17.6744      -2.9563      59.2429     -16.7997 
           7          0.8         0.75      1.47559    -0.841544      -1.4223     -15.0761      25.0294      15.1253     -97.2866     -21.0938      -10.183      41.7235      25.3591     -20.6085     -10.8653      -73.824      121.838     -9.98255 
           7         -0.8         0.75      6.51309     -1.82454    -0.381317     -18.5029     -23.8384      34.8475      36.5135     -83.1977     -26.1985     -30.7631     -43.7059     -59.7269      44.6842     -27.2311      32.2048     -54.8978 
           8          0.8         0.25      6.06211     0.493067      3.27906     -29.6534     -24.1993      70.9107     -98.0366      51.2631      2.85785      6.45965     -32.1414      -22.912      25.0112      18.8235     -77.4239       128.61 
           8         -0.5         0.25      9.24438     -2.16538     0.172988     -27.6218      36.4668      79.9448     -61.6246      -21.572     -78.9211      81.0345      10.8128     -103.095      29.8125      23.0807      26.5939      -60.074 
           8          0.8         0.75      4.83545       -1.467      1.94525     -27.6932      43.2558      24.2458      9.39031     -61.8812      83.7058     -162.749     -66.7037     -25.4412     -128.053      75.0062      6.51541      35.2243 
           8         -0.8         0.75      3.20084     0.816693     0.259791     -27.1103     -28.2984        48.54     -11.1011     -32.1343      35.6243     -1.63993      -26.686      -8.3249      -6.7378     -27.2944     -17.5785      32.9165 
          10          0.8         0.25      3.45954   -0.0166878     0.276697    -0.939898     -6.41452     -4.96903     -18.5326     -8.26615     -3.29238     -13.6853      5.84351      5.74299      9.18713      1.89518      2.53185      4.79927 
          10         -0.8         0.25      2.19785     0.702574    -0.133589   -0.0410897      6.54543      15.2744     -11.0614    -0.810723      11.5272      11.4429      20.5265     -27.2469     -12.6994     -4.47243      6.04128     -3.19375 
          10          0.8         0.75      3.26908   0.00128397     0.262576    -0.866369      1.55887     -1.26789      1.85831      2.75209      5.31366      11.7388     0.335018    -0.111368     -7.26368    -0.674452     -0.22622      3.62587 
          10         -0.8         0.75      2.37504       1.3205    -0.460742    0.0200811      7.57197      24.0311      26.9828     -2.42255      15.1855      37.0094      2.70645     -10.5198     -20.4275     -0.36753     -10.5075         2.62 
