"u","v","w","p","W_x","W_y","W_z","vtkValidPointMask","arc_length","Points:0","Points:1","Points:2"
9.9988,0.00031748,0.033733,-15.334,9.4586,1.6215,1.1828,1,0,0,0.5,0.5
9.8764,0.010006,0.017666,-16.236,4.6909,1.5328,32.116,1,0.0175,0.0175,0.5,0.5
9.7806,0.011106,0.015517,-16.497,4.9472,1.176,48.631,1,0.035,0.035,0.5,0.5
9.6699,0.021118,0.013956,-16.421,3.5705,1.5071,69.208,1,0.0525,0.0525,0.5,0.5
9.5676,0.026253,0.012407,-16.426,1.6424,1.6996,85.861,1,0.07,0.07,0.5,0.5
9.4871,0.024498,0.012143,-16.516,0.9086,1.6255,94.766,1,0.0875,0.0875,0.5,0.5
9.4191,0.024967,0.012436,-16.497,1.0301,1.7423,100.7,1,0.105,0.105,0.5,0.5
9.3559,0.025556,0.01183,-16.475,0.30851,1.7639,106,1,0.1225,0.1225,0.5,0.5
9.3047,0.026373,0.011993,-16.46,-0.1918,1.8742,107.4,1,0.14,0.14,0.5,0.5
9.2558,0.027057,0.012028,-16.449,-0.027074,1.9191,109.73,1,0.1575,0.1575,0.5,0.5
9.2119,0.026744,0.01197,-16.463,-0.18111,1.9781,110.42,1,0.175,0.175,0.5,0.5
9.1737,0.027131,0.011797,-16.45,-0.39532,1.9935,109.9,1,0.1925,0.1925,0.5,0.5
9.137,0.028004,0.011664,-16.426,-0.43243,1.9955,109.85,1,0.21,0.21,0.5,0.5
9.1013,0.028142,0.011582,-16.429,-0.36643,2.0125,110.16,1,0.2275,0.2275,0.5,0.5
9.0706,0.027334,0.011361,-16.453,-0.44812,2.0151,108.87,1,0.245,0.245,0.5,0.5
9.0425,0.028443,0.011216,-16.413,-0.50462,2.0241,107.5,1,0.2625,0.2625,0.5,0.5
9.0118,0.029112,0.011043,-16.406,-0.42528,2.0244,107.89,1,0.28,0.28,0.5,0.5
8.9856,0.028112,0.01086,-16.431,-0.42905,2.025,106.73,1,0.2975,0.2975,0.5,0.5
8.9617,0.028448,0.010644,-16.418,-0.44347,2.0143,105.38,1,0.315,0.315,0.5,0.5
8.937,0.029265,0.01044,-16.398,-0.42217,2.0021,104.83,1,0.3325,0.3325,0.5,0.5
8.9127,0.029145,0.010245,-16.405,-0.38927,1.9912,104.4,1,0.35,0.35,0.5,0.5
8.8918,0.028377,0.01003,-16.422,-0.38574,1.9773,103.1,1,0.3675,0.3675,0.5,0.5
8.8716,0.029328,0.0098298,-16.393,-0.37922,1.9636,102.05,1,0.385,0.385,0.5,0.5
8.8492,0.02982,0.0096297,-16.389,-0.3468,1.9479,101.99,1,0.4025,0.4025,0.5,0.5
8.8304,0.028785,0.0094355,-16.411,-0.33421,1.9328,100.91,1,0.42,0.42,0.5,0.5
8.8128,0.029169,0.0092349,-16.398,-0.32478,1.9146,99.883,1,0.4375,0.4375,0.5,0.5
8.7941,0.029778,0.0090436,-16.386,-0.30811,1.8962,99.402,1,0.455,0.455,0.5,0.5
8.7761,0.029536,0.0088582,-16.394,-0.29096,1.8782,98.849,1,0.4725,0.4725,0.5,0.5
8.7602,0.029019,0.0086739,-16.403,-0.27995,1.8601,97.86,1,0.49,0.49,0.5,0.5
8.7447,0.029748,0.0084975,-16.385,-0.26955,1.8423,97.089,1,0.5075,0.5075,0.5,0.5
8.7276,0.030121,0.0083233,-16.382,-0.25481,1.8238,96.867,1,0.525,0.525,0.5,0.5
8.7133,0.029209,0.0081582,-16.401,-0.24401,1.8063,95.949,1,0.5425,0.5425,0.5,0.5
8.6997,0.029641,0.0079938,-16.39,-0.23508,1.7883,95.15,1,0.56,0.56,0.5,0.5
8.6852,0.030111,0.0078348,-16.383,-0.22522,1.7702,94.719,1,0.5775,0.5775,0.5,0.5
8.6715,0.029866,0.0076808,-16.391,-0.21545,1.7525,94.152,1,0.595,0.595,0.5,0.5
8.6592,0.029613,0.0075315,-16.397,-0.20697,1.7353,93.362,1,0.6125,0.6125,0.5,0.5
8.647,0.030227,0.0073869,-16.386,-0.19956,1.7186,92.744,1,0.63,0.63,0.5,0.5
8.634,0.030536,0.0072437,-16.386,-0.19199,1.7014,92.414,1,0.6475,0.6475,0.5,0.5
8.623,0.029914,0.0071087,-16.402,-0.18428,1.685,91.642,1,0.665,0.665,0.5,0.5
8.6125,0.030478,0.006976,-16.393,-0.17802,1.6689,90.979,1,0.6825,0.6825,0.5,0.5
8.6013,0.030981,0.0068456,-16.391,-0.1722,1.6527,90.571,1,0.7,0.7,0.5,0.5
8.591,0.030903,0.0067197,-16.4,-0.16607,1.6367,90.011,1,0.7175,0.7175,0.5,0.5
8.5817,0.031001,0.0065985,-16.404,-0.1602,1.6213,89.339,1,0.735,0.735,0.5,0.5
8.5724,0.031705,0.0064798,-16.398,-0.15526,1.6061,88.801,1,0.7525,0.7525,0.5,0.5
8.5627,0.032157,0.0063623,-16.401,-0.1507,1.5907,88.408,1,0.77,0.77,0.5,0.5
8.5544,0.031959,0.0062516,-16.415,-0.14523,1.5756,87.732,1,0.7875,0.7875,0.5,0.5
8.5466,0.032807,0.0061434,-16.408,-0.14084,1.5611,87.146,1,0.805,0.805,0.5,0.5
8.5382,0.033534,0.006036,-16.408,-0.13712,1.5463,86.741,1,0.8225,0.8225,0.5,0.5
8.5307,0.033783,0.0059334,-16.417,-0.1328,1.5317,86.189,1,0.84,0.84,0.5,0.5
8.5238,0.034309,0.0058349,-16.42,-0.12857,1.5174,85.587,1,0.8575,0.8575,0.5,0.5
8.5169,0.035244,0.005738,-16.416,-0.12508,1.5034,85.09,1,0.875,0.875,0.5,0.5
8.5099,0.03595,0.0056426,-16.42,-0.12187,1.4891,84.659,1,0.8925,0.8925,0.5,0.5
8.5039,0.036224,0.0055533,-16.43,-0.11781,1.4751,84.047,1,0.91,0.91,0.5,0.5
8.4982,0.037301,0.0054665,-16.424,-0.11451,1.4616,83.503,1,0.9275,0.9275,0.5,0.5
8.492,0.038237,0.0053801,-16.424,-0.1119,1.4479,83.096,1,0.945,0.945,0.5,0.5
8.4865,0.038738,0.0052989,-16.431,-0.10857,1.4342,82.557,1,0.9625,0.9625,0.5,0.5
8.4815,0.039531,0.0052212,-16.431,-0.10539,1.421,82.004,1,0.98,0.98,0.5,0.5
8.4764,0.040553,0.0051448,-16.428,-0.1028,1.408,81.536,1,0.9975,0.9975,0.5,0.5
8.4711,0.04133,0.0050703,-16.429,-0.10036,1.395,81.093,1,1.015,1.015,0.5,0.5
8.4666,0.041803,0.005001,-16.434,-0.097307,1.3821,80.537,1,1.0325,1.0325,0.5,0.5
8.4623,0.042826,0.0049338,-16.428,-0.094785,1.3698,80.032,1,1.05,1.05,0.5,0.5
8.4574,0.043673,0.0048668,-16.426,-0.092922,1.3574,79.639,1,1.0675,1.0675,0.5,0.5
8.4531,0.044099,0.0048046,-16.43,-0.090399,1.3452,79.132,1,1.085,1.085,0.5,0.5
8.4491,0.044791,0.0047449,-16.427,-0.088059,1.3335,78.633,1,1.1025,1.1025,0.5,0.5
8.4449,0.04557,0.0046859,-16.422,-0.086216,1.322,78.205,1,1.12,1.12,0.5,0.5
8.4406,0.04609,0.0046284,-16.422,-0.084443,1.3106,77.784,1,1.1375,1.1375,0.5,0.5
8.4368,0.0464,0.0045744,-16.423,-0.082297,1.2994,77.293,1,1.155,1.155,0.5,0.5
8.4331,0.047085,0.0045217,-16.416,-0.080478,1.2887,76.846,1,1.1725,1.1725,0.5,0.5
8.4289,0.047609,0.0044685,-16.414,-0.079233,1.2782,76.487,1,1.19,1.19,0.5,0.5
8.4252,0.047761,0.0044182,-16.416,-0.077491,1.2678,76.033,1,1.2075,1.2075,0.5,0.5
8.4217,0.048202,0.0043693,-16.412,-0.075846,1.2578,75.601,1,1.225,1.225,0.5,0.5
8.4179,0.048694,0.0043202,-16.407,-0.074592,1.248,75.228,1,1.2425,1.2425,0.5,0.5
8.4142,0.048991,0.0042714,-16.407,-0.073384,1.2384,74.849,1,1.26,1.26,0.5,0.5
8.4109,0.049223,0.0042242,-16.408,-0.071927,1.2289,74.427,1,1.2775,1.2775,0.5,0.5
8.4075,0.049795,0.0041777,-16.402,-0.070569,1.2197,74.045,1,1.295,1.295,0.5,0.5
8.4038,0.05033,0.0041297,-16.401,-0.069694,1.2107,73.726,1,1.3125,1.3125,0.5,0.5
8.4006,0.050626,0.0040833,-16.403,-0.068416,1.2016,73.322,1,1.33,1.33,0.5,0.5
8.3975,0.051339,0.0040381,-16.399,-0.067065,1.1928,72.947,1,1.3475,1.3475,0.5,0.5
8.3941,0.052174,0.003992,-16.396,-0.06604,1.1842,72.62,1,1.365,1.365,0.5,0.5
8.3907,0.052937,0.0039466,-16.396,-0.064951,1.1754,72.271,1,1.3825,1.3825,0.5,0.5
8.3876,0.053807,0.0039032,-16.394,-0.063605,1.1666,71.894,1,1.4,1.4,0.5,0.5
8.3843,0.055051,0.0038606,-16.388,-0.062323,1.1582,71.551,1,1.4175,1.4175,0.5,0.5
8.3806,0.056338,0.0038177,-16.383,-0.061386,1.1498,71.246,1,1.435,1.435,0.5,0.5
8.3771,0.057463,0.00378,-16.38,-0.059807,1.141,70.867,1,1.4525,1.4525,0.5,0.5
8.3734,0.05902,0.0037446,-16.368,-0.058427,1.1328,70.515,1,1.47,1.47,0.5,0.5
8.369,0.0606,0.0037102,-16.356,-0.057341,1.1246,70.201,1,1.4875,1.4875,0.5,0.5
8.3644,0.061995,0.0036822,-16.344,-0.05582,1.1163,69.86,1,1.505,1.505,0.5,0.5
8.3595,0.063353,0.0036597,-16.327,-0.05423,1.1084,69.502,1,1.5225,1.5225,0.5,0.5
8.3539,0.064746,0.00364,-16.304,-0.05315,1.1009,69.173,1,1.54,1.54,0.5,0.5
8.3474,0.065823,0.0036253,-16.28,-0.052102,1.0936,68.875,1,1.5575,1.5575,0.5,0.5
8.3403,0.066338,0.0036241,-16.254,-0.05005,1.0868,68.534,1,1.575,1.575,0.5,0.5
8.3324,0.066592,0.0036256,-16.219,-0.049438,1.081,68.212,1,1.5925,1.5925,0.5,0.5
8.3232,0.066168,0.0036332,-16.181,-0.048913,1.0756,67.945,1,1.61,1.61,0.5,0.5
8.313,0.064886,0.003654,-16.141,-0.047707,1.0716,67.676,1,1.6275,1.6275,0.5,0.5
8.3018,0.062753,0.0036812,-16.098,-0.047188,1.0685,67.409,1,1.645,1.645,0.5,0.5
8.2895,0.059679,0.0037121,-16.05,-0.047686,1.0664,67.183,1,1.6625,1.6625,0.5,0.5
8.2758,0.055438,0.0037519,-16.001,-0.047999,1.0658,67.024,1,1.68,1.68,0.5,0.5
8.2611,0.049931,0.0038015,-15.953,-0.048135,1.0679,66.875,1,1.6975,1.6975,0.5,0.5
8.2452,0.042929,0.0038497,-15.904,-0.050065,1.0701,66.734,1,1.715,1.715,0.5,0.5
8.2282,0.034453,0.0039051,-15.857,-0.051914,1.0748,66.713,1,1.7325,1.7325,0.5,0.5
8.2102,0.024645,0.0039563,-15.816,-0.054781,1.0829,66.737,1,1.75,1.75,0.5,0.5
8.1916,0.013386,0.0040047,-15.78,-0.057931,1.0917,66.777,1,1.7675,1.7675,0.5,0.5
8.1726,0.0007535,0.0040515,-15.753,-0.061303,1.1021,66.89,1,1.785,1.785,0.5,0.5
8.1532,-0.01303,0.0040864,-15.736,-0.066143,1.1159,67.109,1,1.8025,1.8025,0.5,0.5
8.1336,-0.027804,0.0040906,-15.731,-0.073511,1.1316,67.361,1,1.82,1.82,0.5,0.5
8.1148,-0.043653,0.0040956,-15.741,-0.077189,1.1469,67.627,1,1.8375,1.8375,0.5,0.5
8.0968,-0.060024,0.0040757,-15.772,-0.083126,1.1668,68.042,1,1.855,1.855,0.5,0.5
8.0801,-0.076508,0.0039949,-15.823,-0.093645,1.1854,68.464,1,1.8725,1.8725,0.5,0.5
8.0654,-0.092784,0.0038932,-15.894,-0.10118,1.2042,68.916,1,1.89,1.89,0.5,0.5
8.0531,-0.10838,0.0037614,-15.988,-0.1077,1.2239,69.426,1,1.9075,1.9075,0.5,0.5
8.0439,-0.12288,0.0035771,-16.108,-0.11694,1.2416,69.948,1,1.925,1.925,0.5,0.5
8.0387,-0.13577,0.0033375,-16.254,-0.12799,1.2541,70.42,1,1.9425,1.9425,0.5,0.5
8.0373,-0.14607,0.0030619,-16.422,-0.13492,1.2652,70.95,1,1.96,1.96,0.5,0.5
8.0418,-0.15297,0.0027358,-16.622,-0.14168,1.271,71.447,1,1.9775,1.9775,0.5,0.5
8.0533,-0.15627,0.0023869,-16.851,-0.14702,1.2666,71.749,1,1.995,1.995,0.5,0.5
8.0706,-0.15443,0.0020059,-17.096,-0.15014,1.2567,72.082,1,2.0125,2.0125,0.5,0.5
8.0943,-0.14708,0.0016065,-17.361,-0.15035,1.2394,72.343,1,2.03,2.03,0.5,0.5
8.1256,-0.13389,0.0012226,-17.645,-0.14583,1.2131,72.396,1,2.0475,2.0475,0.5,0.5
8.1644,-0.11392,0.000868,-17.939,-0.1365,1.1784,72.265,1,2.065,2.065,0.5,0.5
8.2093,-0.085833,0.00051315,-18.23,-0.12602,1.1364,72.133,1,2.0825,2.0825,0.5,0.5
8.2606,-0.049333,0.00020112,-18.52,-0.11216,1.0871,71.735,1,2.1,2.1,0.5,0.5
8.3187,-0.0039394,-3.6398e-05,-18.798,-0.091105,1.0316,70.996,1,2.1175,2.1175,0.5,0.5
8.3798,0.050281,-0.00022868,-19.041,-0.070657,0.97334,70.136,1,2.135,2.135,0.5,0.5
8.4425,0.11227,-0.000375,-19.247,-0.050579,0.91174,68.997,1,2.1525,2.1525,0.5,0.5
8.5052,0.18089,-0.00046072,-19.409,-0.028954,0.84853,67.552,1,2.17,2.17,0.5,0.5
8.5661,0.25508,-0.00048632,-19.513,-0.0070175,0.78527,65.825,1,2.1875,2.1875,0.5,0.5
8.6227,0.33346,-0.00046825,-19.544,0.011513,0.72232,63.811,1,2.205,2.205,0.5,0.5
8.6723,0.41356,-0.00040093,-19.504,0.027877,0.66078,61.463,1,2.2225,2.2225,0.5,0.5
8.7113,0.49171,-0.00028821,-19.375,0.042405,0.60273,58.951,1,2.24,2.24,0.5,0.5
8.74,0.56598,-0.00012905,-19.157,0.054343,0.54889,56.113,1,2.2575,2.2575,0.5,0.5
8.7562,0.63318,5.861e-05,-18.86,0.063117,0.49924,53.122,1,2.275,2.275,0.5,0.5
8.7593,0.69061,0.00026636,-18.494,0.068908,0.45348,50.134,1,2.2925,2.2925,0.5,0.5
8.75,0.73656,0.0005015,-18.061,0.073608,0.41315,47.173,1,2.31,2.31,0.5,0.5
8.7289,0.76976,0.0007674,-17.568,0.078225,0.3795,44.243,1,2.3275,2.3275,0.5,0.5
8.6956,0.78873,0.0010457,-17.032,0.080716,0.35047,41.472,1,2.345,2.345,0.5,0.5
8.6515,0.79094,0.0013466,-16.467,0.083404,0.32306,38.964,1,2.3625,2.3625,0.5,0.5
8.5986,0.77776,0.001692,-15.875,0.083292,0.31175,36.779,1,2.38,2.38,0.5,0.5
8.5387,0.75053,0.0020235,-15.28,0.078208,0.30088,34.912,1,2.3975,2.3975,0.5,0.5
8.4736,0.70993,0.0024237,-14.693,0.077651,0.29024,33.341,1,2.415,2.415,0.5,0.5
8.4046,0.65758,0.0028824,-14.121,0.074707,0.29011,32.149,1,2.4325,2.4325,0.5,0.5
8.3325,0.59511,0.0033786,-13.567,0.06788,0.29874,31.361,1,2.45,2.45,0.5,0.5
8.258,0.52368,0.0039753,-13.041,0.069509,0.3077,30.921,1,2.4675,2.4675,0.5,0.5
8.1817,0.44461,0.004855,-12.548,0.084292,0.34823,30.908,1,2.485,2.485,0.5,0.5
8.102,0.35965,0.0054893,-12.106,0.048989,0.36056,31.173,1,2.5025,2.5025,0.5,0.5
8.0201,0.27002,0.0064495,-11.7,0.038286,0.39638,32.057,1,2.52,2.52,0.5,0.5
7.9323,0.18035,0.007434,-11.334,0.017894,0.48265,33.477,1,2.5375,2.5375,0.5,0.5
7.8406,0.088383,0.0085824,-11.025,0.0067506,0.55124,34.956,1,2.555,2.555,0.5,0.5
7.7438,-0.0041002,0.0099514,-10.771,-0.003312,0.63026,36.887,1,2.5725,2.5725,0.5,0.5
7.6357,-0.09224,0.01126,-10.559,-0.03874,0.77031,39.861,1,2.59,2.59,0.5,0.5
7.5112,-0.17444,0.012072,-10.402,-0.091671,0.92001,43.42,1,2.6075,2.6075,0.5,0.5
7.3771,-0.25392,0.013604,-10.307,-0.075931,1.3215,47.04,1,2.625,2.625,0.5,0.5
7.2192,-0.3227,0.013488,-10.276,-0.18242,1.7709,51.659,1,2.6425,2.6425,0.5,0.5
7.0437,-0.38519,0.012228,-10.305,-0.36692,2.2458,56.584,1,2.66,2.66,0.5,0.5
6.8487,-0.4381,0.0087329,-10.377,-0.61024,2.6805,60.839,1,2.6775,2.6775,0.5,0.5
6.6426,-0.48639,0.0036002,-10.509,-0.81829,2.9661,63.593,1,2.695,2.695,0.5,0.5
6.4392,-0.53666,-0.0019725,-10.716,-0.91773,3.0443,64.343,1,2.7125,2.7125,0.5,0.5
6.2494,-0.59114,-0.0072353,-10.986,-0.90514,2.9152,63.11,1,2.73,2.73,0.5,0.5
6.0733,-0.64881,-0.011693,-11.311,-0.77264,2.4905,60.755,1,2.7475,2.7475,0.5,0.5
5.9349,-0.71999,-0.013791,-11.724,-0.53676,1.9981,56.489,1,2.765,2.765,0.5,0.5
5.8335,-0.8024,-0.014117,-12.22,-0.22781,1.5014,51.357,1,2.7825,2.7825,0.5,0.5
5.766,-0.89339,-0.012778,-12.785,-0.011076,1.0934,47.474,1,2.8,2.8,0.5,0.5
5.7301,-0.9902,-0.010536,-13.432,0.1218,0.78172,44.535,1,2.8175,2.8175,0.5,0.5
5.724,-1.0894,-0.008027,-14.169,0.18617,0.55462,42.308,1,2.835,2.835,0.5,0.5
5.7456,-1.1878,-0.0055266,-14.996,0.19097,0.40015,41.106,1,2.8525,2.8525,0.5,0.5
5.7934,-1.2826,-0.0031196,-15.923,0.19229,0.29722,41.025,1,2.87,2.87,0.5,0.5
5.8684,-1.365,-0.0010766,-16.959,0.17876,0.22402,41.5,1,2.8875,2.8875,0.5,0.5
5.9684,-1.4312,0.00056966,-18.107,0.14837,0.17072,42.959,1,2.905,2.905,0.5,0.5
6.0921,-1.4727,0.0017539,-19.357,0.14287,0.11453,44.464,1,2.9225,2.9225,0.5,0.5
6.237,-1.4861,0.002576,-20.695,0.14014,0.059891,46.406,1,2.94,2.94,0.5,0.5
6.4005,-1.4644,0.003012,-22.105,0.13655,-0.0026047,48.732,1,2.9575,2.9575,0.5,0.5
6.5796,-1.4028,0.0031278,-23.563,0.1375,-0.074728,51.282,1,2.975,2.975,0.5,0.5
6.7696,-1.3,0.0031407,-25.03,0.14158,-0.14628,54.043,1,2.9925,2.9925,0.5,0.5
6.9664,-1.1506,0.0030463,-26.467,0.14261,-0.23946,56.637,1,3.01,3.01,0.5,0.5
7.1608,-0.95302,0.0033366,-27.8,0.15867,-0.33112,59.277,1,3.0275,3.0275,0.5,0.5
7.3538,-0.7163,0.0038472,-28.982,0.1756,-0.42929,61.252,1,3.045,3.045,0.5,0.5
7.5396,-0.4479,0.0047689,-29.976,0.20519,-0.50112,63.077,1,3.0625,3.0625,0.5,0.5
7.7183,-0.15203,0.0059501,-30.737,0.24182,-0.53487,64.7,1,3.08,3.08,0.5,0.5
7.8902,0.16602,0.0072227,-31.238,0.28869,-0.51932,66.313,1,3.0975,3.0975,0.5,0.5
8.0556,0.50115,0.0083758,-31.459,0.34959,-0.44295,68.175,1,3.115,3.115,0.5,0.5
8.2185,0.85181,0.0089779,-31.367,0.40424,-0.306,69.879,1,3.1325,3.1325,0.5,0.5
8.3784,1.2127,0.0087199,-30.927,0.42372,-0.12337,69.99,1,3.15,3.15,0.5,0.5
8.5259,1.5702,0.007534,-30.126,0.41156,0.083136,69.213,1,3.1675,3.1675,0.5,0.5
8.6532,1.9088,0.0056746,-29.018,0.3614,0.24915,65.957,1,3.185,3.185,0.5,0.5
8.7468,2.207,0.0035231,-27.633,0.29846,0.35596,60.399,1,3.2025,3.2025,0.5,0.5
8.7963,2.4465,0.0014469,-26.028,0.23294,0.39103,52.328,1,3.22,3.22,0.5,0.5
8.7955,2.6126,-0.00025686,-24.278,0.17159,0.36431,42.507,1,3.2375,3.2375,0.5,0.5
8.742,2.6958,-0.0014166,-22.46,0.12881,0.30914,33.172,1,3.255,3.255,0.5,0.5
8.6427,2.6989,-0.0021015,-20.642,0.11162,0.23511,25.509,1,3.2725,3.2725,0.5,0.5
8.514,2.6263,-0.0023479,-18.928,0.10276,0.19863,19.381,1,3.29,3.29,0.5,0.5
8.3733,2.507,-0.0025262,-17.322,0.087926,0.16403,14.584,1,3.3075,3.3075,0.5,0.5
8.2314,2.3532,-0.0025114,-15.855,0.083331,0.15444,11.077,1,3.325,3.325,0.5,0.5
8.0941,2.1773,-0.0025653,-14.522,0.070173,0.13404,8.5568,1,3.3425,3.3425,0.5,0.5
7.9656,1.9871,-0.0026407,-13.319,0.054904,0.10341,6.7205,1,3.36,3.36,0.5,0.5
7.8492,1.788,-0.0025919,-12.246,0.047658,0.085004,5.3094,1,3.3775,3.3775,0.5,0.5
7.7451,1.5865,-0.0027867,-11.287,0.0082182,0.051429,4.0812,1,3.395,3.395,0.5,0.5
7.6536,1.3802,-0.0022934,-10.443,0.041862,0.082112,3.9422,1,3.4125,3.4125,0.5,0.5
7.5723,1.1777,-0.0021294,-9.7026,0.021434,0.10322,3.9331,1,3.43,3.43,0.5,0.5
7.5016,0.9728,-0.0016331,-9.0511,0.030822,0.085921,3.8585,1,3.4475,3.4475,0.5,0.5
7.4387,0.7726,-0.0010376,-8.4807,0.0072062,0.086046,4.0625,1,3.465,3.465,0.5,0.5
7.3813,0.57569,-8.7494e-05,-7.9812,0.0079195,0.073541,4.4777,1,3.4825,3.4825,0.5,0.5
7.3281,0.38057,0.0018738,-7.5418,0.088966,0.11289,5.2596,1,3.5,3.5,0.5,0.5
7.2771,0.19172,0.0048836,-7.1553,0.16636,0.32775,6.8298,1,3.5175,3.5175,0.5,0.5
7.2186,0.0042671,0.0059628,-6.8275,0.032571,0.19591,7.7647,1,3.535,3.535,0.5,0.5
7.1603,-0.17676,0.0094139,-6.5547,-0.056423,0.22498,10.538,1,3.5525,3.5525,0.5,0.5
7.0758,-0.34264,0.012997,-6.3628,-0.14658,-0.073081,13.41,1,3.57,3.57,0.5,0.5
6.9776,-0.49722,0.020947,-6.2482,-0.010018,0.40325,18.49,1,3.5875,3.5875,0.5,0.5
6.8332,-0.62085,0.027326,-6.2063,-0.010728,1.409,25.723,1,3.605,3.605,0.5,0.5
6.6272,-0.70811,0.027995,-6.225,-0.32098,2.6605,34.206,1,3.6225,3.6225,0.5,0.5
6.3722,-0.77136,0.022691,-6.3004,-0.78596,3.8793,41.39,1,3.64,3.64,0.5,0.5
6.0815,-0.82061,0.0098449,-6.4606,-1.2998,4.0135,41.688,1,3.6575,3.6575,0.5,0.5
5.8362,-0.91747,0.00020717,-6.7314,-1.3565,3.529,36.452,1,3.675,3.675,0.5,0.5
5.6528,-1.0637,-0.0040416,-7.1202,-1.0811,2.6123,28.743,1,3.6925,3.6925,0.5,0.5
5.5142,-1.2497,-0.0036421,-7.621,-0.84297,2.1019,25.176,1,3.71,3.71,0.5,0.5
5.4002,-1.4529,-0.0019043,-8.2405,-0.70943,1.8578,24.763,1,3.7275,3.7275,0.5,0.5
5.2961,-1.6562,-0.00070466,-8.9866,-0.6665,1.7348,26.469,1,3.745,3.745,0.5,0.5
5.1969,-1.8488,-0.00029436,-9.8657,-0.64796,1.6597,29.426,1,3.7625,3.7625,0.5,0.5
5.1054,-2.0213,-0.00036969,-10.88,-0.57244,1.5623,32.508,1,3.78,3.78,0.5,0.5
5.02,-2.1633,-0.0013838,-12.03,-0.49027,1.4789,36.796,1,3.7975,3.7975,0.5,0.5
4.9466,-2.2581,-0.0035696,-13.3,-0.40079,1.3479,41.279,1,3.815,3.815,0.5,0.5
4.8842,-2.3096,-0.0064423,-14.652,-0.28474,1.1742,46.598,1,3.8325,3.8325,0.5,0.5
4.8387,-2.3148,-0.0097371,-16.04,-0.16707,0.92471,51.495,1,3.85,3.85,0.5,0.5
4.8125,-2.2774,-0.013062,-17.419,-0.054637,0.61584,55.808,1,3.8675,3.8675,0.5,0.5
4.8058,-2.2028,-0.016128,-18.753,0.043011,0.27204,59.466,1,3.885,3.885,0.5,0.5
4.8179,-2.0971,-0.018759,-20.01,0.11123,-0.086292,62.25,1,3.9025,3.9025,0.5,0.5
4.8492,-1.9693,-0.020735,-21.157,0.14746,-0.42694,64.327,1,3.92,3.92,0.5,0.5
4.9003,-1.8226,-0.021855,-22.153,0.18263,-0.73289,65.71,1,3.9375,3.9375,0.5,0.5
4.969,-1.667,-0.021949,-23.002,0.19785,-0.97726,66.661,1,3.955,3.955,0.5,0.5
5.0541,-1.5053,-0.021076,-23.705,0.22512,-1.168,67.187,1,3.9725,3.9725,0.5,0.5
5.1544,-1.3411,-0.019171,-24.261,0.263,-1.2924,67.378,1,3.99,3.99,0.5,0.5
5.2694,-1.1777,-0.016385,-24.682,0.29593,-1.3518,67.22,1,4.0075,4.0075,0.5,0.5
5.398,-1.0175,-0.01296,-24.976,0.31114,-1.3454,66.754,1,4.025,4.025,0.5,0.5
5.538,-0.86234,-0.009096,-25.152,0.30762,-1.2579,66.182,1,4.0425,4.0425,0.5,0.5
5.6866,-0.71391,-0.0052572,-25.227,0.28156,-1.1009,65.54,1,4.06,4.06,0.5,0.5
5.8448,-0.57333,-0.0018755,-25.204,0.22386,-0.86124,64.456,1,4.0775,4.0775,0.5,0.5
6.008,-0.44027,0.00074786,-25.114,0.1628,-0.59526,63.4,1,4.095,4.095,0.5,0.5
6.1758,-0.31331,0.0026402,-24.963,0.1078,-0.31251,62.27,1,4.1125,4.1125,0.5,0.5
6.3485,-0.19417,0.0036333,-24.765,0.05024,-0.029654,61.122,1,4.13,4.13,0.5,0.5
6.527,-0.084213,0.0037943,-24.534,0.0042231,0.22238,59.868,1,4.1475,4.1475,0.5,0.5
6.7127,0.015404,0.0035519,-24.278,-0.0036495,0.42297,58.296,1,4.165,4.165,0.5,0.5
6.9062,0.10034,0.0034096,-24.013,0.0083467,0.6001,56.376,1,4.1825,4.1825,0.5,0.5
7.1098,0.1644,0.0028554,-23.784,-0.041603,0.66113,53.678,1,4.2,4.2,0.5,0.5
7.3212,0.20523,0.0028356,-23.609,-0.070827,0.68711,50.754,1,4.2175,4.2175,0.5,0.5
7.5364,0.22367,0.0032226,-23.522,-0.12016,0.69658,47.618,1,4.235,4.235,0.5,0.5
7.7549,0.22136,0.0041847,-23.541,-0.12519,0.65935,44.295,1,4.2525,4.2525,0.5,0.5
7.9738,0.20222,0.0058014,-23.679,-0.093949,0.61669,41.037,1,4.27,4.27,0.5,0.5
8.1897,0.17126,0.0077495,-23.949,-0.086726,0.60357,38.094,1,4.2875,4.2875,0.5,0.5
8.4014,0.13397,0.0095379,-24.35,-0.11623,0.57747,35.569,1,4.305,4.305,0.5,0.5
8.6044,0.099242,0.012504,-24.849,0.0095988,0.57499,34.104,1,4.3225,4.3225,0.5,0.5
8.7968,0.072134,0.015557,-25.465,0.061518,0.64791,32.972,1,4.34,4.34,0.5,0.5
8.9835,0.055014,0.017795,-26.165,0.0095717,0.73166,31.892,1,4.3575,4.3575,0.5,0.5
9.1608,0.054044,0.019587,-26.893,-0.11842,0.82515,31.032,1,4.375,4.375,0.5,0.5
9.3282,0.070136,0.020844,-27.64,-0.28842,0.91989,30.335,1,4.3925,4.3925,0.5,0.5
9.4868,0.10291,0.02143,-28.402,-0.48977,1.0137,29.528,1,4.41,4.41,0.5,0.5
9.6378,0.15326,0.0213,-29.152,-0.73091,1.103,28.375,1,4.4275,4.4275,0.5,0.5
9.7794,0.22283,0.020208,-29.845,-1.0006,1.1533,27.071,1,4.445,4.445,0.5,0.5
9.9072,0.31204,0.01869,-30.477,-1.2052,1.1633,26.053,1,4.4625,4.4625,0.5,0.5
10.022,0.41798,0.017243,-31.035,-1.3341,1.1651,24.853,1,4.48,4.48,0.5,0.5
10.124,0.53836,0.015498,-31.495,-1.4223,1.1626,23.778,1,4.4975,4.4975,0.5,0.5
10.209,0.67158,0.01361,-31.85,-1.4739,1.1453,22.944,1,4.515,4.515,0.5,0.5
10.278,0.81572,0.01185,-32.093,-1.4639,1.1171,22.317,1,4.5325,4.5325,0.5,0.5
10.329,0.9682,0.010275,-32.215,-1.3921,1.0947,21.844,1,4.55,4.55,0.5,0.5
10.363,1.126,0.008624,-32.216,-1.3153,1.0901,21.558,1,4.5675,4.5675,0.5,0.5
10.379,1.2874,0.0069279,-32.081,-1.2315,1.0807,21.387,1,4.585,4.585,0.5,0.5
10.375,1.4493,0.0053864,-31.798,-1.1022,1.0707,21.365,1,4.6025,4.6025,0.5,0.5
10.356,1.6076,0.0038581,-31.405,-0.97152,1.0737,21.371,1,4.62,4.62,0.5,0.5
10.323,1.7609,0.0022372,-30.899,-0.84755,1.078,21.226,1,4.6375,4.6375,0.5,0.5
10.278,1.9076,0.00048948,-30.281,-0.72967,1.0691,20.912,1,4.655,4.655,0.5,0.5
10.223,2.0457,-0.0013155,-29.569,-0.61476,1.0499,20.473,1,4.6725,4.6725,0.5,0.5
10.157,2.1732,-0.0031272,-28.786,-0.50336,1.0304,19.873,1,4.69,4.69,0.5,0.5
10.084,2.2896,-0.0051643,-27.926,-0.40571,0.98562,18.906,1,4.7075,4.7075,0.5,0.5
10.004,2.3927,-0.0073518,-26.993,-0.33158,0.90045,17.701,1,4.725,4.725,0.5,0.5
9.9167,2.482,-0.0094585,-26.034,-0.25912,0.81635,16.457,1,4.7425,4.7425,0.5,0.5
9.824,2.558,-0.011567,-25.048,-0.19937,0.71949,14.98,1,4.76,4.76,0.5,0.5
9.7252,2.6208,-0.01361,-24.046,-0.14283,0.61031,13.691,1,4.7775,4.7775,0.5,0.5
9.6213,2.6705,-0.015509,-23.041,-0.090899,0.50623,12.517,1,4.795,4.795,0.5,0.5
9.5135,2.7074,-0.017246,-22.043,-0.053852,0.41823,11.142,1,4.8125,4.8125,0.5,0.5
9.401,2.7317,-0.01886,-21.056,-0.033579,0.33436,9.689,1,4.83,4.83,0.5,0.5
9.2827,2.7428,-0.020188,-20.094,0.0007684,0.27548,8.8825,1,4.8475,4.8475,0.5,0.5
9.1635,2.7419,-0.021487,-19.153,0.018665,0.2163,7.6172,1,4.865,4.865,0.5,0.5
9.0412,2.7302,-0.022671,-18.241,0.024087,0.17084,6.3706,1,4.8825,4.8825,0.5,0.5
8.9171,2.7077,-0.02382,-17.365,0.028723,0.13492,5.229,1,4.9,4.9,0.5,0.5
8.7919,2.6752,-0.02495,-16.52,0.032944,0.1089,4.1619,1,4.9175,4.9175,0.5,0.5
8.6663,2.6332,-0.026108,-15.706,0.033261,0.091012,3.2204,1,4.935,4.935,0.5,0.5
8.541,2.5815,-0.027376,-14.93,0.029599,0.076669,2.4692,1,4.9525,4.9525,0.5,0.5
8.4175,2.5205,-0.028725,-14.191,0.026916,0.068468,1.6182,1,4.97,4.97,0.5,0.5
8.2962,2.4486,-0.030367,-13.496,0.02046,0.053194,1.1409,1,4.9875,4.9875,0.5,0.5
8.1787,2.3679,-0.032163,-12.842,0.019173,0.04491,0.83688,1,5.005,5.005,0.5,0.5
8.0664,2.2791,-0.034246,-12.228,0.015221,0.034109,0.53213,1,5.0225,5.0225,0.5,0.5
7.9597,2.1827,-0.036541,-11.658,0.013858,0.029999,0.32068,1,5.04,5.04,0.5,0.5
7.8595,2.0793,-0.039083,-11.132,0.013362,0.029812,0.21186,1,5.0575,5.0575,0.5,0.5
7.7666,1.9697,-0.041922,-10.65,0.011632,0.026681,0.14136,1,5.075,5.075,0.5,0.5
7.6815,1.855,-0.04497,-10.212,0.015976,0.025689,0.10496,1,5.0925,5.0925,0.5,0.5
7.6053,1.7357,-0.048397,-9.8231,0.0094481,0.013706,0.076417,1,5.11,5.11,0.5,0.5
7.5381,1.6129,-0.052008,-9.4816,0.012955,0.0056842,0.050127,1,5.1275,5.1275,0.5,0.5
7.4793,1.488,-0.055894,-9.1819,0.0076598,0.00065723,0.029656,1,5.145,5.145,0.5,0.5
7.4281,1.3615,-0.059994,-8.9227,0.01029,-0.0043486,0.031824,1,5.1625,5.1625,0.5,0.5
7.3843,1.2342,-0.064322,-8.7021,0.012853,-0.0084824,0.030332,1,5.18,5.18,0.5,0.5
7.3478,1.1065,-0.068903,-8.5182,0.013231,-0.016247,0.017852,1,5.1975,5.1975,0.5,0.5
7.3176,0.97876,-0.073716,-8.3694,0.021025,-0.030239,0.020141,1,5.215,5.215,0.5,0.5
7.2944,0.85156,-0.078715,-8.2541,0.013767,-0.020859,0.021506,1,5.2325,5.2325,0.5,0.5
7.2771,0.72532,-0.084089,-8.1752,0.020834,-0.031001,0.036611,1,5.25,5.25,0.5,0.5
7.2661,0.59982,-0.089523,-8.1264,0.017905,-0.0099268,0.064891,1,5.2675,5.2675,0.5,0.5
7.2591,0.47565,-0.095368,-8.1059,0.024458,-0.035258,0.032759,1,5.285,5.285,0.5,0.5
7.2571,0.35239,-0.10134,-8.1126,0.032548,-0.056113,-0.01572,1,5.3025,5.3025,0.5,0.5
7.2593,0.23052,-0.1076,-8.1453,0.033248,-0.076554,-0.067254,1,5.32,5.32,0.5,0.5
7.2648,0.11024,-0.11424,-8.2026,0.031483,-0.10306,-0.084348,1,5.3375,5.3375,0.5,0.5
7.2754,-0.0099235,-0.12059,-8.2827,0.044258,-0.048562,0.054983,1,5.355,5.355,0.5,0.5
7.2882,-0.12706,-0.1276,-8.3911,0.047091,-0.061726,0.071298,1,5.3725,5.3725,0.5,0.5
7.3075,-0.24565,-0.13381,-8.5234,0.089394,-0.047169,0.096938,1,5.39,5.39,0.5,0.5
7.3274,-0.35957,-0.14061,-8.6826,0.072191,-0.063645,0.090062,1,5.4075,5.4075,0.5,0.5
7.3508,-0.47294,-0.14717,-8.8615,0.067623,-0.078558,0.033311,1,5.425,5.425,0.5,0.5
7.3775,-0.58437,-0.15332,-9.0606,0.086611,-0.046049,-0.049689,1,5.4425,5.4425,0.5,0.5
7.4078,-0.69403,-0.15886,-9.2803,0.098038,-0.025718,-0.15162,1,5.46,5.46,0.5,0.5
7.4431,-0.80481,-0.16327,-9.5188,0.064819,-0.089729,-0.13927,1,5.4775,5.4775,0.5,0.5
7.4795,-0.90921,-0.16687,-9.784,-0.055031,0.089347,0.68994,1,5.495,5.495,0.5,0.5
7.5074,-1.0042,-0.17344,-10.08,-0.50952,0.38677,2.2426,1,5.5125,5.5125,0.5,0.5
7.523,-1.0836,-0.18498,-10.395,-0.84206,1.0275,4.4048,1,5.53,5.53,0.5,0.5
7.5204,-1.1489,-0.20239,-10.73,-1.2181,1.4554,6.2657,1,5.5475,5.5475,0.5,0.5
7.5054,-1.2049,-0.2233,-11.078,-1.3345,1.3927,7.2865,1,5.565,5.565,0.5,0.5
7.4871,-1.2597,-0.24288,-11.445,-1.137,1.0371,7.0613,1,5.5825,5.5825,0.5,0.5
7.477,-1.3224,-0.25794,-11.839,-0.77701,0.68844,5.5104,1,5.6,5.6,0.5,0.5
7.4884,-1.3988,-0.27034,-12.253,-0.24551,0.28531,3.1924,1,5.6175,5.6175,0.5,0.5
7.5249,-1.4923,-0.27747,-12.699,0.18263,0.42652,1.0884,1,5.635,5.635,0.5,0.5
7.5745,-1.5904,-0.28277,-13.16,0.93479,-0.71434,0.31606,1,5.6525,5.6525,0.5,0.5
7.6283,-1.6932,-0.27112,-13.643,2.2801,-1.9639,0.085692,1,5.67,5.67,0.5,0.5
7.682,-1.7972,-0.24081,-14.147,4.0475,-3.4937,0.25011,1,5.6875,5.6875,0.5,0.5
7.735,-1.9036,-0.19435,-14.676,5.4162,-4.3905,0.40507,1,5.705,5.705,0.5,0.5
7.7875,-2.0119,-0.14057,-15.23,5.832,-4.3241,0.6667,1,5.7225,5.7225,0.5,0.5
7.8374,-2.1165,-0.091763,-15.808,5.4699,-4.1832,1.7036,1,5.74,5.74,0.5,0.5
7.8781,-2.2126,-0.050182,-16.414,4.5357,-3.7315,3.0616,1,5.7575,5.7575,0.5,0.5
7.9097,-2.2977,-0.011659,-17.047,4.4196,-4.9523,5.1229,1,5.775,5.775,0.5,0.5
7.9227,-2.3678,0.03483,-17.707,4.4085,-5.702,7.0865,1,5.7925,5.7925,0.5,0.5
7.9255,-2.4283,0.083402,-18.383,4.2606,-6.2184,8.6832,1,5.81,5.81,0.5,0.5
7.9233,-2.4805,0.12798,-19.081,3.6393,-5.5158,9.1817,1,5.8275,5.8275,0.5,0.5
7.928,-2.5301,0.15875,-19.804,2.4861,-3.8294,8.2676,1,5.845,5.845,0.5,0.5
7.9526,-2.5846,0.16833,-20.549,1.0942,-2.1934,6.2147,1,5.8625,5.8625,0.5,0.5
8.0007,-2.645,0.16091,-21.322,-0.050366,-0.65398,3.6326,1,5.88,5.88,0.5,0.5
8.0731,-2.7148,0.1413,-22.118,-0.42816,-0.26512,1.9926,1,5.8975,5.8975,0.5,0.5
8.1625,-2.7888,0.1231,-22.945,-0.27591,-0.10962,0.92324,1,5.915,5.915,0.5,0.5
8.2629,-2.8647,0.10791,-23.801,0.048109,-0.13406,0.46855,1,5.9325,5.9325,0.5,0.5
8.372,-2.9394,0.095515,-24.685,0.21343,-0.14451,0.19534,1,5.95,5.95,0.5,0.5
8.488,-3.0111,0.085002,-25.599,0.21228,-0.11176,0.053904,1,5.9675,5.9675,0.5,0.5
8.6094,-3.0788,0.075627,-26.541,0.14676,-0.067856,0.083567,1,5.985,5.985,0.5,0.5
8.7359,-3.1415,0.067429,-27.511,0.063564,-0.0206,0.12309,1,6.0025,6.0025,0.5,0.5
8.8684,-3.1985,0.061824,-28.516,0.11487,-0.065472,0.044415,1,6.02,6.02,0.5,0.5
9.0056,-3.2495,0.058464,-29.548,0.15553,-0.076021,0.049818,1,6.0375,6.0375,0.5,0.5
9.147,-3.2941,0.057291,-30.606,0.16311,-0.082627,0.048639,1,6.055,6.055,0.5,0.5
9.2921,-3.3321,0.058561,-31.689,0.22981,-0.15233,0.069233,1,6.0725,6.0725,0.5,0.5
9.4399,-3.3625,0.063677,-32.796,0.40209,-0.16428,0.15165,1,6.09,6.09,0.5,0.5
9.59,-3.3856,0.07014,-33.923,0.4266,-0.25741,0.16468,1,6.1075,6.1075,0.5,0.5
9.7416,-3.4017,0.078893,-35.067,0.59353,-0.31976,0.15194,1,6.125,6.125,0.5,0.5
9.8944,-3.4108,0.088762,-36.222,0.75379,-0.34194,0.1551,1,6.1425,6.1425,0.5,0.5
10.048,-3.4126,0.097966,-37.383,0.77087,-0.2568,0.10666,1,6.16,6.16,0.5,0.5
10.204,-3.4066,0.10386,-38.547,0.63595,-0.20839,0.071014,1,6.1775,6.1775,0.5,0.5
10.36,-3.3906,0.10801,-39.71,0.59109,-0.025528,-0.035589,1,6.195,6.195,0.5,0.5
10.518,-3.3652,0.10766,-40.867,0.2915,0.15481,-0.14481,1,6.2125,6.2125,0.5,0.5
10.677,-3.3292,0.10409,-42.012,0.08474,0.22188,-0.10712,1,6.23,6.23,0.5,0.5
10.834,-3.2816,0.099286,-43.142,0.02083,0.24373,0.0097068,1,6.2475,6.2475,0.5,0.5
10.991,-3.2228,0.093141,-44.253,-0.039851,0.14695,0.24566,1,6.265,6.265,0.5,0.5
11.142,-3.1488,0.08854,-45.333,0.16824,0.043636,0.43834,1,6.2825,6.2825,0.5,0.5
11.288,-3.0632,0.086967,-46.382,0.63664,-0.20476,0.8543,1,6.3,6.3,0.5,0.5
11.425,-2.9655,0.089223,-47.393,1.2408,-0.49731,1.5579,1,6.3175,6.3175,0.5,0.5
11.55,-2.8558,0.095611,-48.36,2.0334,-0.94373,2.6022,1,6.335,6.335,0.5,0.5
11.66,-2.7344,0.10901,-49.276,3.2495,-1.3554,4.0301,1,6.3525,6.3525,0.5,0.5
11.75,-2.5995,0.12713,-50.127,4.2667,-1.7428,5.5175,1,6.37,6.37,0.5,0.5
11.819,-2.4536,0.15013,-50.908,5.4404,-2.1227,7.4156,1,6.3875,6.3875,0.5,0.5
11.865,-2.2974,0.17675,-51.615,6.5153,-2.4001,9.5177,1,6.405,6.405,0.5,0.5
11.889,-2.1322,0.20432,-52.245,7.2821,-2.5514,11.728,1,6.4225,6.4225,0.5,0.5
11.889,-1.9594,0.23074,-52.792,7.7442,-2.601,13.931,1,6.44,6.44,0.5,0.5
11.864,-1.7795,0.25456,-53.25,7.9229,-2.5224,16.012,1,6.4575,6.4575,0.5,0.5
11.818,-1.5947,0.27299,-53.619,7.6963,-2.3296,18.075,1,6.475,6.475,0.5,0.5
11.752,-1.4061,0.2852,-53.908,7.1873,-2.0992,20.006,1,6.4925,6.4925,0.5,0.5
11.669,-1.2144,0.29131,-54.118,6.5186,-1.7909,21.826,1,6.51,6.51,0.5,0.5
11.571,-1.0191,0.29064,-54.254,5.5859,-1.4457,23.457,1,6.5275,6.5275,0.5,0.5
11.46,-0.82222,0.28339,-54.317,4.6972,-1.2449,25.261,1,6.545,6.545,0.5,0.5
11.338,-0.62142,0.27083,-54.303,3.6876,-1.0318,26.87,1,6.5625,6.5625,0.5,0.5
11.208,-0.41836,0.25412,-54.225,2.6951,-0.88675,28.395,1,6.58,6.58,0.5,0.5
11.073,-0.21157,0.2354,-54.082,1.7412,-0.72537,29.58,1,6.5975,6.5975,0.5,0.5
10.933,-0.0001511,0.2162,-53.873,0.79905,-0.55927,30.544,1,6.615,6.615,0.5,0.5
10.791,0.21229,0.19642,-53.599,-0.009054,-0.70704,32.066,1,6.6325,6.6325,0.5,0.5
10.648,0.43086,0.17896,-53.244,-0.79772,-0.7133,33.087,1,6.65,6.65,0.5,0.5
10.507,0.65069,0.16212,-52.82,-1.4938,-0.73002,34.035,1,6.6675,6.6675,0.5,0.5
10.366,0.87441,0.14714,-52.322,-2.0985,-0.53426,34.322,1,6.685,6.685,0.5,0.5
10.227,1.1013,0.13364,-51.746,-2.5528,-0.27694,34.409,1,6.7025,6.7025,0.5,0.5
10.091,1.3254,0.11932,-51.089,-2.874,-0.34119,35.284,1,6.72,6.72,0.5,0.5
9.9576,1.5534,0.10626,-50.346,-2.9787,-0.17371,35.536,1,6.7375,6.7375,0.5,0.5
9.8284,1.7775,0.09097,-49.518,-2.9659,-0.00073134,35.698,1,6.755,6.755,0.5,0.5
9.7016,2.0035,0.075053,-48.609,-2.7687,0.41593,35.155,1,6.7725,6.7725,0.5,0.5
9.5767,2.2285,0.057538,-47.619,-2.404,0.46346,35.411,1,6.79,6.79,0.5,0.5
9.4518,2.4492,0.038369,-46.541,-2.0508,0.69792,34.626,1,6.8075,6.8075,0.5,0.5
9.3226,2.6653,0.019587,-45.387,-1.4791,0.78371,33.688,1,6.825,6.825,0.5,0.5
9.1873,2.8619,0.00011532,-44.155,-1.0233,0.97097,31.627,1,6.8425,6.8425,0.5,0.5
9.0465,3.0241,-0.021007,-42.882,-0.55775,1.1028,28.534,1,6.86,6.86,0.5,0.5
8.903,3.1322,-0.045995,-41.591,-0.30827,1.1081,24.891,1,6.8775,6.8775,0.5,0.5
8.7597,3.1845,-0.073456,-40.317,-0.26999,1.6517,19.699,1,6.895,6.895,0.5,0.5
8.6187,3.1862,-0.105,-39.093,-0.26441,1.5994,16.906,1,6.9125,6.9125,0.5,0.5
8.4753,3.1981,-0.12562,-37.929,-0.15656,0.9813,17.354,1,6.93,6.93,0.5,0.5
8.3274,3.267,-0.12342,-36.795,0.13701,-1.3498,22.397,1,6.9475,6.9475,0.5,0.5
8.1783,3.4137,-0.089235,-35.652,0.47881,-3.0032,25.788,1,6.965,6.965,0.5,0.5
8.0409,3.5957,-0.038276,-34.472,0.52329,-2.9612,25.608,1,6.9825,6.9825,0.5,0.5
7.9255,3.7597,0.006228,-33.241,0.19973,-1.9923,22.731,1,7,7,0.5,0.5
7.8426,3.8677,0.03144,-31.968,-0.3532,-0.70254,18.896,1,7.0175,7.0175,0.5,0.5
7.7821,3.9246,0.038769,-30.678,-0.72354,0.15734,14.936,1,7.035,7.035,0.5,0.5
7.7403,3.9336,0.031067,-29.388,-1.0361,0.73233,12.203,1,7.0525,7.0525,0.5,0.5
7.7015,3.9155,0.013771,-28.113,-1.1532,1.2159,11.805,1,7.07,7.07,0.5,0.5
7.6422,3.9051,-0.0073723,-26.866,-0.92556,1.0574,14.858,1,7.0875,7.0875,0.5,0.5
7.5315,3.9498,-0.017628,-25.647,-0.24,0.67805,21.046,1,7.105,7.105,0.5,0.5
7.3633,4.0708,-0.016143,-24.443,0.42625,-0.84024,27.851,1,7.1225,7.1225,0.5,0.5
7.1478,4.2601,0.0028393,-23.242,1.0526,-2.0264,32.45,1,7.14,7.14,0.5,0.5
6.9116,4.483,0.035188,-22.03,1.5512,-2.3586,34.209,1,7.1575,7.1575,0.5,0.5
6.6816,4.7021,0.065993,-20.805,1.4567,-1.54,32.261,1,7.175,7.175,0.5,0.5
6.4899,4.8636,0.076662,-19.57,0.65217,0.47116,27.562,1,7.1925,7.1925,0.5,0.5
6.354,4.9284,0.058199,-18.354,-0.29798,0.98641,17.527,1,7.21,7.21,0.5,0.5
6.286,4.8671,0.03839,-17.178,-0.36371,0.5823,8.1498,1,7.2275,7.2275,0.5,0.5
6.2688,4.7087,0.027708,-16.075,-0.094612,0.10827,2.2451,1,7.245,7.245,0.5,0.5
6.2753,4.5063,0.022946,-15.065,0.020049,-0.0022828,0.25121,1,7.2625,7.2625,0.5,0.5
6.2855,4.2999,0.019915,-14.14,0.033562,-0.11746,0.042275,1,7.28,7.28,0.5,0.5
6.2943,4.1027,0.01824,-13.311,0.030568,-0.063105,-0.0064504,1,7.2975,7.2975,0.5,0.5
6.3012,3.9141,0.015989,-12.55,0.001646,-0.0045937,-0.026411,1,7.315,7.315,0.5,0.5
6.3064,3.7339,0.013371,-11.852,-0.018215,0.032744,-0.025926,1,7.3325,7.3325,0.5,0.5
6.3104,3.5615,0.010804,-11.211,-0.02577,0.05462,-0.023643,1,7.35,7.35,0.5,0.5
6.3134,3.3962,0.0083957,-10.62,-0.026899,0.05788,-0.013385,1,7.3675,7.3675,0.5,0.5
6.3158,3.2385,0.006405,-10.082,-0.026219,0.065052,-0.023225,1,7.385,7.385,0.5,0.5
6.3178,3.0869,0.0047731,-9.584,-0.022767,0.063771,-0.026808,1,7.4025,7.4025,0.5,0.5
6.3195,2.941,0.0035019,-9.1232,-0.019157,0.058167,-0.026973,1,7.42,7.42,0.5,0.5
6.3212,2.8004,0.0025655,-8.6959,-0.015397,0.049075,-0.021149,1,7.4375,7.4375,0.5,0.5
6.3229,2.6645,0.0018649,-8.2984,-0.011708,0.033572,0.004705,1,7.455,7.455,0.5,0.5
6.3247,2.5338,0.0014608,-7.9323,-0.0092474,0.042535,-0.028064,1,7.4725,7.4725,0.5,0.5
6.3268,2.4074,0.0011619,-7.5913,-0.0065276,0.0411,-0.034273,1,7.49,7.49,0.5,0.5
6.329,2.2852,0.0010054,-7.2746,-0.0045678,0.039738,-0.041282,1,7.5075,7.5075,0.5,0.5
6.3317,2.1663,0.00090272,-6.977,-0.0037428,0.02864,-0.020003,1,7.525,7.525,0.5,0.5
6.3346,2.051,0.00091514,-6.6993,-0.002745,0.02706,-0.031145,1,7.5425,7.5425,0.5,0.5
6.3381,1.9389,0.00092625,-6.4391,-0.0056071,0.02904,-0.05505,1,7.56,7.56,0.5,0.5
6.3418,1.8302,0.00099011,-6.1965,-0.0031283,0.025369,-0.034412,1,7.5775,7.5775,0.5,0.5
6.3462,1.7241,0.00093196,-5.9689,-0.0081943,0.02565,-0.031405,1,7.595,7.595,0.5,0.5
6.3508,1.6213,0.00082098,-5.7568,-0.0053712,0.02266,0.00095835,1,7.6125,7.6125,0.5,0.5
6.3563,1.5207,0.0006196,-5.5563,-0.014776,0.021788,-0.019215,1,7.63,7.63,0.5,0.5
6.3621,1.4227,0.00033638,-5.3685,-0.01889,0.021093,-0.029212,1,7.6475,7.6475,0.5,0.5
6.3687,1.3268,-5.1874e-05,-5.191,-0.029108,0.020367,-0.055473,1,7.665,7.665,0.5,0.5
6.3757,1.2332,-0.00063539,-5.0244,-0.034015,0.02405,-0.053814,1,7.6825,7.6825,0.5,0.5
6.3832,1.1418,-0.00139,-4.8673,-0.036982,0.027718,-0.03689,1,7.7,7.7,0.5,0.5
6.3913,1.0524,-0.002278,-4.7187,-0.034798,0.030756,-0.02355,1,7.7175,7.7175,0.5,0.5
6.3998,0.96487,-0.0031663,-4.5784,-0.021049,0.026963,-0.0078158,1,7.735,7.735,0.5,0.5
6.4094,0.87902,-0.0037506,-4.4444,-0.015323,-0.0018688,-0.02081,1,7.7525,7.7525,0.5,0.5
6.419,0.79518,-0.0041364,-4.3186,0.0056198,-0.023289,-0.0092454,1,7.77,7.77,0.5,0.5
6.43,0.71303,-0.0039149,-4.1974,0.0080275,-0.068123,-0.0028534,1,7.7875,7.7875,0.5,0.5
6.4406,0.63278,-0.0036263,-4.0853,0.035089,-0.04514,0.013577,1,7.805,7.805,0.5,0.5
6.4523,0.55446,-0.002661,-3.9761,0.03962,-0.039663,0.025155,1,7.8225,7.8225,0.5,0.5
6.4638,0.47781,-0.0014486,-3.8731,0.028971,0.010912,0.078278,1,7.84,7.84,0.5,0.5
6.4754,0.40411,0.00030348,-3.7723,-0.014647,0.055028,0.25994,1,7.8575,7.8575,0.5,0.5
6.4853,0.33343,0.002112,-3.6759,-0.090235,0.15698,0.58466,1,7.875,7.875,0.5,0.5
6.4928,0.26725,0.0036554,-3.5824,-0.19511,0.31951,1.1134,1,7.8925,7.8925,0.5,0.5
6.4961,0.20572,0.0044969,-3.4917,-0.31665,0.55399,1.746,1,7.91,7.91,0.5,0.5
6.494,0.14903,0.0042589,-3.4038,-0.43071,0.8501,2.3963,1,7.9275,7.9275,0.5,0.5
6.4861,0.098241,0.0029826,-3.3167,-0.5032,1.1395,3.0725,1,7.945,7.945,0.5,0.5
6.4712,0.051455,0.00079001,-3.2319,-0.49844,1.4139,3.6082,1,7.9625,7.9625,0.5,0.5
6.4516,0.011473,-0.0016315,-3.1458,-0.44784,1.5673,4.4158,1,7.98,7.98,0.5,0.5
6.4251,-0.026416,-0.0040623,-3.0621,-0.32084,1.6796,5.0014,1,7.9975,7.9975,0.5,0.5
6.3945,-0.057505,-0.0060625,-2.9761,-0.19816,1.6784,5.8183,1,8.015,8.015,0.5,0.5
6.3583,-0.088225,-0.0080546,-2.8924,-0.024815,1.6947,6.1063,1,8.0325,8.0325,0.5,0.5
6.3192,-0.11397,-0.010121,-2.806,0.12705,1.6586,6.4678,1,8.05,8.05,0.5,0.5
6.2762,-0.13864,-0.012624,-2.7191,0.28399,1.616,6.5712,1,8.0675,8.0675,0.5,0.5
6.2311,-0.15958,-0.016055,-2.6292,0.41811,1.5681,6.9027,1,8.085,8.085,0.5,0.5
6.1836,-0.17854,-0.021011,-2.5373,0.53103,1.5375,7.2824,1,8.1025,8.1025,0.5,0.5
6.1341,-0.19662,-0.028334,-2.4435,0.58746,1.543,7.5864,1,8.12,8.12,0.5,0.5
6.0838,-0.21347,-0.039311,-2.3469,0.53647,1.5885,7.8502,1,8.1375,8.1375,0.5,0.5
6.0316,-0.23313,-0.055516,-2.2495,0.39859,1.6891,7.6021,1,8.155,8.155,0.5,0.5
5.9813,-0.25289,-0.078299,-2.1479,0.13191,1.8,7.5322,1,8.1725,8.1725,0.5,0.5
5.9295,-0.27766,-0.10951,-2.0464,-0.15674,1.873,6.9439,1,8.19,8.19,0.5,0.5
5.8867,-0.30897,-0.14806,-1.9384,-0.44982,1.6927,6.4624,1,8.2075,8.2075,0.5,0.5
5.8472,-0.3505,-0.19483,-1.8348,-0.66342,1.3257,5.1923,1,8.225,8.225,0.5,0.5
5.8229,-0.40942,-0.24587,-1.727,-0.5893,0.83921,3.5741,1,8.2425,8.2425,0.5,0.5
5.8049,-0.47954,-0.30441,-1.6313,-0.49953,0.44197,2.2185,1,8.26,8.26,0.5,0.5
5.8002,-0.56769,-0.36799,-1.5368,-0.21537,0.19732,1.2688,1,8.2775,8.2775,0.5,0.5
5.8014,-0.664,-0.44037,-1.4572,-0.25373,0.11023,1.2585,1,8.295,8.295,0.5,0.5
5.8106,-0.77231,-0.52243,-1.3877,-0.21714,0.14103,1.1455,1,8.3125,8.3125,0.5,0.5
5.8285,-0.89089,-0.61578,-1.3345,-0.026756,0.1198,0.37859,1,8.33,8.33,0.5,0.5
5.848,-1.0093,-0.72394,-1.3219,-0.15735,-0.096131,-0.59772,1,8.3475,8.3475,0.5,0.5
5.8813,-1.145,-0.84315,-1.3347,0.41803,-0.29989,-2.5738,1,8.365,8.365,0.5,0.5
5.9104,-1.2553,-0.98477,-1.4424,-0.34233,-0.30886,-0.35111,1,8.3825,8.3825,0.5,0.5
5.9627,-1.4015,-1.1279,-1.574,2.204,-1.2328,-0.28144,1,8.4,8.4,0.5,0.5
6.0078,-1.527,-1.2724,-1.8602,2.7665,-3.8497,4.1342,1,8.4175,8.4175,0.5,0.5
6.076,-1.7141,-1.3964,-2.1801,7.7565,-6.6056,1.2361,1,8.435,8.435,0.5,0.5
6.1339,-1.8642,-1.5199,-2.6843,6.4402,-10.327,5.0746,1,8.4525,8.4525,0.5,0.5
6.1772,-1.9598,-1.6528,-3.3094,0.75873,-15.286,11.352,1,8.47,8.47,0.5,0.5
6.1697,-1.9012,-1.8072,-4.1221,-13.443,-23.232,26.02,1,8.4875,8.4875,0.5,0.5
6.1278,-1.7025,-1.9704,-5.0981,-25.824,-31.779,38.305,1,8.505,8.505,0.5,0.5
6.1014,-1.4292,-2.1029,-6.196,-26.321,-37.457,40.423,1,8.5225,8.5225,0.5,0.5
6.1396,-1.1482,-2.1576,-7.3933,-14.36,-39.283,34.374,1,8.54,8.54,0.5,0.5
6.2749,-0.93806,-2.096,-8.607,7.6732,-38.21,20.067,1,8.5575,8.5575,0.5,0.5
6.4714,-0.75955,-1.8978,-9.8033,26.217,-36.961,12.809,1,8.575,8.575,0.5,0.5
6.6854,-0.63171,-1.5755,-10.863,35.164,-37.305,8.88,1,8.5925,8.5925,0.5,0.5
6.8385,-0.50533,-1.1766,-11.621,34.047,-36.074,12.632,1,8.61,8.61,0.5,0.5
6.9245,-0.46901,-0.74872,-12.009,23.862,-36.021,12.307,1,8.6275,8.6275,0.5,0.5
6.9435,-0.52188,-0.36138,-12.061,11.5,-34.39,10.831,1,8.645,8.645,0.5,0.5
6.9359,-0.69255,-0.039835,-11.939,0.35323,-32.772,6.9354,1,8.6625,8.6625,0.5,0.5
6.9096,-0.92785,0.18755,-11.743,-6.0848,-29.753,5.2434,1,8.68,8.68,0.5,0.5
6.8737,-1.1894,0.33323,-11.596,-6.3614,-25.935,6.0486,1,8.6975,8.6975,0.5,0.5
6.816,-1.4284,0.42444,-11.535,-3.337,-23.111,11.636,1,8.715,8.715,0.5,0.5
6.7245,-1.6181,0.49526,-11.559,0.75137,-22.369,20.895,1,8.7325,8.7325,0.5,0.5
6.601,-1.768,0.5843,-11.677,6.3272,-23.761,27.867,1,8.75,8.75,0.5,0.5
6.4456,-1.8735,0.71482,-11.837,12.354,-26.491,32.303,1,8.7675,8.7675,0.5,0.5
6.3009,-1.9768,0.90388,-12.062,19.401,-28.475,31.453,1,8.785,8.785,0.5,0.5
6.1414,-2.0303,1.1287,-12.271,19.884,-25.962,31.277,1,8.8025,8.8025,0.5,0.5
6.002,-2.0679,1.3003,-12.478,14.176,-18.22,28.413,1,8.82,8.82,0.5,0.5
5.8583,-2.0467,1.37,-12.673,5.1347,-10.194,26.48,1,8.8375,8.8375,0.5,0.5
5.7509,-2.039,1.3296,-12.885,-2.2783,-5.1341,21.6,1,8.855,8.855,0.5,0.5
5.6655,-2.0111,1.2527,-13.131,-5.2786,-5.5785,18.89,1,8.8725,8.8725,0.5,0.5
5.6051,-1.9918,1.1596,-13.399,-5.89,-6.5395,17.448,1,8.89,8.89,0.5,0.5
5.5499,-1.9615,1.0831,-13.699,-6.7645,-7.2263,17.041,1,8.9075,8.9075,0.5,0.5
5.4886,-1.9213,1.0162,-14.026,-8.6403,-6.3361,15.586,1,8.925,8.925,0.5,0.5
5.4253,-1.8769,0.95026,-14.37,-10.531,-4.9993,14.039,1,8.9425,8.9425,0.5,0.5
5.3588,-1.7969,0.91646,-14.735,-11.568,-8.024,17.056,1,8.96,8.96,0.5,0.5
5.3022,-1.7332,0.87137,-15.093,-12.364,-8.6571,17.913,1,8.9775,8.9775,0.5,0.5
5.2481,-1.6294,0.87187,-15.464,-12.383,-13.071,22.957,1,8.995,8.995,0.5,0.5
5.1935,-1.5611,0.85045,-15.802,-13.723,-10.037,19.209,1,9.0125,9.0125,0.5,0.5
5.1404,-1.4512,0.88132,-16.129,-13.593,-10.794,19.707,1,9.03,9.03,0.5,0.5
5.0768,-1.3566,0.91472,-16.403,-12.651,-8.3974,17.08,1,9.0475,9.0475,0.5,0.5
5.0208,-1.2566,0.98284,-16.645,-5.9363,-10.673,21.166,1,9.065,9.065,0.5,0.5
4.9326,-1.1702,1.0853,-16.828,0.95994,-12.469,23.949,1,9.0825,9.0825,0.5,0.5
4.8221,-1.1167,1.22,-16.982,3.4881,-12.557,22.671,1,9.1,9.1,0.5,0.5
4.7273,-1.1483,1.2884,-17.164,0.14503,-0.10234,9.7469,1,9.1175,9.1175,0.5,0.5
4.7286,-1.3633,1.1672,-17.43,-6.286,22.181,-9.939,1,9.135,9.135,0.5,0.5
4.8673,-1.7567,0.86604,-17.867,-10.211,34.555,-16.398,1,9.1525,9.1525,0.5,0.5
4.9991,-2.0407,0.62409,-18.526,-11.4,29.789,-2.7742,1,9.17,9.17,0.5,0.5
4.915,-1.8486,0.83371,-19.175,-20.084,-0.93614,26.405,1,9.1875,9.1875,0.5,0.5
4.646,-1.5301,1.1042,-19.995,-29.277,-2.2083,25.042,1,9.205,9.205,0.5,0.5
4.303,-1.366,1.1339,-20.738,-38.35,12.157,8.8326,1,9.2225,9.2225,0.5,0.5
3.9846,-1.1932,0.99891,-21.59,-47.088,8.2915,12.241,1,9.24,9.24,0.5,0.5
3.7269,-1.1003,0.82802,-22.29,-57.777,5.3917,9.7901,1,9.2575,9.2575,0.5,0.5
3.5561,-1.0395,0.65641,-22.878,-67.232,2.7928,9.6204,1,9.275,9.275,0.5,0.5
3.4812,-1.0298,0.55623,-23.235,-73.719,-3.8404,9.3808,1,9.2925,9.2925,0.5,0.5
3.4952,-0.99656,0.57375,-23.389,-79.833,-12.846,12.41,1,9.31,9.31,0.5,0.5
3.587,-0.86672,0.75998,-23.353,-87.654,-23.089,19.465,1,9.3275,9.3275,0.5,0.5
3.7335,-0.59415,1.132,-23.137,-94.281,-30.583,29.262,1,9.345,9.345,0.5,0.5
3.9161,-0.12579,1.6005,-22.793,-90.659,-26.746,42.173,1,9.3625,9.3625,0.5,0.5
4.1687,0.49231,1.9935,-22.204,-65.878,-11.669,48.948,1,9.38,9.38,0.5,0.5
4.5043,1.1437,2.0763,-21.444,-25.491,16.594,52.283,1,9.3975,9.3975,0.5,0.5
4.9175,1.7752,1.9179,-20.46,1.6142,22.295,50.712,1,9.415,9.415,0.5,0.5
5.3688,2.2188,1.6138,-19.481,11.744,28.751,49.64,1,9.4325,9.4325,0.5,0.5
5.8181,2.5944,1.3185,-18.503,10.532,27.346,53.111,1,9.45,9.45,0.5,0.5
6.2431,2.8449,0.97063,-17.603,7.7764,35.038,50.37,1,9.4675,9.4675,0.5,0.5
6.5883,3.0943,0.57073,-16.689,5.7484,36.491,43.561,1,9.485,9.485,0.5,0.5
6.7908,3.2746,0.15198,-15.687,3.4248,29.416,27.595,1,9.5025,9.5025,0.5,0.5
6.8498,3.372,-0.20342,-14.636,1.5138,15.316,10.723,1,9.52,9.52,0.5,0.5
6.8111,3.307,-0.41263,-13.625,1.4266,-4.4409,-3.2616,1,9.5375,9.5375,0.5,0.5
6.7377,2.989,-0.38755,-12.743,2.5971,-27.94,-16.402,1,9.555,9.555,0.5,0.5
6.6719,2.582,-0.08877,-12.002,1.8738,-44.324,-17.331,1,9.5725,9.5725,0.5,0.5
6.5441,2.1857,0.1945,-11.193,-4.3487,-17.308,-12.294,1,9.59,9.59,0.5,0.5
6.3833,2.0215,0.17366,-10.517,-6.0248,4.9535,-1.4602,1,9.6075,9.6075,0.5,0.5
6.1775,1.959,-0.069062,-9.9149,-5.591,19.396,-0.082481,1,9.625,9.625,0.5,0.5
6.0147,1.9411,-0.079664,-9.3901,-4.0064,4.1344,1.5236,1,9.6425,9.6425,0.5,0.5
5.8359,1.8863,0.077277,-8.9768,-1.5689,1.1766,0.55394,1,9.66,9.66,0.5,0.5
5.69,1.8715,0.26178,-8.733,0.07575,7.9618,4.0758,1,9.6775,9.6775,0.5,0.5
5.4765,1.8302,0.10827,-8.6178,-0.066022,31.928,-0.52948,1,9.695,9.695,0.5,0.5
5.2342,1.751,-0.33694,-8.488,-2.0733,46.483,-5.352,1,9.7125,9.7125,0.5,0.5
5.0266,1.656,-0.83991,-8.3125,-3.4716,39.815,-5.9138,1,9.73,9.73,0.5,0.5
4.8803,1.5954,-1.2143,-8.1529,-3.7789,25.948,-4.33,1,9.7475,9.7475,0.5,0.5
4.7964,1.6221,-1.4045,-8.0771,-5.0862,16.74,-0.040973,1,9.765,9.765,0.5,0.5
4.6883,1.6833,-1.6185,-8.2155,-5.1768,22.228,-3.2652,1,9.7825,9.7825,0.5,0.5
4.564,1.7562,-2.0472,-8.5746,-4.9947,36.172,-10.74,1,9.8,9.8,0.5,0.5
4.4254,1.786,-2.8797,-9.5036,6.544,34.512,-53.94,1,9.8175,9.8175,0.5,0.5
4.3837,0.86897,-3.3331,-10.457,21.795,21.661,-101.63,1,9.835,9.835,0.5,0.5
4.3981,-0.56528,-3.7099,-10.925,27.087,23.297,-124.09,1,9.8525,9.8525,0.5,0.5
4.4647,-1.2251,-4.1839,-10.743,12.807,6.9456,-53.015,1,9.87,9.87,0.5,0.5
4.5061,-1.1297,-4.2276,-10.822,5.1361,-19.285,-1.2068,1,9.8875,9.8875,0.5,0.5
4.5151,-0.78069,-3.9135,-11.384,7.8264,-34.15,4.7314,1,9.905,9.905,0.5,0.5
4.521,-0.63407,-3.6905,-12.178,12.887,-27.791,-5.8797,1,9.9225,9.9225,0.5,0.5
4.5059,-0.69785,-3.6725,-13.094,16.013,-18.965,-10.694,1,9.94,9.94,0.5,0.5
4.4286,-0.73168,-3.6551,-14.163,18.571,-24.94,-7.4533,1,9.9575,9.9575,0.5,0.5
4.3048,-0.72315,-3.5876,-15.337,21.464,-31.654,-2.895,1,9.975,9.975,0.5,0.5
4.1693,-0.72187,-3.4537,-16.738,20.633,-37.153,-1.4715,1,9.9925,9.9925,0.5,0.5
3.9772,-0.58609,-3.3219,-18.253,23.31,-39.987,10.091,1,10.01,10.01,0.5,0.5
3.699,-0.2563,-3.135,-20.162,36.24,-45.459,22.437,1,10.028,10.028,0.5,0.5
3.4419,0.052218,-2.838,-22.023,49.037,-46.709,13.077,1,10.045,10.045,0.5,0.5
3.2663,0.23702,-2.5204,-24.006,57.668,-49.548,2.9441,1,10.062,10.062,0.5,0.5
3.22,0.25512,-2.1959,-25.818,59.73,-56.764,-7.6713,1,10.08,10.08,0.5,0.5
3.2405,0.26058,-1.8567,-27.731,69.537,-71.903,-10.448,1,10.097,10.097,0.5,0.5
3.3367,0.22144,-1.4391,-29.538,83.596,-91.234,-13.155,1,10.115,10.115,0.5,0.5
3.4747,0.14908,-0.91817,-31.108,98.032,-109.17,-15.378,1,10.132,10.132,0.5,0.5
3.6244,0.042138,-0.30703,-32.177,108.87,-121.39,-16.81,1,10.15,10.15,0.5,0.5
3.7833,-0.14105,0.34545,-32.334,109.16,-123.95,-21.015,1,10.167,10.167,0.5,0.5
3.8711,-0.24212,0.90582,-31.833,103.37,-115.45,-13.753,1,10.185,10.185,0.5,0.5
4.0004,-0.30813,1.3221,-30.465,86.461,-101.18,-7.5075,1,10.203,10.203,0.5,0.5
4.0281,-0.14317,1.5447,-29.246,67.441,-95.146,17.985,1,10.22,10.22,0.5,0.5
4.0826,0.24603,1.7849,-27.508,45.435,-92.497,37.935,1,10.238,10.238,0.5,0.5
3.9492,0.88545,2.0567,-25.697,31.411,-84.419,50.092,1,10.255,10.255,0.5,0.5
4.1742,1.2481,2.2406,-23.25,-2.1313,-39.796,5.4947,1,10.273,10.273,0.5,0.5
4.5211,1.029,1.8366,-21.292,-40.857,-0.5863,-21.448,1,10.29,10.29,0.5,0.5
4.8339,0.61962,1.1304,-20.036,-54.088,5.0309,-7.2955,1,10.307,10.307,0.5,0.5
4.9883,0.30256,0.61946,-19.094,-31.303,-9.9106,13.614,1,10.325,10.325,0.5,0.5
5.1291,0.19683,0.46836,-18.219,0.42734,-24.814,24.216,1,10.342,10.342,0.5,0.5
5.4125,0.24991,0.54035,-17.379,15.14,-31.502,27.261,1,10.36,10.36,0.5,0.5
5.7248,0.27155,0.67535,-16.621,22.452,-31.183,20.991,1,10.377,10.377,0.5,0.5
6.224,0.43857,0.7947,-16.166,27.436,-37.259,38.382,1,10.395,10.395,0.5,0.5
6.6253,0.51276,1.0207,-15.808,28.863,-36.395,40.155,1,10.413,10.413,0.5,0.5
7.049,0.66942,1.0561,-15.812,31.138,-61.446,44.371,1,10.43,10.43,0.5,0.5
7.2416,0.81895,1.4249,-15.688,26,-58.68,30.322,1,10.448,10.448,0.5,0.5
7.3849,0.93229,1.6667,-15.632,19.867,-59.279,18.107,1,10.465,10.465,0.5,0.5
7.3879,1.1248,1.9182,-15.549,12.181,-70.239,15.714,1,10.483,10.483,0.5,0.5
7.4127,1.283,2.1645,-15.382,15.369,-59.45,3.0752,1,10.5,10.5,0.5,0.5
7.466,1.3042,2.3663,-15.193,29.866,-52.747,-16.349,1,10.517,10.517,0.5,0.5
7.5863,1.0276,2.793,-14.862,33.633,-70.663,-41.094,1,10.535,10.535,0.5,0.5
7.5069,0.25278,3.3764,-14.214,15.423,-45.948,-59.933,1,10.552,10.552,0.5,0.5
6.8548,-0.79196,3.4478,-13.439,4.1544,47.508,-50.967,1,10.57,10.57,0.5,0.5
6.0234,-1.2895,2.8029,-13.023,27.373,60.391,-19.935,1,10.587,10.587,0.5,0.5
5.5471,-1.1774,2.3398,-12.896,27.799,7.3886,17.507,1,10.605,10.605,0.5,0.5
5.4269,-1.0802,2.1913,-12.321,30.608,26.75,-18.351,1,10.623,10.623,0.5,0.5
5.4098,-1.3633,1.6117,-12.074,28.841,42.102,-24.931,1,10.64,10.64,0.5,0.5
5.4986,-1.5918,0.60484,-11.808,5.8098,68.393,-11.252,1,10.658,10.658,0.5,0.5
5.5165,-1.7246,0.16985,-12.479,7.6831,30.4,-11.238,1,10.675,10.675,0.5,0.5
5.7053,-1.8415,-0.14543,-13.406,-1.1927,26.228,-11.451,1,10.693,10.693,0.5,0.5
5.9343,-1.8959,-0.68922,-14.935,-12.826,59.257,-7.2767,1,10.71,10.71,0.5,0.5
6.3359,-2.1466,-1.4687,-16.334,-26.205,85.877,-27.586,1,10.727,10.727,0.5,0.5
6.7594,-2.7386,-2.1718,-17.317,-44.257,86.357,-50.65,1,10.745,10.745,0.5,0.5
6.831,-3.4582,-2.6314,-18.148,-51.816,76.745,-35.11,1,10.762,10.762,0.5,0.5
6.4755,-3.7222,-2.8493,-18.834,-23.041,53.394,17.452,1,10.78,10.78,0.5,0.5
5.6869,-2.6965,-2.3226,-20.331,39.923,-32.619,109.02,1,10.797,10.797,0.5,0.5
5.1756,-1.4504,-1.4105,-21.216,38.72,-62.348,99.246,1,10.815,10.815,0.5,0.5
5.0205,-0.73489,-0.72916,-21.602,11.822,-40.443,44.284,1,10.833,10.833,0.5,0.5
5.0512,0.29984,-0.617,-21.125,20.733,-19.162,82.889,1,10.85,10.85,0.5,0.5
5.0709,1.1989,-0.72611,-20.307,20.88,-6.96,66.488,1,10.868,10.868,0.5,0.5
5.0463,1.6447,-0.90593,-19.345,10.542,-2.7326,23.941,1,10.885,10.885,0.5,0.5
4.9647,1.6873,-1.061,-18.622,5.7879,-1.9329,5.4615,1,10.903,10.903,0.5,0.5
4.8863,1.6093,-1.1959,-18.115,5.8944,-2.3128,4.481,1,10.92,10.92,0.5,0.5
4.8524,1.5638,-1.3206,-17.752,5.8087,-3.2965,6.9444,1,10.938,10.938,0.5,0.5
4.8581,1.5458,-1.4168,-17.49,4.6735,-4.8916,9.0882,1,10.955,10.955,0.5,0.5
4.8898,1.5428,-1.474,-17.266,3.211,-6.6394,9.2402,1,10.972,10.972,0.5,0.5
4.9424,1.5638,-1.5053,-17.085,1.9986,-7.4618,10.467,1,10.99,10.99,0.5,0.5
5.0174,1.6004,-1.5099,-16.895,1.4538,-8.2679,11.444,1,11.007,11.007,0.5,0.5
5.1207,1.6495,-1.4884,-16.727,-0.14526,-8.7661,12.445,1,11.025,11.025,0.5,0.5
5.2435,1.7092,-1.4403,-16.551,-0.43816,-9.4042,13.075,1,11.042,11.042,0.5,0.5
5.3831,1.7784,-1.3721,-16.405,-1.1019,-10.083,13.249,1,11.06,11.06,0.5,0.5
5.5248,1.862,-1.2953,-16.253,-0.14678,-10.539,14.776,1,11.078,11.078,0.5,0.5
5.6618,1.9558,-1.2083,-16.096,0.76636,-11.125,15.966,1,11.095,11.095,0.5,0.5
5.7744,2.0591,-1.1187,-15.902,0.96645,-11.768,17.118,1,11.113,11.113,0.5,0.5
5.8557,2.1603,-1.033,-15.63,0.70027,-12.388,17.709,1,11.13,11.13,0.5,0.5
5.8984,2.2516,-0.95819,-15.257,0.19627,-13.058,17.928,1,11.148,11.148,0.5,0.5
5.9018,2.3256,-0.89867,-14.772,-0.56347,-13.77,18.319,1,11.165,11.165,0.5,0.5
5.8754,2.3745,-0.85609,-14.185,-1.5342,-14.247,18.664,1,11.182,11.182,0.5,0.5
5.8177,2.4068,-0.84025,-13.555,-2.5344,-14.051,19.545,1,11.2,11.2,0.5,0.5
5.7569,2.4064,-0.85351,-12.876,-3.5845,-12.835,20.077,1,11.217,11.217,0.5,0.5
5.6861,2.3941,-0.92405,-12.251,-2.945,-10.394,21.031,1,11.235,11.235,0.5,0.5
5.6417,2.3337,-1.0155,-11.675,-4.0978,-10.706,21.284,1,11.252,11.252,0.5,0.5
5.5755,2.276,-1.1593,-11.253,-4.3383,-12.3,26.529,1,11.27,11.27,0.5,0.5
5.4823,2.2098,-1.3184,-11.002,-4.7563,-17.141,32.056,1,11.288,11.288,0.5,0.5
5.3463,2.1674,-1.4998,-10.981,0.64164,-23.139,38.067,1,11.305,11.305,0.5,0.5
5.1975,2.1141,-1.618,-11.186,11.717,-32.095,40.507,1,11.323,11.323,0.5,0.5
5.058,2.0397,-1.6086,-11.605,24.919,-43.236,40.765,1,11.34,11.34,0.5,0.5
4.9274,1.9602,-1.461,-12.157,35.523,-52.42,42.026,1,11.358,11.358,0.5,0.5
4.7955,1.9089,-1.2097,-12.716,40.768,-57.464,45.15,1,11.375,11.375,0.5,0.5
4.65,1.9454,-0.92449,-13.185,42.933,-60.127,50.712,1,11.392,11.392,0.5,0.5
4.4983,2.0677,-0.61364,-13.407,44.538,-61.378,54.215,1,11.41,11.41,0.5,0.5
4.3728,2.2437,-0.29472,-13.323,45.474,-62.766,54.382,1,11.427,11.427,0.5,0.5
4.277,2.4225,0.057796,-12.814,46.542,-62.008,48.624,1,11.445,11.445,0.5,0.5
4.2341,2.5243,0.39877,-11.961,44.727,-58.752,41.131,1,11.462,11.462,0.5,0.5
4.1811,2.5852,0.74492,-10.897,41.978,-54.816,32.499,1,11.48,11.48,0.5,0.5
4.1582,2.5534,1.0383,-9.6946,33.85,-46.525,24.735,1,11.498,11.498,0.5,0.5
4.1356,2.5105,1.235,-8.4813,23.475,-35.112,21.684,1,11.515,11.515,0.5,0.5
4.108,2.4405,1.29,-7.3281,9.3555,-24.66,25.165,1,11.533,11.533,0.5,0.5
3.9843,2.4407,1.2011,-6.2852,-5.8332,-17.016,36.897,1,11.55,11.55,0.5,0.5
3.6767,2.5907,0.98379,-5.3625,-18.818,-9.9691,49.239,1,11.568,11.568,0.5,0.5
3.2419,2.8216,0.6357,-4.5611,-25.834,-1.5603,47.02,1,11.585,11.585,0.5,0.5
2.815,3.0677,0.20664,-3.9555,-13.411,4.3984,26.391,1,11.602,11.602,0.5,0.5
2.5659,2.8491,-0.1608,-3.456,5.5043,2.2406,-12.32,1,11.62,11.62,0.5,0.5
2.5197,2.2324,-0.34657,-3.2555,13.506,-10.001,-35.784,1,11.637,11.637,0.5,0.5
2.4853,1.3494,-0.8248,-3.0896,8.7509,10.681,-29.404,1,11.655,11.655,0.5,0.5
2.4383,0.77482,-1.2404,-3.3568,1.3283,2.2526,-3.0052,1,11.672,11.672,0.5,0.5
2.3991,0.54584,-1.4898,-3.9488,-7.0753,-16.869,30.743,1,11.69,11.69,0.5,0.5
2.5003,0.85766,-1.2983,-4.669,-11.72,-46.105,69.63,1,11.708,11.708,0.5,0.5
2.7548,1.4196,-0.90181,-4.9479,-8.4631,-56.082,83.556,1,11.725,11.725,0.5,0.5
3.0619,1.9198,-0.57907,-4.7452,0.629,-40.727,65.892,1,11.743,11.743,0.5,0.5
3.2813,2.1607,-0.47816,-4.3699,8.0036,-18.301,36.066,1,11.76,11.76,0.5,0.5
3.3618,2.1326,-0.57294,-4.0553,9.7426,-3.6104,13.452,1,11.778,11.778,0.5,0.5
3.383,2.0465,-0.67311,-3.9069,9.5803,1.0478,4.2903,1,11.795,11.795,0.5,0.5
3.3907,1.9419,-0.75391,-3.7639,8.2733,1.8737,0.15111,1,11.812,11.812,0.5,0.5
3.4211,1.8849,-0.7984,-3.72,5.9812,1.6409,3.2893,1,11.83,11.83,0.5,0.5
3.4493,1.8362,-0.84128,-3.6058,2.9061,1.6609,3.2601,1,11.847,11.847,0.5,0.5
3.48,1.8032,-0.86835,-3.5202,1.264,0.64946,4.2602,1,11.865,11.865,0.5,0.5
3.5203,1.7246,-0.89654,-3.369,-0.71013,5.3834,-5.8568,1,11.882,11.882,0.5,0.5
3.6156,1.5832,-0.95635,-3.2469,-0.87784,10.424,-16.011,1,11.9,11.9,0.5,0.5
3.7599,1.3729,-1.0394,-3.1112,0.84045,13.247,-22.865,1,11.917,11.917,0.5,0.5
3.8885,1.1599,-1.1094,-2.9894,3.4918,9.0617,-18.396,1,11.935,11.935,0.5,0.5
3.9516,0.99042,-1.1278,-2.8804,6.5327,0.86309,-7.435,1,11.953,11.953,0.5,0.5
3.9504,0.86763,-1.0951,-2.7765,9.636,-5.0052,0.60639,1,11.97,11.97,0.5,0.5
3.9301,0.7739,-1.0429,-2.7101,12.942,-7.5795,5.3098,1,11.988,11.988,0.5,0.5
3.9478,0.68179,-0.98948,-2.676,16.834,-7.9412,7.6229,1,12.005,12.005,0.5,0.5
3.9854,0.64294,-0.96282,-2.6998,17.856,-8.8099,15.558,1,12.023,12.023,0.5,0.5
4.0451,0.69036,-0.94561,-2.7853,17.882,-11.915,26.199,1,12.04,12.04,0.5,0.5
4.1019,0.86302,-0.93009,-2.9277,17.718,-16.391,37.331,1,12.057,12.057,0.5,0.5
4.1606,1.13,-0.86805,-3.0241,17.962,-20.864,43.486,1,12.075,12.075,0.5,0.5
4.2138,1.4164,-0.76663,-2.9877,17.316,-23.452,43.642,1,12.092,12.092,0.5,0.5
4.2858,1.6788,-0.63808,-2.7833,16.024,-23.631,40.687,1,12.11,12.11,0.5,0.5
4.3665,1.8701,-0.49759,-2.4485,14.269,-21.149,34.169,1,12.127,12.127,0.5,0.5
4.4446,1.9752,-0.35933,-2.0401,12.165,-16.565,25.738,1,12.145,12.145,0.5,0.5
4.5127,1.9942,-0.23213,-1.6084,9.5178,-11.076,17.104,1,12.163,12.163,0.5,0.5
4.5736,1.9383,-0.12114,-1.1988,6.4907,-6.1143,9.0902,1,12.18,12.18,0.5,0.5
4.6438,1.8372,-0.0282,-0.84918,3.9959,-2.8327,3.0618,1,12.198,12.198,0.5,0.5
4.7259,1.7013,0.050678,-0.5713,2.3626,-1.0645,-1.5489,1,12.215,12.215,0.5,0.5
4.8155,1.5595,0.1077,-0.36781,2.1662,0.51252,-4.0977,1,12.233,12.233,0.5,0.5
4.9081,1.4095,0.15279,-0.22305,2.4726,1.2003,-5.3996,1,12.25,12.25,0.5,0.5
4.989,1.2747,0.18054,-0.12711,2.5725,1.7354,-5.7384,1,12.267,12.267,0.5,0.5
5.0549,1.1516,0.1939,-0.049374,3.6867,1.8397,-6.893,1,12.285,12.285,0.5,0.5
5.1045,1.0618,0.18834,0.032789,5.3363,2.0272,-7.3392,1,12.302,12.302,0.5,0.5
5.1477,1.0085,0.16463,0.12459,6.8707,2.1579,-8.3415,1,12.32,12.32,0.5,0.5
5.1953,0.98169,0.12383,0.21007,8.6487,2.1128,-10.743,1,12.337,12.337,0.5,0.5
5.2573,0.96922,0.069506,0.28896,10.527,1.7364,-13.656,1,12.355,12.355,0.5,0.5
5.3378,0.95511,0.011045,0.36049,12.272,0.90627,-17.083,1,12.373,12.373,0.5,0.5
5.4325,0.92817,-0.038465,0.40871,13.28,-0.34317,-21.079,1,12.39,12.39,0.5,0.5
5.5336,0.89278,-0.06784,0.43255,11.952,-1.7237,-23.345,1,12.408,12.408,0.5,0.5
5.6269,0.84815,-0.075204,0.45129,9.9246,-2.4219,-25.85,1,12.425,12.425,0.5,0.5
5.698,0.82113,-0.072519,0.46204,7.9397,-2.4568,-26.861,1,12.443,12.443,0.5,0.5
5.7525,0.81796,-0.059769,0.50262,6.2759,-2.8903,-30.691,1,12.46,12.46,0.5,0.5
5.7601,0.84518,-0.058511,0.53892,6.2088,-2.7276,-38.946,1,12.477,12.477,0.5,0.5
5.7306,0.8953,-0.070921,0.56061,7.1246,-2.4393,-48.82,1,12.495,12.495,0.5,0.5
5.6645,0.96197,-0.097351,0.57782,8.3649,-2.0086,-52.852,1,12.512,12.512,0.5,0.5
5.5881,1.052,-0.13789,0.5707,9.3092,-1.4747,-51.008,1,12.53,12.53,0.5,0.5
5.5239,1.1676,-0.18397,0.52624,9.3626,-1.0648,-42.861,1,12.547,12.547,0.5,0.5
5.4884,1.3128,-0.22598,0.4341,6.9896,-1.0976,-29.194,1,12.565,12.565,0.5,0.5
5.4929,1.4918,-0.2477,0.28651,1.3443,-2.0056,-13.264,1,12.583,12.583,0.5,0.5
5.538,1.7002,-0.22902,0.088848,-6.2094,-3.9786,2.0851,1,12.6,12.6,0.5,0.5
5.6127,1.932,-0.17426,-0.1581,-13.552,-6.1945,13.542,1,12.618,12.618,0.5,0.5
5.6706,2.1687,-0.096198,-0.45894,-15.101,-7.3203,10.599,1,12.635,12.635,0.5,0.5
5.7078,2.3869,-0.020296,-0.79542,-13.853,-7.6924,7.7145,1,12.653,12.653,0.5,0.5
5.7164,2.5756,0.042322,-1.1182,-9.5404,-7.237,1.5561,1,12.67,12.67,0.5,0.5
5.7281,2.7241,0.083609,-1.389,-4.6372,-6.8131,1.1326,1,12.688,12.688,0.5,0.5
5.7411,2.8287,0.11089,-1.6055,0.44331,-6.5374,0.62866,1,12.705,12.705,0.5,0.5
5.7529,2.8834,0.12662,-1.7643,5.9649,-6.5701,-0.14665,1,12.722,12.722,0.5,0.5
5.7595,2.8833,0.14413,-1.8607,10.605,-7.1823,-1.3947,1,12.74,12.74,0.5,0.5
5.7614,2.8295,0.16416,-1.8843,14.337,-8.0367,-2.1043,1,12.757,12.757,0.5,0.5
5.7598,2.7246,0.18467,-1.8319,17.491,-8.8629,-2.6396,1,12.775,12.775,0.5,0.5
5.7591,2.5694,0.20473,-1.7173,20.226,-9.7291,-3.4811,1,12.792,12.792,0.5,0.5
5.7677,2.3697,0.21787,-1.5628,23.509,-10.435,-2.5767,1,12.81,12.81,0.5,0.5
5.7732,2.1342,0.24323,-1.3807,25.955,-10.912,-3.5954,1,12.828,12.828,0.5,0.5
5.7971,1.8764,0.26942,-1.2007,26.907,-9.682,-4.5269,1,12.845,12.845,0.5,0.5
5.8377,1.6214,0.30122,-1.0325,23.929,-5.2699,-12.388,1,12.863,12.863,0.5,0.5
5.9567,1.3591,0.29208,-0.89121,19.017,0.75402,-21.317,1,12.88,12.88,0.5,0.5
6.1389,1.1,0.24925,-0.77573,13.925,5.626,-27.349,1,12.898,12.898,0.5,0.5
6.3567,0.84643,0.1805,-0.67424,9.7892,6.976,-28.121,1,12.915,12.915,0.5,0.5
6.5562,0.62242,0.11588,-0.58978,6.9303,5.4817,-24.102,1,12.932,12.932,0.5,0.5
6.703,0.4451,0.06969,-0.51275,4.7336,2.7547,-18.256,1,12.95,12.95,0.5,0.5
6.7943,0.31437,0.042067,-0.43763,3.1498,0.36415,-12.938,1,12.967,12.967,0.5,0.5
6.8428,0.21994,0.026964,-0.36366,2.2766,-1.0918,-8.9749,1,12.985,12.985,0.5,0.5
6.8637,0.14616,0.016055,-0.28545,1.7278,-2.098,-6.638,1,13.002,13.002,0.5,0.5
6.8673,0.078414,0.0087299,-0.20603,1.7428,-2.8771,-5.4995,1,13.02,13.02,0.5,0.5
6.8583,0.015303,0.0033157,-0.13002,1.544,-3.5426,-4.3893,1,13.038,13.038,0.5,0.5
6.8396,-0.053662,4.5143e-06,-0.050868,1.8565,-4.0815,-3.9505,1,13.055,13.055,0.5,0.5
6.8144,-0.12425,-0.0010796,0.023736,2.0171,-4.597,-3.4076,1,13.073,13.073,0.5,0.5
6.784,-0.20371,-0.0031596,0.10549,2.6491,-4.7802,-3.6267,1,13.09,13.09,0.5,0.5
6.7512,-0.28717,-0.0036469,0.18607,3.0751,-4.8294,-3.7538,1,13.108,13.108,0.5,0.5
6.7154,-0.37675,-0.0075236,0.27216,3.5194,-4.4003,-4.0874,1,13.125,13.125,0.5,0.5
6.6795,-0.46993,-0.012429,0.35816,3.6904,-4.0777,-4.1919,1,13.142,13.142,0.5,0.5
6.6428,-0.56576,-0.022189,0.44632,3.6896,-3.7608,-4.1614,1,13.16,13.16,0.5,0.5
6.6059,-0.66346,-0.0372,0.53663,3.5478,-3.5139,-4.1237,1,13.177,13.177,0.5,0.5
6.5684,-0.76031,-0.056593,0.62701,3.1809,-3.3203,-3.9051,1,13.195,13.195,0.5,0.5
6.5259,-0.85469,-0.086164,0.72362,2.8835,-2.3907,-3.6248,1,13.212,13.212,0.5,0.5
6.4835,-0.94647,-0.1154,0.81701,2.3283,-1.8285,-3.0901,1,13.23,13.23,0.5,0.5
6.4332,-1.0311,-0.15852,0.91548,1.9447,-0.39406,-2.1486,1,13.248,13.248,0.5,0.5
6.3895,-1.1219,-0.19313,1.0048,1.4372,-0.88037,-2.1131,1,13.265,13.265,0.5,0.5
6.3422,-1.2052,-0.24256,1.0865,1.1057,-0.67878,-1.7819,1,13.283,13.283,0.5,0.5
6.3077,-1.2989,-0.28209,1.1582,1.1486,-1.6218,-2.444,1,13.3,13.3,0.5,0.5
6.2765,-1.3816,-0.32364,1.2136,1.0741,-1.4991,-1.8426,1,13.318,13.318,0.5,0.5
6.2566,-1.4664,-0.34119,1.2599,1.7144,-2.1706,-1.2025,1,13.335,13.335,0.5,0.5
6.2347,-1.5388,-0.32443,1.2991,3.4599,-3.7809,0.88414,1,13.352,13.352,0.5,0.5
6.189,-1.5953,-0.26053,1.3494,5.6435,-6.4755,3.7846,1,13.37,13.37,0.5,0.5
6.0991,-1.6296,-0.15927,1.4271,6.8495,-9.4344,6.49,1,13.387,13.387,0.5,0.5
5.9511,-1.6293,-0.061529,1.5303,5.9392,-10.661,9.0346,1,13.405,13.405,0.5,0.5
5.7555,-1.6259,0.01202,1.6587,3.4814,-10.538,8.8773,1,13.422,13.422,0.5,0.5
5.5452,-1.617,0.01682,1.7778,2.0332,-7.7021,10.404,1,13.44,13.44,0.5,0.5
5.3289,-1.6548,0.0051899,1.8772,2.557,-6.7615,7.8878,1,13.458,13.458,0.5,0.5
5.1468,-1.7412,-0.023044,1.9389,5.0459,-5.2754,5.0724,1,13.475,13.475,0.5,0.5
4.9974,-1.9019,-0.036249,1.9533,2.6165,-1.579,-1.7283,1,13.493,13.493,0.5,0.5
4.9161,-2.0847,-0.1503,1.9365,-1.5704,4.3804,-4.3798,1,13.51,13.51,0.5,0.5
4.8676,-2.2506,-0.35153,1.8728,-3.7935,8.4337,-2.467,1,13.528,13.528,0.5,0.5
4.8044,-2.3516,-0.54376,1.7902,-2.1269,3.1867,5.4382,1,13.545,13.545,0.5,0.5
4.677,-2.3665,-0.64255,1.6784,0.73023,-5.2796,14.836,1,13.562,13.562,0.5,0.5
4.4849,-2.3042,-0.64895,1.5606,1.4132,-9.2982,20.956,1,13.58,13.58,0.5,0.5
4.2754,-2.1978,-0.64155,1.4554,0.026027,-7.7666,22.16,1,13.597,13.597,0.5,0.5
4.0927,-2.095,-0.69266,1.3264,-1.017,-1.8317,18.041,1,13.615,13.615,0.5,0.5
3.9616,-2.0222,-0.79024,1.2436,-0.7363,1.5375,13.187,1,13.632,13.632,0.5,0.5
3.8656,-2.0094,-0.91928,1.11,0.79222,3.5538,7.5456,1,13.65,13.65,0.5,0.5
3.8019,-2.0358,-1.0219,1.0331,2.1423,2.0104,5.3659,1,13.667,13.667,0.5,0.5
3.7442,-2.0959,-1.1129,0.88672,3.6883,0.27237,3.541,1,13.685,13.685,0.5,0.5
3.703,-2.1492,-1.1516,0.76703,5.717,-3.7134,3.5169,1,13.703,13.703,0.5,0.5
3.6688,-2.1883,-1.1603,0.61499,8.3899,-6.292,3.4471,1,13.72,13.72,0.5,0.5
3.6526,-2.1921,-1.1067,0.48939,11.502,-8.7596,4.3332,1,13.738,13.738,0.5,0.5
3.649,-2.1509,-1.0129,0.38444,14.037,-9.3656,6.0437,1,13.755,13.755,0.5,0.5
3.6574,-2.077,-0.88084,0.31596,15.288,-9.8898,6.9628,1,13.773,13.773,0.5,0.5
3.6781,-1.9887,-0.72633,0.28964,14.568,-11.44,6.0475,1,13.79,13.79,0.5,0.5
3.7095,-1.9126,-0.58525,0.27795,11.638,-12.825,3.0003,1,13.807,13.807,0.5,0.5
3.7681,-1.8823,-0.43237,0.30243,7.7018,-16.527,-1.8951,1,13.825,13.825,0.5,0.5
3.8595,-1.8783,-0.31405,0.30833,2.9951,-16.39,-3.6525,1,13.842,13.842,0.5,0.5
3.9865,-1.9419,-0.1453,0.34456,0.33885,-19.161,-5.142,1,13.86,13.86,0.5,0.5
4.1381,-1.9911,0.017849,0.34171,-0.87053,-17.296,-1.4363,1,13.877,13.877,0.5,0.5
4.2774,-2.0503,0.24608,0.35519,-0.062183,-21.463,-0.59091,1,13.895,13.895,0.5,0.5
4.4155,-2.0424,0.48141,0.34505,0.26347,-23.273,2.1428,1,13.913,13.913,0.5,0.5
4.5331,-1.9985,0.75431,0.34095,1.3644,-26.108,2.8767,1,13.93,13.93,0.5,0.5
4.645,-1.9057,1.0265,0.31974,1.8075,-24.198,3.8334,1,13.948,13.948,0.5,0.5
4.7428,-1.8352,1.2916,0.26984,1.2101,-19.877,0.51749,1,13.965,13.965,0.5,0.5
4.8413,-1.8841,1.5388,0.16638,-1.7424,-15.2,-9.3108,1,13.983,13.983,0.5,0.5
4.9625,-2.1135,1.735,-0.01856,-7.1283,-8.8159,-19.934,1,14,14,0.5,0.5
5.1028,-2.4982,1.848,-0.28167,-11.298,-0.93012,-24.421,1,14.017,14.017,0.5,0.5
5.2805,-2.8423,1.8023,-0.62533,-13.326,13.896,-19.329,1,14.035,14.035,0.5,0.5
5.4051,-3.0697,1.5021,-1.0024,-13.858,35.611,-8.5697,1,14.052,14.052,0.5,0.5
5.4374,-3.2255,0.981,-1.2763,-18.586,50.506,-5.9348,1,14.07,14.07,0.5,0.5
5.2881,-3.3211,0.28546,-1.2916,-20.424,58.401,0.24597,1,14.087,14.087,0.5,0.5
5.0132,-3.3802,-0.33218,-1.0013,-18.712,50.812,4.056,1,14.105,14.105,0.5,0.5
4.6456,-3.3619,-0.81434,-0.58529,-12.283,42.111,14.643,1,14.123,14.123,0.5,0.5
4.2376,-3.2255,-1.0559,-0.16879,-4.3829,27.52,21.063,1,14.14,14.14,0.5,0.5
3.8919,-3.0468,-1.0534,0.11578,1.6449,9.5562,17.373,1,14.158,14.158,0.5,0.5
3.7013,-2.9943,-0.82163,0.25102,3.5022,-4.5744,6.7589,1,14.175,14.175,0.5,0.5
3.6433,-3.0743,-0.52376,0.25963,1.4191,-8.2779,-0.35842,1,14.193,14.193,0.5,0.5
3.6186,-3.1365,-0.39318,0.18277,-1.4737,-1.707,1.6481,1,14.21,14.21,0.5,0.5
3.6113,-3.1612,-0.41075,0.12271,-2.4627,4.2969,3.2218,1,14.227,14.227,0.5,0.5
3.6679,-3.1826,-0.48277,0.0079022,-2.7719,2.6081,0.42163,1,14.245,14.245,0.5,0.5
3.751,-3.2048,-0.52678,-0.063437,-1.8035,1.268,0.2964,1,14.262,14.262,0.5,0.5
3.8574,-3.2176,-0.51627,-0.18977,-0.051651,-1.4233,1.2055,1,14.28,14.28,0.5,0.5
3.9495,-3.2279,-0.44494,-0.28726,2.6977,-4.8462,0.93366,1,14.297,14.297,0.5,0.5
4.0512,-3.2332,-0.31551,-0.43123,5.0044,-7.2246,0.99668,1,14.315,14.315,0.5,0.5
4.1478,-3.2313,-0.14883,-0.59033,5.9222,-7.5005,1.5534,1,14.333,14.333,0.5,0.5
4.2374,-3.2202,0.02481,-0.8014,6.1987,-3.6467,3.5296,1,14.35,14.35,0.5,0.5
4.2954,-3.1977,0.16244,-1.0549,5.1379,4.1024,5.8921,1,14.368,14.368,0.5,0.5
4.3099,-3.1783,0.22487,-1.3429,2.0668,13.91,6.7643,1,14.385,14.385,0.5,0.5
4.2933,-3.1839,0.19806,-1.6541,-2.5334,22.408,5.6478,1,14.403,14.403,0.5,0.5
4.2638,-3.2266,0.093609,-1.9491,-7.4554,26.444,3.7008,1,14.42,14.42,0.5,0.5
4.2424,-3.3067,-0.068396,-2.2346,-10.902,27.7,2.4623,1,14.438,14.438,0.5,0.5
4.2297,-3.3948,-0.25569,-2.4793,-12.067,26.036,3.048,1,14.455,14.455,0.5,0.5
4.2214,-3.4898,-0.45205,-2.7246,-13.43,24.022,2.9615,1,14.472,14.472,0.5,0.5
4.2193,-3.5582,-0.62927,-2.9403,-12.164,19.542,3.2925,1,14.49,14.49,0.5,0.5
4.2308,-3.6168,-0.74871,-3.1626,-8.9025,13.379,2.5527,1,14.507,14.507,0.5,0.5
4.2564,-3.6428,-0.7617,-3.3868,-2.2362,4.5237,3.7931,1,14.525,14.525,0.5,0.5
4.2827,-3.6574,-0.66543,-3.6447,3.096,-1.5598,5.1236,1,14.542,14.542,0.5,0.5
4.2955,-3.6656,-0.51456,-3.9394,3.6131,-2.5113,6.6967,1,14.56,14.56,0.5,0.5
4.2898,-3.6959,-0.3908,-4.2725,1.5953,1.1735,6.6306,1,14.578,14.578,0.5,0.5
4.2693,-3.7443,-0.32741,-4.6447,0.77101,6.0009,6.2825,1,14.595,14.595,0.5,0.5
4.236,-3.7671,-0.29903,-5.0436,2.3689,8.5063,9.2651,1,14.613,14.613,0.5,0.5
4.1832,-3.7505,-0.2861,-5.4546,3.9438,10.34,13.395,1,14.63,14.63,0.5,0.5
4.103,-3.6864,-0.29828,-5.8624,-1.9842,14.581,17.053,1,14.648,14.648,0.5,0.5
4.0037,-3.6496,-0.38546,-6.258,-8.7005,19.144,18.659,1,14.665,14.665,0.5,0.5
3.8966,-3.6396,-0.5521,-6.6693,-12.765,23.41,20.027,1,14.682,14.682,0.5,0.5
3.7985,-3.6465,-0.72176,-7.0833,-8.756,21.463,23.886,1,14.7,14.7,0.5,0.5
3.701,-3.6104,-0.86459,-7.5047,-3.3292,19.239,27.455,1,14.717,14.717,0.5,0.5
3.6026,-3.5358,-0.97019,-7.8959,0.78073,16.26,28.94,1,14.735,14.735,0.5,0.5
3.4962,-3.4188,-1.0543,-8.2592,3.9869,13.254,28.614,1,14.752,14.752,0.5,0.5
3.3887,-3.2917,-1.0968,-8.596,6.2416,8.6013,26.012,1,14.77,14.77,0.5,0.5
3.2881,-3.179,-1.0762,-8.9252,6.8698,2.1305,22.335,1,14.788,14.788,0.5,0.5
3.1994,-3.104,-1.0024,-9.2709,5.9896,-3.035,17.774,1,14.805,14.805,0.5,0.5
3.1218,-3.0898,-0.90533,-9.6426,4.8141,-4.9282,11.994,1,14.823,14.823,0.5,0.5
3.0365,-3.1014,-0.8068,-10.052,4.357,-6.3413,9.6068,1,14.84,14.84,0.5,0.5
2.9249,-3.1422,-0.7072,-10.5,4.5466,-7.1443,7.5235,1,14.858,14.858,0.5,0.5
2.7719,-3.166,-0.61482,-10.988,2.7986,-6.0827,9.0441,1,14.875,14.875,0.5,0.5
2.5951,-3.2598,-0.56205,-11.525,1.265,-4.0769,6.1316,1,14.892,14.892,0.5,0.5
2.4351,-3.4075,-0.5418,-12.126,0.51256,-2.1366,2.5443,1,14.91,14.91,0.5,0.5
2.3178,-3.5987,-0.52541,-12.791,0.085376,-2.2016,0.62996,1,14.927,14.927,0.5,0.5
2.2413,-3.7493,-0.51307,-13.511,-0.87013,-2.5266,2.6753,1,14.945,14.945,0.5,0.5
2.1805,-3.8176,-0.49728,-14.279,-2.4032,-3.2486,7.6738,1,14.962,14.962,0.5,0.5
2.1056,-3.8061,-0.46066,-15.074,-3.8624,-5.2211,11.364,1,14.98,14.98,0.5,0.5
1.9978,-3.7508,-0.39264,-15.899,-4.7661,-7.5271,12.347,1,14.998,14.998,0.5,0.5
1.8575,-3.6941,-0.30294,-16.764,-5.234,-8.4489,12.467,1,15.015,15.015,0.5,0.5
1.7008,-3.6439,-0.21611,-17.661,-5.6562,-7.999,12.934,1,15.033,15.033,0.5,0.5
1.548,-3.5815,-0.14876,-18.626,-6.2758,-7.167,16.207,1,15.05,15.05,0.5,0.5
1.4083,-3.4969,-0.0822,-19.599,-7.0385,-6.8462,18.516,1,15.068,15.068,0.5,0.5
1.2911,-3.3758,-0.0072801,-20.612,-7.6506,-6.7195,20.808,1,15.085,15.085,0.5,0.5
1.1932,-3.2269,0.075036,-21.577,-6.9776,-5.7813,22.066,1,15.102,15.102,0.5,0.5
1.1111,-3.052,0.14123,-22.527,-5.1688,-4.4387,23.449,1,15.12,15.12,0.5,0.5
1.0445,-2.8559,0.18381,-23.425,-2.7087,-3.1934,25.063,1,15.137,15.137,0.5,0.5
0.99897,-2.6345,0.20211,-24.286,-0.80784,-2.7821,27.344,1,15.155,15.155,0.5,0.5
0.98158,-2.386,0.20529,-25.086,0.2764,-3.0724,30.338,1,15.172,15.172,0.5,0.5
0.99586,-2.1086,0.19734,-25.812,0.89771,-3.5296,33.695,1,15.19,15.19,0.5,0.5
1.0389,-1.8036,0.17758,-26.452,1.6593,-3.9513,36.453,1,15.208,15.208,0.5,0.5
1.1026,-1.4784,0.14464,-26.985,3.0274,-4.3852,37.776,1,15.225,15.225,0.5,0.5
1.1805,-1.1386,0.092664,-27.419,4.7143,-4.8006,38.147,1,15.243,15.243,0.5,0.5
1.2665,-0.79236,0.02984,-27.74,6.4343,-5.6141,37.62,1,15.26,15.26,0.5,0.5
1.3588,-0.45026,-0.044024,-27.96,8.0961,-6.1201,37.127,1,15.278,15.278,0.5,0.5
1.4526,-0.11741,-0.10808,-28.064,9.3275,-7.3045,36.419,1,15.295,15.295,0.5,0.5
1.5456,0.19811,-0.15725,-28.076,10.064,-8.3656,35.881,1,15.312,15.312,0.5,0.5
1.6317,0.4948,-0.17696,-27.997,9.5792,-9.8621,36.426,1,15.33,15.33,0.5,0.5
1.7024,0.77277,-0.17212,-27.826,8.5159,-10.803,37.758,1,15.347,15.347,0.5,0.5
1.7455,1.0359,-0.14328,-27.566,7.1223,-11.409,39.139,1,15.365,15.365,0.5,0.5
1.7589,1.2937,-0.10261,-27.203,6.2782,-11.173,40.712,1,15.382,15.382,0.5,0.5
1.7436,1.5497,-0.053416,-26.731,6.2676,-10.419,41.718,1,15.4,15.4,0.5,0.5
1.7072,1.8007,0.006214,-26.147,6.7436,-9.7712,41.223,1,15.417,15.417,0.5,0.5
1.6677,2.0407,0.074068,-25.443,7.2342,-9.0159,39.223,1,15.435,15.435,0.5,0.5
1.6322,2.2531,0.16676,-24.659,5.7565,-9.4152,34.285,1,15.453,15.453,0.5,0.5
1.6281,2.4308,0.23416,-23.781,2.7668,-7.2692,29.298,1,15.47,15.47,0.5,0.5
1.644,2.5648,0.27767,-22.892,-1.7162,-5.3792,24.541,1,15.488,15.488,0.5,0.5
1.6847,2.6613,0.22326,-21.969,-3.1679,-0.52444,22.415,1,15.505,15.505,0.5,0.5
1.7103,2.7418,0.17475,-21.091,-1.1962,-0.428,21.02,1,15.523,15.523,0.5,0.5
1.7312,2.8101,0.15267,-20.223,2.6041,-1.6284,19.613,1,15.54,15.54,0.5,0.5
1.7392,2.8834,0.21133,-19.409,5.0919,-3.7358,18.24,1,15.557,15.557,0.5,0.5
1.7508,2.9542,0.28665,-18.618,3.6702,-1.771,16.235,1,15.575,15.575,0.5,0.5
1.7657,3.0196,0.30581,-17.863,-0.78777,4.7495,13.889,1,15.592,15.592,0.5,0.5
1.7851,3.0396,0.21464,-17.139,-6.8325,13.332,8.8642,1,15.61,15.61,0.5,0.5
1.8035,2.9656,-0.0067742,-16.42,-12.533,20.964,2.0135,1,15.627,15.627,0.5,0.5
1.759,2.8371,-0.28249,-15.757,-12.398,21.824,3.6735,1,15.645,15.645,0.5,0.5
1.6067,2.6993,-0.51617,-15.111,-4.7329,17.192,10.007,1,15.663,15.663,0.5,0.5
1.3152,2.6965,-0.48619,-14.57,2.8233,0.41086,18.298,1,15.68,15.68,0.5,0.5
1.0868,2.6021,-0.35931,-14.092,1.9397,-2.0639,9.7717,1,15.698,15.698,0.5,0.5
1.0001,2.417,-0.27217,-13.681,-2.8547,2.6433,2.1862,1,15.715,15.715,0.5,0.5
1.0049,2.2342,-0.23144,-13.319,-4.9571,3.7165,5.5864,1,15.733,15.733,0.5,0.5
1.0803,2.1449,-0.21291,-12.987,-4.7938,4.436,11.343,1,15.75,15.75,0.5,0.5
1.1962,2.1563,-0.21233,-12.679,-4.0568,5.3773,15.833,1,15.767,15.767,0.5,0.5
1.3192,2.2397,-0.23768,-12.383,-2.3439,6.1677,16.429,1,15.785,15.785,0.5,0.5
1.411,2.3447,-0.28075,-12.104,-0.10897,6.3406,13.028,1,15.802,15.802,0.5,0.5
1.4479,2.4336,-0.3228,-11.844,0.84173,5.748,8.1332,1,15.82,15.82,0.5,0.5
1.4368,2.5091,-0.34872,-11.58,-0.20701,4.42,3.9269,1,15.837,15.837,0.5,0.5
1.3948,2.5777,-0.3362,-11.312,-2.6639,1.4907,2.3927,1,15.855,15.855,0.5,0.5
1.3447,2.6463,-0.29182,-11.021,-4.4422,-0.16078,1.1745,1,15.873,15.873,0.5,0.5
1.3181,2.7071,-0.23138,-10.703,-5.7285,-1.499,0.52461,1,15.89,15.89,0.5,0.5
1.3375,2.7686,-0.16812,-10.351,-7.0821,-2.9679,0.29755,1,15.908,15.908,0.5,0.5
1.4055,2.8221,-0.11141,-9.9635,-8.2157,-3.5,-0.094336,1,15.925,15.925,0.5,0.5
1.5097,2.8736,-0.066832,-9.5671,-8.7175,-3.0747,-0.77501,1,15.943,15.943,0.5,0.5
1.6457,2.929,-0.032064,-9.1692,-8.7751,-2.3189,-0.93461,1,15.96,15.96,0.5,0.5
1.8033,2.992,-0.0028374,-8.7898,-8.2063,-1.6727,-1.0966,1,15.977,15.977,0.5,0.5
1.9776,3.0609,0.026509,-8.4399,-7.0796,-1.3461,-1.457,1,15.995,15.995,0.5,0.5
2.161,3.1353,0.056849,-8.1275,-5.0652,-1.0487,-1.6136,1,16.013,16.013,0.5,0.5
2.3438,3.213,0.086892,-7.8583,-1.8941,-0.54491,-1.6072,1,16.03,16.03,0.5,0.5
2.5263,3.2836,0.11936,-7.6241,1.7504,-0.28331,-1.7835,1,16.048,16.048,0.5,0.5
2.6951,3.3493,0.1482,-7.4252,6.4799,-0.055655,-1.6982,1,16.065,16.065,0.5,0.5
2.8566,3.3849,0.17064,-7.2383,11.587,-0.33814,-3.3964,1,16.083,16.083,0.5,0.5
2.9872,3.3984,0.17674,-7.0699,17.464,-0.57224,-4.7223,1,16.1,16.1,0.5,0.5
3.098,3.3643,0.16129,-6.8904,23.32,-0.49868,-7.5306,1,16.118,16.118,0.5,0.5
3.1829,3.3016,0.12992,-6.7134,28.49,0.18332,-8.7341,1,16.135,16.135,0.5,0.5
3.261,3.1974,0.078453,-6.5244,33.406,1.7552,-10.206,1,16.153,16.153,0.5,0.5
3.3365,3.0678,0.016219,-6.3322,37.721,3.7768,-10.871,1,16.17,16.17,0.5,0.5
3.4108,2.932,-0.048896,-6.1351,40.251,5.8791,-10.316,1,16.188,16.188,0.5,0.5
3.4762,2.8169,-0.1072,-5.9382,40.53,8.1188,-8.3066,1,16.205,16.205,0.5,0.5
3.5203,2.7494,-0.15485,-5.7416,39.202,10.681,-4.5825,1,16.222,16.222,0.5,0.5
3.5362,2.7364,-0.19829,-5.5328,37.159,13.441,-0.18711,1,16.24,16.24,0.5,0.5
3.5221,2.7658,-0.23886,-5.3216,35.038,15.788,3.0814,1,16.257,16.257,0.5,0.5
3.4876,2.8371,-0.28004,-5.0902,32.4,16.568,5.5827,1,16.275,16.275,0.5,0.5
3.4552,2.9047,-0.30385,-4.8555,27.799,14.857,4.7615,1,16.292,16.292,0.5,0.5
3.4418,2.9747,-0.30809,-4.6136,21.222,11.647,4.4994,1,16.31,16.31,0.5,0.5
3.4503,3.0004,-0.28608,-4.3872,13.621,7.8422,2.6061,1,16.327,16.327,0.5,0.5
3.4696,3.0119,-0.25145,-4.1911,6.392,4.6888,2.1725,1,16.345,16.345,0.5,0.5
3.495,2.997,-0.20944,-4.0162,0.82509,2.0916,0.7401,1,16.362,16.362,0.5,0.5
3.5206,2.9864,-0.17135,-3.866,-2.8548,0.39567,0.0020806,1,16.38,16.38,0.5,0.5
3.5464,2.9829,-0.14374,-3.7284,-4.342,-0.42942,-0.64397,1,16.397,16.397,0.5,0.5
3.5729,2.9866,-0.12924,-3.5983,-3.9267,-0.69971,-0.78336,1,16.415,16.415,0.5,0.5
3.5998,2.9972,-0.12786,-3.4771,-2.0229,-0.8069,-0.041171,1,16.433,16.433,0.5,0.5
3.6318,2.977,-0.13119,-3.3493,1.5915,-1.2524,-2.1481,1,16.45,16.45,0.5,0.5
3.6777,2.9189,-0.12373,-3.2216,5.2495,-1.9243,-4.9422,1,16.468,16.468,0.5,0.5
3.7527,2.7785,-0.097932,-3.0791,10.569,-2.3909,-13.776,1,16.485,16.485,0.5,0.5
3.8764,2.5921,-0.020493,-2.9248,11.271,-2.797,-15.349,1,16.503,16.503,0.5,0.5
4.0258,2.424,0.075703,-2.7895,8.7379,-2.3175,-11.705,1,16.52,16.52,0.5,0.5
4.164,2.3533,0.16606,-2.6863,2.3981,0.12557,0.072412,1,16.538,16.538,0.5,0.5
4.2725,2.385,0.2048,-2.6166,-3.7617,3.316,10.888,1,16.555,16.555,0.5,0.5
4.3459,2.4922,0.19346,-2.5416,-7.7108,5.9031,18.052,1,16.573,16.573,0.5,0.5
4.3936,2.633,0.15121,-2.4445,-9.5688,6.6155,20.591,1,16.59,16.59,0.5,0.5
4.4226,2.7735,0.1033,-2.3115,-9.8483,5.5426,20.111,1,16.608,16.608,0.5,0.5
4.4377,2.8978,0.070973,-2.1388,-9.3824,3.5431,18.71,1,16.625,16.625,0.5,0.5
4.4488,3.0007,0.059776,-1.94,-8.9438,1.4917,16.874,1,16.642,16.642,0.5,0.5
4.4635,3.0774,0.063475,-1.7186,-7.8806,0.65732,15.725,1,16.66,16.66,0.5,0.5
4.4832,3.1253,0.084839,-1.4928,-6.236,0.20679,13.622,1,16.677,16.677,0.5,0.5
4.5074,3.1228,0.10355,-1.2695,-3.6478,0.9202,10.766,1,16.695,16.695,0.5,0.5
4.525,3.081,0.1512,-1.0598,-1.5265,-0.31421,7.8295,1,16.712,16.712,0.5,0.5
4.5486,2.9848,0.18687,-0.87182,-1.9486,-0.02863,2.9467,1,16.73,16.73,0.5,0.5
4.5846,2.8534,0.22309,-0.71383,-4.5681,-0.23212,-1.4971,1,16.747,16.747,0.5,0.5
4.6405,2.6793,0.22455,-0.58843,-8.4114,1.2859,-6.1599,1,16.765,16.765,0.5,0.5
4.7079,2.4916,0.22245,-0.48879,-9.9245,1.8081,-8.5305,1,16.782,16.782,0.5,0.5
4.7785,2.315,0.23826,-0.41359,-8.8087,1.1551,-8.2653,1,16.8,16.8,0.5,0.5
4.8473,2.1764,0.28417,-0.35908,-6.0878,0.11794,-5.8843,1,16.817,16.817,0.5,0.5
4.9114,2.0955,0.35388,-0.31901,-3.467,-0.77866,-2.1655,1,16.835,16.835,0.5,0.5
4.9694,2.0655,0.40364,-0.28969,-3.6823,0.16857,1.1148,1,16.853,16.853,0.5,0.5
5.01,2.0883,0.41866,-0.25186,-5.145,1.613,5.0228,1,16.87,16.87,0.5,0.5
5.017,2.1444,0.39356,-0.20148,-8.7923,2.4834,8.2241,1,16.888,16.888,0.5,0.5
4.9797,2.2515,0.34551,-0.13203,-10.459,3.1066,12.214,1,16.905,16.905,0.5,0.5
4.9021,2.3761,0.29306,-0.040711,-10.348,3.4067,13.773,1,16.923,16.923,0.5,0.5
4.8134,2.4744,0.24541,0.076017,-7.5051,3.1033,11.909,1,16.94,16.94,0.5,0.5
4.7192,2.5157,0.22221,0.20153,-4.2769,2.0366,8.0823,1,16.958,16.958,0.5,0.5
4.6357,2.4843,0.22502,0.33246,-1.6653,0.71732,3.4513,1,16.975,16.975,0.5,0.5
4.5578,2.4036,0.24595,0.44532,-0.49119,0.21354,-0.24835,1,16.993,16.993,0.5,0.5
4.4994,2.2702,0.27077,0.54106,-0.37748,0.3498,-4.2395,1,17.01,17.01,0.5,0.5
4.4786,2.0726,0.29335,0.61758,-0.19152,0.29828,-9.0854,1,17.028,17.028,0.5,0.5
4.4903,1.8297,0.32496,0.6592,0.61922,-0.47698,-11.113,1,17.045,17.045,0.5,0.5
4.5157,1.5807,0.38023,0.6815,1.8508,-2.2841,-7.4872,1,17.062,17.062,0.5,0.5
4.5033,1.4172,0.45912,0.65456,2.5902,-3.1769,-1.1287,1,17.08,17.08,0.5,0.5
4.4581,1.3359,0.54767,0.62956,2.217,-3.3179,3.4078,1,17.097,17.097,0.5,0.5
4.4229,1.2863,0.62671,0.56282,1.5408,-2.1513,1.2247,1,17.115,17.115,0.5,0.5
4.414,1.2254,0.68905,0.51262,0.031456,-0.53504,-0.22206,1,17.132,17.132,0.5,0.5
4.426,1.1608,0.7245,0.43684,-2.1531,1.8201,-0.69168,1,17.15,17.15,0.5,0.5
4.4427,1.1019,0.73058,0.37356,-5.0237,4.1053,-0.25089,1,17.167,17.167,0.5,0.5
4.4588,1.0542,0.70958,0.30481,-8.1364,6.2692,0.18805,1,17.185,17.185,0.5,0.5
4.4707,1.015,0.66827,0.23937,-11.161,8.2085,0.096792,1,17.202,17.202,0.5,0.5
4.4784,0.9775,0.61459,0.18019,-13.868,9.8037,-0.65436,1,17.22,17.22,0.5,0.5
4.4839,0.93402,0.55571,0.1225,-16.022,10.897,-2.0568,1,17.237,17.237,0.5,0.5
4.4873,0.87644,0.49843,0.083586,-17.311,11.087,-3.8745,1,17.255,17.255,0.5,0.5
4.4913,0.80177,0.45123,0.053006,-17.204,10.249,-5.5791,1,17.272,17.272,0.5,0.5
4.4944,0.71849,0.41976,0.045353,-15.909,8.6335,-6.2029,1,17.29,17.29,0.5,0.5
4.5014,0.63206,0.41151,0.040908,-12.718,6.4908,-5.7104,1,17.308,17.308,0.5,0.5
4.5112,0.56875,0.42275,0.045891,-8.2812,4.4525,-3.7167,1,17.325,17.325,0.5,0.5
4.5245,0.5355,0.44556,0.043585,-2.4846,3.2408,-1.1527,1,17.343,17.343,0.5,0.5
4.5365,0.54972,0.47081,0.040905,3.2372,2.7024,1.7659,1,17.36,17.36,0.5,0.5
4.5454,0.60449,0.49265,0.029982,7.9663,2.6478,4.2883,1,17.378,17.378,0.5,0.5
4.5506,0.69066,0.5112,0.01682,11.164,2.4244,6.1234,1,17.395,17.395,0.5,0.5
4.554,0.7916,0.52853,0.0022881,12.952,1.8594,7.241,1,17.413,17.413,0.5,0.5
4.5583,0.89433,0.54779,-0.012249,13.852,1.093,7.8082,1,17.43,17.43,0.5,0.5
4.5655,0.99431,0.57101,-0.021077,14.359,0.29643,7.9359,1,17.448,17.448,0.5,0.5
4.5776,1.0857,0.597,-0.026308,14.846,-0.13392,7.4937,1,17.465,17.465,0.5,0.5
4.5944,1.1754,0.62925,-0.017366,15.164,-0.45858,6.9005,1,17.483,17.483,0.5,0.5
4.6179,1.2577,0.6643,0.0040174,15.22,-0.39539,5.523,1,17.5,17.5,0.5,0.5
