<?xml version="1.0" encoding="UTF-8" standalone="no"?>
<!-- Created with Inkscape (http://www.inkscape.org/) -->

<svg
   xmlns:dc="http://purl.org/dc/elements/1.1/"
   xmlns:cc="http://creativecommons.org/ns#"
   xmlns:rdf="http://www.w3.org/1999/02/22-rdf-syntax-ns#"
   xmlns:svg="http://www.w3.org/2000/svg"
   xmlns="http://www.w3.org/2000/svg"
   xmlns:sodipodi="http://sodipodi.sourceforge.net/DTD/sodipodi-0.dtd"
   xmlns:inkscape="http://www.inkscape.org/namespaces/inkscape"
   width="202.39923mm"
   height="60.812794mm"
   viewBox="0 0 717.16263 215.4784"
   id="svg2"
   version="1.1"
   inkscape:version="0.91 r13725"
   sodipodi:docname="Duran.svg">
  <defs
     id="defs4">
    <marker
       inkscape:stockid="Arrow1Mend"
       orient="auto"
       refY="0"
       refX="0"
       id="marker5496"
       style="overflow:visible"
       inkscape:isstock="true">
      <path
         id="path5498"
         d="M 0,0 5,-5 -12.5,0 5,5 0,0 Z"
         style="fill:#00ffff;fill-opacity:1;fill-rule:evenodd;stroke:#000000;stroke-width:1pt;stroke-opacity:1"
         transform="matrix(-0.4,0,0,-0.4,-4,0)"
         inkscape:connector-curvature="0" />
    </marker>
    <marker
       inkscape:isstock="true"
       style="overflow:visible"
       id="marker5314"
       refX="0"
       refY="0"
       orient="auto"
       inkscape:stockid="Arrow1Mend"
       inkscape:collect="always">
      <path
         transform="matrix(-0.4,0,0,-0.4,-4,0)"
         style="fill:#ffd5d5;fill-opacity:1;fill-rule:evenodd;stroke:#000000;stroke-width:1pt;stroke-opacity:1"
         d="M 0,0 5,-5 -12.5,0 5,5 0,0 Z"
         id="path5316"
         inkscape:connector-curvature="0" />
    </marker>
    <marker
       inkscape:isstock="true"
       style="overflow:visible"
       id="marker4684"
       refX="0"
       refY="0"
       orient="auto"
       inkscape:stockid="StopL">
      <path
         transform="scale(0.8,0.8)"
         style="fill:none;fill-opacity:0.75;fill-rule:evenodd;stroke:#000000;stroke-width:1pt;stroke-opacity:1"
         d="M 0,5.65 0,-5.65"
         id="path4686"
         inkscape:connector-curvature="0" />
    </marker>
    <marker
       inkscape:isstock="true"
       style="overflow:visible"
       id="marker4656"
       refX="0"
       refY="0"
       orient="auto"
       inkscape:stockid="StopL">
      <path
         transform="scale(0.8,0.8)"
         style="fill:none;fill-opacity:0.75;fill-rule:evenodd;stroke:#000000;stroke-width:1pt;stroke-opacity:1"
         d="M 0,5.65 0,-5.65"
         id="path4658"
         inkscape:connector-curvature="0" />
    </marker>
    <marker
       inkscape:stockid="StopL"
       orient="auto"
       refY="0"
       refX="0"
       id="StopL"
       style="overflow:visible"
       inkscape:isstock="true"
       inkscape:collect="always">
      <path
         id="path4325"
         d="M 0,5.65 0,-5.65"
         style="fill:none;fill-opacity:0.75;fill-rule:evenodd;stroke:#000000;stroke-width:1pt;stroke-opacity:1"
         transform="scale(0.8,0.8)"
         inkscape:connector-curvature="0" />
    </marker>
    <marker
       inkscape:stockid="Arrow1Mend"
       orient="auto"
       refY="0"
       refX="0"
       id="Arrow1Mend"
       style="overflow:visible"
       inkscape:isstock="true"
       inkscape:collect="always">
      <path
         id="path4165"
         d="M 0,0 5,-5 -12.5,0 5,5 0,0 Z"
         style="fill:#000000;fill-opacity:1;fill-rule:evenodd;stroke:#000000;stroke-width:1pt;stroke-opacity:1"
         transform="matrix(-0.4,0,0,-0.4,-4,0)"
         inkscape:connector-curvature="0" />
    </marker>
  </defs>
  <sodipodi:namedview
     id="base"
     pagecolor="#ffffff"
     bordercolor="#666666"
     borderopacity="1.0"
     inkscape:pageopacity="0.0"
     inkscape:pageshadow="2"
     inkscape:zoom="0.7"
     inkscape:cx="69.511739"
     inkscape:cy="201.79563"
     inkscape:document-units="px"
     inkscape:current-layer="layer1"
     showgrid="false"
     inkscape:window-width="1920"
     inkscape:window-height="1031"
     inkscape:window-x="0"
     inkscape:window-y="1"
     inkscape:window-maximized="1"
     fit-margin-top="0"
     fit-margin-left="0"
     fit-margin-right="0"
     fit-margin-bottom="0" />
  <metadata
     id="metadata7">
    <rdf:RDF>
      <cc:Work
         rdf:about="">
        <dc:format>image/svg+xml</dc:format>
        <dc:type
           rdf:resource="http://purl.org/dc/dcmitype/StillImage" />
        <dc:title></dc:title>
      </cc:Work>
    </rdf:RDF>
  </metadata>
  <g
     inkscape:label="Layer 1"
     inkscape:groupmode="layer"
     id="layer1"
     transform="translate(46.931471,-125.42691)">
    <g
       id="g4142">
      <path
         style="fill:#f3f3f3;fill-opacity:1;stroke:#e4e4e4;stroke-width:1px;stroke-linecap:butt;stroke-linejoin:miter;stroke-opacity:1"
         d="m 669.73114,323.77766 c 0,0 -118.67219,-15.80158 -165.66502,-28.28427 -46.99283,-12.48269 -71.75017,-42.34171 -116.16754,-42.42641 -44.41737,-0.0847 -97.44837,38.8383 -134.35029,48.48732 -36.90192,9.64902 -92.93403,8.08122 -92.93403,8.08122 l 0,-168.43091 c 0,0 56.03211,-1.5678 92.93403,8.08122 36.90192,9.64902 89.93292,48.57199 134.35029,48.48732 44.41737,-0.0847 69.17471,-29.94372 116.16754,-42.42641 46.99283,-12.48269 165.66502,-28.28427 165.66502,-28.28427 z"
         id="path4138"
         inkscape:connector-curvature="0"
         sodipodi:nodetypes="czzzcczzzcc" />
      <path
         sodipodi:nodetypes="czzzcczzzc"
         inkscape:connector-curvature="0"
         id="path4140"
         d="m 160.61426,141.20461 c 0,0 56.03211,-1.5678 92.93403,8.08122 36.90192,9.64902 89.93292,48.57199 134.35029,48.48732 44.41737,-0.0847 69.17471,-29.94372 116.16754,-42.42641 46.99283,-12.48269 165.66502,-28.28427 165.66502,-28.28427 m 0,196.71519 c 0,0 -118.67219,-15.80158 -165.66502,-28.28427 -46.99283,-12.48269 -71.75017,-42.34171 -116.16754,-42.42641 -44.41737,-0.0847 -97.44837,38.8383 -134.35029,48.48732 -36.90192,9.64902 -92.93403,8.08122 -92.93403,8.08122"
         style="fill:none;fill-opacity:1;stroke:#000000;stroke-width:3.29999995;stroke-linecap:butt;stroke-linejoin:miter;stroke-miterlimit:4;stroke-dasharray:none;stroke-opacity:1" />
    </g>
    <path
       style="fill:none;stroke:#000000;stroke-width:3;stroke-linecap:butt;stroke-linejoin:miter;stroke-miterlimit:4;stroke-dasharray:none;stroke-opacity:1"
       d="m 44.794493,225.87773 c 0,0 13.88526,-17.37755 23.918193,0 10.032934,17.37754 21.104289,-0.17587 21.104289,-0.17587 0,0 13.885255,-17.55342 23.918195,-0.17587 10.03293,17.37754 21.10428,0 21.10428,0"
       id="path4146"
       inkscape:connector-curvature="0"
       sodipodi:nodetypes="czczc" />
    <path
       style="fill:none;stroke:#000000;stroke-width:2;stroke-linecap:butt;stroke-linejoin:miter;stroke-miterlimit:4;stroke-dasharray:none;stroke-opacity:1;marker-end:url(#Arrow1Mend)"
       d="m 133.94546,208.74996 58.08378,0"
       id="path4150"
       inkscape:connector-curvature="0" />
    <text
       xml:space="preserve"
       style="font-style:normal;font-weight:normal;font-size:25px;line-height:100%;font-family:sans-serif;letter-spacing:0px;word-spacing:0px;fill:#000000;fill-opacity:1;stroke:none;stroke-width:1px;stroke-linecap:butt;stroke-linejoin:miter;stroke-opacity:1"
       x="24.243662"
       y="266.46353"
       id="text4504"
       sodipodi:linespacing="100%"><tspan
         sodipodi:role="line"
         id="tspan4506"
         x="24.243662"
         y="266.46353"
         style="fill:#800000">acoustic</tspan><tspan
         sodipodi:role="line"
         x="24.243662"
         y="291.46353"
         id="tspan4508"
         style="fill:#800000">entropy</tspan><tspan
         sodipodi:role="line"
         x="24.243662"
         y="316.46353"
         id="tspan4510">vorticity</tspan></text>
    <path
       style="fill:none;stroke:#000000;stroke-width:1px;stroke-linecap:butt;stroke-linejoin:miter;stroke-opacity:1;marker-start:url(#StopL);marker-end:url(#StopL)"
       d="m 56.272676,203.77279 46.467024,0"
       id="path4524"
       inkscape:connector-curvature="0" />
    <path
       inkscape:connector-curvature="0"
       id="path4654"
       d="m 30.220472,215.18214 0,18.78845"
       style="fill:none;stroke:#000000;stroke-width:1px;stroke-linecap:butt;stroke-linejoin:miter;stroke-opacity:1;marker-start:url(#marker4656);marker-end:url(#marker4684)"
       sodipodi:nodetypes="cc" />
    <text
       xml:space="preserve"
       style="font-style:normal;font-weight:normal;font-size:14.72837257px;line-height:1000%;font-family:sans-serif;letter-spacing:0px;word-spacing:0px;fill:#000000;fill-opacity:1;stroke:none;stroke-width:1px;stroke-linecap:butt;stroke-linejoin:miter;stroke-opacity:1"
       x="-47.816036"
       y="228.87552"
       id="text5282"
       sodipodi:linespacing="1000%"><tspan
         sodipodi:role="line"
         id="tspan5284"
         x="-47.816036"
         y="228.87552">amplitude</tspan></text>
    <text
       sodipodi:linespacing="1000%"
       id="text5286"
       y="194.41122"
       x="36.82682"
       style="font-style:normal;font-weight:normal;font-size:14.72837257px;line-height:1000%;font-family:sans-serif;letter-spacing:0px;word-spacing:0px;fill:#000000;fill-opacity:1;stroke:none;stroke-width:1px;stroke-linecap:butt;stroke-linejoin:miter;stroke-opacity:1"
       xml:space="preserve"><tspan
         y="194.41122"
         x="36.82682"
         id="tspan5288"
         sodipodi:role="line">wavelength</tspan></text>
    <text
       xml:space="preserve"
       style="font-style:normal;font-weight:normal;font-size:25px;line-height:1000%;font-family:sans-serif;letter-spacing:0px;word-spacing:0px;fill:#b3b3b3;fill-opacity:1;stroke:none;stroke-width:1px;stroke-linecap:butt;stroke-linejoin:miter;stroke-opacity:1"
       x="213.1422"
       y="340.20465"
       id="text5290"
       sodipodi:linespacing="1000%"><tspan
         sodipodi:role="line"
         id="tspan5292"
         x="213.1422"
         y="340.20465">Reflected</tspan></text>
    <text
       xml:space="preserve"
       style="font-style:normal;font-weight:normal;font-size:25px;line-height:1000%;font-family:sans-serif;letter-spacing:0px;word-spacing:0px;fill:#b3b3b3;fill-opacity:1;stroke:none;stroke-width:1px;stroke-linecap:butt;stroke-linejoin:miter;stroke-opacity:1"
       x="424.49686"
       y="340.5513"
       id="text5294"
       sodipodi:linespacing="1000%"><tspan
         sodipodi:role="line"
         id="tspan5296"
         x="424.49686"
         y="340.5513">Transmitted</tspan></text>
    <path
       sodipodi:nodetypes="czczc"
       inkscape:connector-curvature="0"
       id="path5310"
       d="m 272.108,243.82825 c 0,0 13.88526,-17.37755 23.91819,0 10.03294,17.37754 21.10429,-0.17587 21.10429,-0.17587 0,0 13.88526,-17.55342 23.9182,-0.17587 10.03293,17.37754 21.10428,0 21.10428,0"
       style="fill:#00ffff;stroke:#000000;stroke-width:3;stroke-linecap:butt;stroke-linejoin:miter;stroke-miterlimit:4;stroke-dasharray:none;stroke-opacity:1" />
    <path
       inkscape:connector-curvature="0"
       id="path5312"
       d="m 306.40105,261.27789 -58.08378,0"
       style="fill:#00ffff;stroke:#000000;stroke-width:2;stroke-linecap:butt;stroke-linejoin:miter;stroke-miterlimit:4;stroke-dasharray:none;stroke-opacity:1;marker-end:url(#marker5496)" />
    <path
       style="fill:#ffaaaa;stroke:#000000;stroke-width:4.13441753;stroke-linecap:butt;stroke-linejoin:miter;stroke-miterlimit:4;stroke-dasharray:none;stroke-opacity:1"
       d="m 533.81271,221.91856 c 0,0 -19.13582,23.94869 -32.9626,0 -13.82679,-23.94866 -29.08465,0.24238 -29.08465,0.24238 0,0 -19.13582,24.19105 -32.96261,0.24237 -13.82677,-23.94867 -29.08463,0 -29.08463,0"
       id="path5372"
       inkscape:connector-curvature="0"
       sodipodi:nodetypes="czczc" />
    <path
       style="fill:#ffd5d5;stroke:#000000;stroke-width:2;stroke-linecap:butt;stroke-linejoin:miter;stroke-miterlimit:4;stroke-dasharray:none;stroke-opacity:1;marker-end:url(#marker5314)"
       d="m 492.54961,264.30835 58.08378,0"
       id="path5374"
       inkscape:connector-curvature="0" />
    <path
       sodipodi:nodetypes="czczc"
       inkscape:connector-curvature="0"
       id="path5376"
       d="m 136.71838,224.86758 c 0,0 13.88526,-17.37755 23.91819,0 10.03293,17.37754 21.10429,-0.17587 21.10429,-0.17587 0,0 13.88525,-17.55342 23.91819,-0.17587 10.03293,17.37754 21.10428,0 21.10428,0"
       style="fill:none;stroke:#818181;stroke-width:0.69999999;stroke-linecap:butt;stroke-linejoin:miter;stroke-miterlimit:4;stroke-dasharray:none;stroke-opacity:1" />
    <path
       style="fill:none;stroke:#818181;stroke-width:0.69999999;stroke-linecap:butt;stroke-linejoin:miter;stroke-miterlimit:4;stroke-dasharray:none;stroke-opacity:1"
       d="m 226.62196,223.85743 c 0,0 13.88526,-17.37755 23.91819,0 10.03293,17.37754 21.10429,-0.17587 21.10429,-0.17587 0,0 13.88525,-17.55342 23.91819,-0.17587 10.03293,17.37754 21.10428,0 21.10428,0"
       id="path5378"
       inkscape:connector-curvature="0"
       sodipodi:nodetypes="czczc" />
    <path
       sodipodi:nodetypes="czczc"
       inkscape:connector-curvature="0"
       id="path5380"
       d="m 316.52554,223.85743 c 0,0 13.88526,-17.37755 23.91819,0 10.03293,17.37754 21.10429,-0.17587 21.10429,-0.17587 0,0 13.88525,-17.55342 23.91819,-0.17587 10.03293,17.37754 21.10428,0 21.10428,0"
       style="fill:none;stroke:#818181;stroke-width:0.69999999;stroke-linecap:butt;stroke-linejoin:miter;stroke-miterlimit:4;stroke-dasharray:none;stroke-opacity:1" />
    <path
       sodipodi:nodetypes="czczc"
       inkscape:connector-curvature="0"
       id="path5566"
       d="m 658.06147,221.91856 c 0,0 -19.13582,23.94869 -32.9626,0 -13.82679,-23.94866 -29.08465,0.24238 -29.08465,0.24238 0,0 -19.13582,24.19105 -32.96261,0.24237 -13.82677,-23.94867 -29.08463,0 -29.08463,0"
       style="fill:#ffaaaa;stroke:#000000;stroke-width:4.13441753;stroke-linecap:butt;stroke-linejoin:miter;stroke-miterlimit:4;stroke-dasharray:none;stroke-opacity:1" />
    <path
       style="fill:#00ffff;stroke:#000000;stroke-width:3;stroke-linecap:butt;stroke-linejoin:miter;stroke-miterlimit:4;stroke-dasharray:none;stroke-opacity:1"
       d="m 181.95188,244.08079 c 0,0 13.88526,-17.37755 23.91819,0 10.03294,17.37754 21.10429,-0.17587 21.10429,-0.17587 0,0 13.88526,-17.55342 23.9182,-0.17587 10.03293,17.37754 21.10428,0 21.10428,0"
       id="path5568"
       inkscape:connector-curvature="0"
       sodipodi:nodetypes="czczc" />
    <rect
       style="opacity:0.544;fill:#cccccc;fill-opacity:1;stroke:#818181;stroke-width:0.79974544;stroke-linecap:round;stroke-linejoin:round;stroke-miterlimit:4;stroke-dasharray:none;stroke-dashoffset:0;stroke-opacity:1"
       id="rect5589"
       width="35.998341"
       height="52.680729"
       x="374.31882"
       y="198.16222" />
    <text
       sodipodi:linespacing="1000%"
       id="text5591"
       y="171.26559"
       x="346.63971"
       style="font-style:normal;font-weight:normal;font-size:25px;line-height:1000%;font-family:sans-serif;letter-spacing:0px;word-spacing:0px;fill:#b3b3b3;fill-opacity:1;stroke:none;stroke-width:1px;stroke-linecap:butt;stroke-linejoin:miter;stroke-opacity:1"
       xml:space="preserve"><tspan
         y="171.26559"
         x="346.63971"
         id="tspan5593"
         sodipodi:role="line"
         style="fill:#000000">throat</tspan></text>
  </g>
</svg>
