<?xml version="1.0" encoding="UTF-8" standalone="no"?>
<!-- Created with Inkscape (http://www.inkscape.org/) -->

<svg
   xmlns:dc="http://purl.org/dc/elements/1.1/"
   xmlns:cc="http://creativecommons.org/ns#"
   xmlns:rdf="http://www.w3.org/1999/02/22-rdf-syntax-ns#"
   xmlns:svg="http://www.w3.org/2000/svg"
   xmlns="http://www.w3.org/2000/svg"
   xmlns:sodipodi="http://sodipodi.sourceforge.net/DTD/sodipodi-0.dtd"
   xmlns:inkscape="http://www.inkscape.org/namespaces/inkscape"
   width="192.89282mm"
   height="174.97537mm"
   viewBox="0 0 683.4785 619.99147"
   id="svg2"
   version="1.1"
   inkscape:version="0.91 r13725"
   sodipodi:docname="mechanism.svg">
  <defs
     id="defs4">
    <marker
       inkscape:isstock="true"
       style="overflow:visible"
       id="marker5082"
       refX="0"
       refY="0"
       orient="auto"
       inkscape:stockid="Arrow1Lend">
      <path
         transform="matrix(-0.8,0,0,-0.8,-10,0)"
         style="fill:#000000;fill-opacity:1;fill-rule:evenodd;stroke:#000000;stroke-width:1pt;stroke-opacity:1"
         d="M 0,0 5,-5 -12.5,0 5,5 0,0 Z"
         id="path5084"
         inkscape:connector-curvature="0" />
    </marker>
    <marker
       inkscape:stockid="Arrow1Lend"
       orient="auto"
       refY="0"
       refX="0"
       id="Arrow1Lend"
       style="overflow:visible"
       inkscape:isstock="true"
       inkscape:collect="always">
      <path
         id="path4151"
         d="M 0,0 5,-5 -12.5,0 5,5 0,0 Z"
         style="fill:#000000;fill-opacity:1;fill-rule:evenodd;stroke:#000000;stroke-width:1pt;stroke-opacity:1"
         transform="matrix(-0.8,0,0,-0.8,-10,0)"
         inkscape:connector-curvature="0" />
    </marker>
    <marker
       inkscape:stockid="Arrow1Lstart"
       orient="auto"
       refY="0"
       refX="0"
       id="Arrow1Lstart"
       style="overflow:visible"
       inkscape:isstock="true">
      <path
         id="path4148"
         d="M 0,0 5,-5 -12.5,0 5,5 0,0 Z"
         style="fill:#000000;fill-opacity:1;fill-rule:evenodd;stroke:#000000;stroke-width:1pt;stroke-opacity:1"
         transform="matrix(0.8,0,0,0.8,10,0)"
         inkscape:connector-curvature="0" />
    </marker>
    <marker
       inkscape:stockid="Arrow1Mstart"
       orient="auto"
       refY="0"
       refX="0"
       id="Arrow1Mstart"
       style="overflow:visible"
       inkscape:isstock="true">
      <path
         id="path4154"
         d="M 0,0 5,-5 -12.5,0 5,5 0,0 Z"
         style="fill:#000000;fill-opacity:1;fill-rule:evenodd;stroke:#000000;stroke-width:1pt;stroke-opacity:1"
         transform="matrix(0.4,0,0,0.4,4,0)"
         inkscape:connector-curvature="0" />
    </marker>
    <marker
       inkscape:stockid="Arrow1Mend"
       orient="auto"
       refY="0"
       refX="0"
       id="Arrow1Mend"
       style="overflow:visible"
       inkscape:isstock="true">
      <path
         id="path4157"
         d="M 0,0 5,-5 -12.5,0 5,5 0,0 Z"
         style="fill:#000080;fill-opacity:1;fill-rule:evenodd;stroke:#042173;stroke-width:1pt;stroke-opacity:1"
         transform="matrix(-0.4,0,0,-0.4,-4,0)"
         inkscape:connector-curvature="0" />
    </marker>
  </defs>
  <sodipodi:namedview
     id="base"
     pagecolor="#ffffff"
     bordercolor="#666666"
     borderopacity="1.0"
     inkscape:pageopacity="0.0"
     inkscape:pageshadow="2"
     inkscape:zoom="2.0997967"
     inkscape:cx="268.2182"
     inkscape:cy="432.9997"
     inkscape:document-units="px"
     inkscape:current-layer="layer1"
     showgrid="false"
     inkscape:window-width="1440"
     inkscape:window-height="856"
     inkscape:window-x="0"
     inkscape:window-y="1"
     inkscape:window-maximized="0"
     fit-margin-top="0"
     fit-margin-left="0"
     fit-margin-right="0"
     fit-margin-bottom="0" />
  <metadata
     id="metadata7">
    <rdf:RDF>
      <cc:Work
         rdf:about="">
        <dc:format>image/svg+xml</dc:format>
        <dc:type
           rdf:resource="http://purl.org/dc/dcmitype/StillImage" />
        <dc:title></dc:title>
      </cc:Work>
    </rdf:RDF>
  </metadata>
  <g
     inkscape:label="Layer 1"
     inkscape:groupmode="layer"
     id="layer1"
     transform="translate(-61.669922,-5.3441683)">
    <path
       style="fill:#f9f9f9;stroke:#000000;stroke-width:1px;stroke-linecap:butt;stroke-linejoin:miter;stroke-opacity:1"
       d="m 145.46197,56.351796 74.75128,56.568544 147.48228,0 0,-38.385799 375.77674,0 0,-68.6903727 -600.03061,0 z"
       id="path4138"
       inkscape:connector-curvature="0" />
    <path
       inkscape:connector-curvature="0"
       id="path4140"
       d="m 143.44166,308.88993 74.75128,-56.56854 147.48228,0 0,38.3858 375.77674,0 0,68.69037 -600.03061,0 z"
       style="fill:#f9f9f9;stroke:#000000;stroke-width:1px;stroke-linecap:butt;stroke-linejoin:miter;stroke-opacity:1" />
    <path
       style="fill:none;stroke:#000000;stroke-width:2.06160736;stroke-linecap:butt;stroke-linejoin:miter;stroke-miterlimit:4;stroke-dasharray:none;stroke-opacity:1;marker-start:url(#Arrow1Lstart);marker-end:url(#Arrow1Lend)"
       d="m 112.13557,381.13836 0,216.96461 611.73161,0"
       id="path4142"
       inkscape:connector-curvature="0" />
    <text
       xml:space="preserve"
       style="font-style:normal;font-weight:normal;font-size:25px;line-height:1000%;font-family:sans-serif;letter-spacing:0px;word-spacing:0px;fill:#000000;fill-opacity:1;stroke:none;stroke-width:1px;stroke-linecap:butt;stroke-linejoin:miter;stroke-opacity:1"
       x="59.399414"
       y="451.03305"
       id="text4538"
       sodipodi:linespacing="1000%"><tspan
         sodipodi:role="line"
         id="tspan4540"
         x="59.399414"
         y="451.03305">p/p</tspan></text>
    <path
       sodipodi:nodetypes="czzzcczzzcc"
       inkscape:connector-curvature="0"
       id="path5060"
       d="m 744.48242,213.32062 c 0,0 -296.94324,2.48442 -343.45187,0 -46.50863,-2.48442 -78.82116,3.86599 -112.66084,3.59399 -33.83968,-0.272 -55.65618,-8.86238 -89.36968,-7.63459 -33.7135,1.22779 -113.137069,-2.02031 -113.137069,-2.02031 l 0,-50.90282 c 0,0 79.423569,-3.2481 113.137069,-2.02031 33.7135,1.22779 55.05376,-4.50517 88.89344,-4.77717 33.83968,-0.272 66.62845,3.22099 113.13708,0.73657 46.50863,-2.48442 343.45187,0 343.45187,0 z"
       style="fill:#e6e6e6;stroke:none;stroke-width:1px;stroke-linecap:butt;stroke-linejoin:miter;stroke-opacity:1" />
    <text
       xml:space="preserve"
       style="font-style:normal;font-weight:normal;font-size:25px;line-height:1000%;font-family:sans-serif;letter-spacing:0px;word-spacing:0px;fill:#000000;fill-opacity:1;stroke:none;stroke-width:1px;stroke-linecap:butt;stroke-linejoin:miter;stroke-opacity:1"
       x="-199.31415"
       y="111.29943"
       id="text5062"
       sodipodi:linespacing="1000%"
       transform="matrix(0,-1,1,0,0,0)"><tspan
         sodipodi:role="line"
         id="tspan5064"
         x="-199.31415"
         y="111.29943">jet</tspan></text>
    <path
       style="fill:none;stroke:#000000;stroke-width:1px;stroke-linecap:butt;stroke-linejoin:miter;stroke-opacity:1"
       d="m 85.862961,156.35689 c 0,0 79.423569,-3.2481 113.137069,-2.02031 33.7135,1.22779 56.48247,-4.26705 90.32215,-4.53905 33.83968,-0.272 65.19974,2.98287 111.70837,0.49845 46.50863,-2.48442 343.45187,0 343.45187,0 m 0,63.02464 c 0,0 -296.94324,2.48442 -343.45187,0 -46.50863,-2.48442 -77.39245,4.10411 -111.23213,3.83211 -33.83968,-0.272 -57.08489,-9.1005 -90.79839,-7.87271 -33.7135,1.22779 -113.137069,-2.02031 -113.137069,-2.02031"
       id="path5066"
       inkscape:connector-curvature="0"
       sodipodi:nodetypes="czzzcczzzc" />
    <text
       sodipodi:linespacing="100%"
       id="text5068"
       y="-3.7172327"
       x="75.709534"
       style="font-style:normal;font-weight:normal;font-size:25px;line-height:100%;font-family:sans-serif;letter-spacing:0px;word-spacing:0px;fill:#000080;fill-opacity:1;stroke:none;stroke-width:1px;stroke-linecap:butt;stroke-linejoin:miter;stroke-opacity:1"
       xml:space="preserve"
       transform="matrix(0.81853009,0.57446366,-0.57446366,0.81853009,0,0)"><tspan
         y="-3.7172327"
         x="75.709534"
         id="tspan5070"
         sodipodi:role="line">entrained</tspan><tspan
         y="21.282768"
         x="75.709534"
         sodipodi:role="line"
         id="tspan5072" /></text>
    <path
       style="fill:#000080;stroke:#042173;stroke-width:3;stroke-linecap:butt;stroke-linejoin:miter;stroke-miterlimit:4;stroke-dasharray:none;stroke-opacity:1;marker-end:url(#Arrow1Mend)"
       d="M 72.730983,62.41271 151.52288,117.9711"
       id="path5074"
       inkscape:connector-curvature="0" />
    <path
       style="fill:none;stroke:#000000;stroke-width:0;stroke-linecap:butt;stroke-linejoin:miter;stroke-miterlimit:4;stroke-dasharray:none;stroke-dashoffset:0;stroke-opacity:1"
       d="M 83.514028,129.66689 745.14841,101.0927"
       id="path5194"
       inkscape:connector-curvature="0"
       sodipodi:nodetypes="cc" />
    <path
       style="fill:#ff0000;stroke:#ff0000;stroke-width:3;stroke-linecap:butt;stroke-linejoin:miter;stroke-miterlimit:4;stroke-dasharray:3, 9;stroke-dashoffset:0;stroke-opacity:1"
       d="m 84.770111,128.46324 657.206479,0"
       id="path5215"
       inkscape:connector-curvature="0" />
    <text
       xml:space="preserve"
       style="font-style:normal;font-weight:normal;font-size:25px;line-height:1000%;font-family:sans-serif;letter-spacing:0px;word-spacing:0px;fill:#ff0000;fill-opacity:1;stroke:none;stroke-width:1px;stroke-linecap:butt;stroke-linejoin:miter;stroke-opacity:1"
       x="648.63422"
       y="119.89098"
       id="text5217"
       sodipodi:linespacing="1000%"><tspan
         sodipodi:role="line"
         id="tspan5219"
         x="648.63422"
         y="119.89098">1</tspan></text>
    <path
       inkscape:connector-curvature="0"
       id="path5221"
       d="m 117.1542,182.75421 627.67981,0"
       style="fill:#ff0000;stroke:#0012ff;stroke-width:3;stroke-linecap:butt;stroke-linejoin:miter;stroke-miterlimit:4;stroke-dasharray:3, 9;stroke-dashoffset:0;stroke-opacity:1"
       sodipodi:nodetypes="cc" />
    <text
       sodipodi:linespacing="1000%"
       id="text5223"
       y="174.18196"
       x="649.77875"
       style="font-style:normal;font-weight:normal;font-size:25px;line-height:1000%;font-family:sans-serif;letter-spacing:0px;word-spacing:0px;fill:#0000ff;fill-opacity:1;stroke:none;stroke-width:1px;stroke-linecap:butt;stroke-linejoin:miter;stroke-opacity:1"
       xml:space="preserve"><tspan
         y="174.18196"
         x="649.77875"
         id="tspan5225"
         sodipodi:role="line">2</tspan></text>
    <path
       style="fill:none;stroke:#ff0000;stroke-width:2;stroke-linecap:butt;stroke-linejoin:miter;stroke-miterlimit:4;stroke-dasharray:none;stroke-opacity:1"
       d="m 111.43936,422.77745 c 52.38603,15.23957 118.9698,146.65416 180.01743,147.63334 61.04763,0.97918 101.82766,-49.33984 168.58775,-67.6256 66.76009,-18.28575 245.73807,-31.4316 245.73807,-31.4316"
       id="path5227"
       inkscape:connector-curvature="0"
       sodipodi:nodetypes="czzc" />
    <path
       sodipodi:nodetypes="czzc"
       inkscape:connector-curvature="0"
       id="path5229"
       d="m 111.35975,422.51753 c 52.40135,10.0856 118.99511,96.08983 180.06059,96.73785 61.06548,0.64803 59.9486,-9.7939 126.72821,-21.89548 66.7796,-12.10156 283.90384,-25.87213 283.90384,-25.87213"
       style="fill:none;stroke:#1805ff;stroke-width:2;stroke-linecap:butt;stroke-linejoin:miter;stroke-miterlimit:4;stroke-dasharray:none;stroke-opacity:1" />
    <text
       sodipodi:linespacing="1000%"
       id="text5231"
       y="535.16931"
       x="429.5654"
       style="font-style:normal;font-weight:normal;font-size:25px;line-height:1000%;font-family:sans-serif;letter-spacing:0px;word-spacing:0px;fill:#ff0000;fill-opacity:1;stroke:none;stroke-width:1px;stroke-linecap:butt;stroke-linejoin:miter;stroke-opacity:1"
       xml:space="preserve"><tspan
         y="535.16931"
         x="429.5654"
         id="tspan5233"
         sodipodi:role="line">1</tspan></text>
    <text
       xml:space="preserve"
       style="font-style:normal;font-weight:normal;font-size:25px;line-height:1000%;font-family:sans-serif;letter-spacing:0px;word-spacing:0px;fill:#0000ff;fill-opacity:1;stroke:none;stroke-width:1px;stroke-linecap:butt;stroke-linejoin:miter;stroke-opacity:1"
       x="423.09015"
       y="487.54562"
       id="text5235"
       sodipodi:linespacing="1000%"><tspan
         sodipodi:role="line"
         id="tspan5237"
         x="423.09015"
         y="487.54562">2</tspan></text>
    <text
       xml:space="preserve"
       style="font-style:normal;font-weight:normal;font-size:15.47526836px;line-height:1000%;font-family:sans-serif;letter-spacing:0px;word-spacing:0px;fill:#000000;fill-opacity:1;stroke:none;stroke-width:1px;stroke-linecap:butt;stroke-linejoin:miter;stroke-opacity:1"
       x="453.52417"
       y="-92.530174"
       id="text5239"
       sodipodi:linespacing="1000%"
       transform="matrix(0,1,-1,0,0,0)"><tspan
         sodipodi:role="line"
         id="tspan5241"
         x="453.52417"
         y="-92.530174">8</tspan></text>
    <path
       style="fill:none;stroke:#000000;stroke-width:1;stroke-linecap:butt;stroke-linejoin:miter;stroke-miterlimit:4;stroke-dasharray:1, 2;stroke-dashoffset:0;stroke-opacity:1"
       d="m 220.0213,111.31872 0,487.66626"
       id="path5351"
       inkscape:connector-curvature="0" />
    <path
       inkscape:connector-curvature="0"
       id="path5353"
       d="m 364.79722,112.27119 0,487.66626"
       style="fill:none;stroke:#000000;stroke-width:1;stroke-linecap:butt;stroke-linejoin:miter;stroke-miterlimit:4;stroke-dasharray:1, 2;stroke-dashoffset:0;stroke-opacity:1" />
    <path
       style="fill:none;stroke:#000000;stroke-width:1;stroke-linecap:butt;stroke-linejoin:miter;stroke-miterlimit:4;stroke-dasharray:1, 2;stroke-dashoffset:0;stroke-opacity:1"
       d="m 646.72928,76.07721 -0.95247,520.05035"
       id="path5355"
       inkscape:connector-curvature="0"
       sodipodi:nodetypes="cc" />
    <text
       xml:space="preserve"
       style="font-style:normal;font-weight:normal;font-size:16.46496391px;line-height:100%;font-family:sans-serif;letter-spacing:0px;word-spacing:0px;fill:#000000;fill-opacity:1;stroke:none;stroke-width:1px;stroke-linecap:butt;stroke-linejoin:miter;stroke-opacity:1"
       x="376.75641"
       y="575.61841"
       id="text5357"
       sodipodi:linespacing="100%"><tspan
         sodipodi:role="line"
         id="tspan5359"
         x="376.75641"
         y="575.61841">Pressure </tspan><tspan
         sodipodi:role="line"
         x="376.75641"
         y="592.08337"
         id="tspan5367">recovery</tspan></text>
    <text
       sodipodi:linespacing="100%"
       id="text5361"
       y="573.35181"
       x="115.76184"
       style="font-style:normal;font-weight:normal;font-size:16.46496391px;line-height:100%;font-family:sans-serif;letter-spacing:0px;word-spacing:0px;fill:#000000;fill-opacity:1;stroke:none;stroke-width:1px;stroke-linecap:butt;stroke-linejoin:miter;stroke-opacity:1"
       xml:space="preserve"><tspan
         y="573.35181"
         x="115.76184"
         id="tspan5363"
         sodipodi:role="line">Bypass </tspan><tspan
         y="589.81677"
         x="115.76184"
         sodipodi:role="line"
         id="tspan5365">accelaration</tspan></text>
    <text
       sodipodi:linespacing="100%"
       id="text5369"
       y="401.27441"
       x="229.60641"
       style="font-style:normal;font-weight:normal;font-size:15.75290012px;line-height:100%;font-family:sans-serif;letter-spacing:0px;word-spacing:0px;fill:#000000;fill-opacity:1;stroke:none;stroke-width:1px;stroke-linecap:butt;stroke-linejoin:miter;stroke-opacity:1"
       xml:space="preserve"
       transform="scale(0.95675279,1.0452021)"><tspan
         id="tspan5373"
         y="401.27441"
         x="229.60641"
         sodipodi:role="line">Compound flow</tspan><tspan
         y="417.02731"
         x="229.60641"
         sodipodi:role="line"
         id="tspan5377">pressure difference</tspan></text>
    <text
       sodipodi:linespacing="1000%"
       id="text5379"
       y="625.33563"
       x="663.2674"
       style="font-style:normal;font-weight:normal;font-size:25px;line-height:1000%;font-family:sans-serif;letter-spacing:0px;word-spacing:0px;fill:#000000;fill-opacity:1;stroke:none;stroke-width:1px;stroke-linecap:butt;stroke-linejoin:miter;stroke-opacity:1"
       xml:space="preserve"><tspan
         y="625.33563"
         x="663.2674"
         id="tspan5381"
         sodipodi:role="line">x</tspan></text>
  </g>
</svg>
