<?xml version="1.0"?>
<VTKFile type="PUnstructuredGrid" version="0.1" byte_order="LittleEndian">
<PUnstructuredGrid GhostLevel="0">
<PPoints> 
<PDataArray type="Float64" NumberOfComponents="3"/> 
</PPoints>
<PCells>
<PDataArray type="Int32" Name="connectivity" NumberOfComponents="1"/>
<PDataArray type="Int32" Name="offsets"      NumberOfComponents="1"/>
<PDataArray type="UInt8" Name="types"        NumberOfComponents="1"/>
</PCells>
<PPointData Scalars="Material">
<PDataArray type="Float64" Name="u"/>
<PDataArray type="Float64" Name="v"/>
<PDataArray type="Float64" Name="w"/>
<PDataArray type="Float64" Name="p"/>
</PPointData>
<Piece Source="nxs12_999-plane_vtu/P0000000.vtu"/>
<Piece Source="nxs12_999-plane_vtu/P0000001.vtu"/>
<Piece Source="nxs12_999-plane_vtu/P0000002.vtu"/>
<Piece Source="nxs12_999-plane_vtu/P0000003.vtu"/>
<Piece Source="nxs12_999-plane_vtu/P0000004.vtu"/>
<Piece Source="nxs12_999-plane_vtu/P0000005.vtu"/>
<Piece Source="nxs12_999-plane_vtu/P0000006.vtu"/>
<Piece Source="nxs12_999-plane_vtu/P0000007.vtu"/>
<Piece Source="nxs12_999-plane_vtu/P0000008.vtu"/>
<Piece Source="nxs12_999-plane_vtu/P0000009.vtu"/>
<Piece Source="nxs12_999-plane_vtu/P0000010.vtu"/>
<Piece Source="nxs12_999-plane_vtu/P0000011.vtu"/>
<Piece Source="nxs12_999-plane_vtu/P0000012.vtu"/>
<Piece Source="nxs12_999-plane_vtu/P0000013.vtu"/>
<Piece Source="nxs12_999-plane_vtu/P0000014.vtu"/>
<Piece Source="nxs12_999-plane_vtu/P0000015.vtu"/>
<Piece Source="nxs12_999-plane_vtu/P0000016.vtu"/>
<Piece Source="nxs12_999-plane_vtu/P0000017.vtu"/>
<Piece Source="nxs12_999-plane_vtu/P0000018.vtu"/>
<Piece Source="nxs12_999-plane_vtu/P0000019.vtu"/>
<Piece Source="nxs12_999-plane_vtu/P0000020.vtu"/>
<Piece Source="nxs12_999-plane_vtu/P0000021.vtu"/>
<Piece Source="nxs12_999-plane_vtu/P0000022.vtu"/>
<Piece Source="nxs12_999-plane_vtu/P0000023.vtu"/>
<Piece Source="nxs12_999-plane_vtu/P0000024.vtu"/>
<Piece Source="nxs12_999-plane_vtu/P0000025.vtu"/>
<Piece Source="nxs12_999-plane_vtu/P0000026.vtu"/>
<Piece Source="nxs12_999-plane_vtu/P0000027.vtu"/>
<Piece Source="nxs12_999-plane_vtu/P0000028.vtu"/>
<Piece Source="nxs12_999-plane_vtu/P0000029.vtu"/>
<Piece Source="nxs12_999-plane_vtu/P0000030.vtu"/>
<Piece Source="nxs12_999-plane_vtu/P0000031.vtu"/>
<Piece Source="nxs12_999-plane_vtu/P0000032.vtu"/>
<Piece Source="nxs12_999-plane_vtu/P0000033.vtu"/>
<Piece Source="nxs12_999-plane_vtu/P0000034.vtu"/>
<Piece Source="nxs12_999-plane_vtu/P0000035.vtu"/>
<Piece Source="nxs12_999-plane_vtu/P0000036.vtu"/>
<Piece Source="nxs12_999-plane_vtu/P0000037.vtu"/>
<Piece Source="nxs12_999-plane_vtu/P0000038.vtu"/>
<Piece Source="nxs12_999-plane_vtu/P0000039.vtu"/>
</PUnstructuredGrid>
</VTKFile>
