<?xml version="1.0"?>
<VTKFile type="PUnstructuredGrid" version="0.1" byte_order="LittleEndian">
<PUnstructuredGrid GhostLevel="0">
<PPoints> 
<PDataArray type="Float64" NumberOfComponents="3"/> 
</PPoints>
<PCells>
<PDataArray type="Int32" Name="connectivity" NumberOfComponents="1"/>
<PDataArray type="Int32" Name="offsets"      NumberOfComponents="1"/>
<PDataArray type="UInt8" Name="types"        NumberOfComponents="1"/>
</PCells>
<PPointData Scalars="Material">
<PDataArray type="Float64" Name="u"/>
<PDataArray type="Float64" Name="v"/>
<PDataArray type="Float64" Name="w"/>
<PDataArray type="Float64" Name="p"/>
<PDataArray type="Float64" Name="W_x"/>
<PDataArray type="Float64" Name="W_y"/>
<PDataArray type="Float64" Name="W_z"/>
</PPointData>
<Piece Source="nvs20_2_15_vtu/P0000000.vtu"/>
<Piece Source="nvs20_2_15_vtu/P0000001.vtu"/>
<Piece Source="nvs20_2_15_vtu/P0000002.vtu"/>
<Piece Source="nvs20_2_15_vtu/P0000003.vtu"/>
<Piece Source="nvs20_2_15_vtu/P0000004.vtu"/>
<Piece Source="nvs20_2_15_vtu/P0000005.vtu"/>
<Piece Source="nvs20_2_15_vtu/P0000006.vtu"/>
<Piece Source="nvs20_2_15_vtu/P0000007.vtu"/>
<Piece Source="nvs20_2_15_vtu/P0000008.vtu"/>
<Piece Source="nvs20_2_15_vtu/P0000009.vtu"/>
<Piece Source="nvs20_2_15_vtu/P0000010.vtu"/>
<Piece Source="nvs20_2_15_vtu/P0000011.vtu"/>
<Piece Source="nvs20_2_15_vtu/P0000012.vtu"/>
<Piece Source="nvs20_2_15_vtu/P0000013.vtu"/>
<Piece Source="nvs20_2_15_vtu/P0000014.vtu"/>
<Piece Source="nvs20_2_15_vtu/P0000015.vtu"/>
<Piece Source="nvs20_2_15_vtu/P0000016.vtu"/>
<Piece Source="nvs20_2_15_vtu/P0000017.vtu"/>
<Piece Source="nvs20_2_15_vtu/P0000018.vtu"/>
<Piece Source="nvs20_2_15_vtu/P0000019.vtu"/>
<Piece Source="nvs20_2_15_vtu/P0000020.vtu"/>
<Piece Source="nvs20_2_15_vtu/P0000021.vtu"/>
<Piece Source="nvs20_2_15_vtu/P0000022.vtu"/>
<Piece Source="nvs20_2_15_vtu/P0000023.vtu"/>
<Piece Source="nvs20_2_15_vtu/P0000024.vtu"/>
<Piece Source="nvs20_2_15_vtu/P0000025.vtu"/>
<Piece Source="nvs20_2_15_vtu/P0000026.vtu"/>
<Piece Source="nvs20_2_15_vtu/P0000027.vtu"/>
<Piece Source="nvs20_2_15_vtu/P0000028.vtu"/>
<Piece Source="nvs20_2_15_vtu/P0000029.vtu"/>
<Piece Source="nvs20_2_15_vtu/P0000030.vtu"/>
<Piece Source="nvs20_2_15_vtu/P0000031.vtu"/>
<Piece Source="nvs20_2_15_vtu/P0000032.vtu"/>
<Piece Source="nvs20_2_15_vtu/P0000033.vtu"/>
<Piece Source="nvs20_2_15_vtu/P0000034.vtu"/>
<Piece Source="nvs20_2_15_vtu/P0000035.vtu"/>
<Piece Source="nvs20_2_15_vtu/P0000036.vtu"/>
<Piece Source="nvs20_2_15_vtu/P0000037.vtu"/>
<Piece Source="nvs20_2_15_vtu/P0000038.vtu"/>
<Piece Source="nvs20_2_15_vtu/P0000039.vtu"/>
<Piece Source="nvs20_2_15_vtu/P0000040.vtu"/>
<Piece Source="nvs20_2_15_vtu/P0000041.vtu"/>
<Piece Source="nvs20_2_15_vtu/P0000042.vtu"/>
<Piece Source="nvs20_2_15_vtu/P0000043.vtu"/>
<Piece Source="nvs20_2_15_vtu/P0000044.vtu"/>
<Piece Source="nvs20_2_15_vtu/P0000045.vtu"/>
<Piece Source="nvs20_2_15_vtu/P0000046.vtu"/>
<Piece Source="nvs20_2_15_vtu/P0000047.vtu"/>
<Piece Source="nvs20_2_15_vtu/P0000048.vtu"/>
<Piece Source="nvs20_2_15_vtu/P0000049.vtu"/>
<Piece Source="nvs20_2_15_vtu/P0000050.vtu"/>
<Piece Source="nvs20_2_15_vtu/P0000051.vtu"/>
<Piece Source="nvs20_2_15_vtu/P0000052.vtu"/>
<Piece Source="nvs20_2_15_vtu/P0000053.vtu"/>
<Piece Source="nvs20_2_15_vtu/P0000054.vtu"/>
<Piece Source="nvs20_2_15_vtu/P0000055.vtu"/>
<Piece Source="nvs20_2_15_vtu/P0000056.vtu"/>
<Piece Source="nvs20_2_15_vtu/P0000057.vtu"/>
<Piece Source="nvs20_2_15_vtu/P0000058.vtu"/>
<Piece Source="nvs20_2_15_vtu/P0000059.vtu"/>
<Piece Source="nvs20_2_15_vtu/P0000060.vtu"/>
<Piece Source="nvs20_2_15_vtu/P0000061.vtu"/>
<Piece Source="nvs20_2_15_vtu/P0000062.vtu"/>
<Piece Source="nvs20_2_15_vtu/P0000063.vtu"/>
<Piece Source="nvs20_2_15_vtu/P0000064.vtu"/>
<Piece Source="nvs20_2_15_vtu/P0000065.vtu"/>
<Piece Source="nvs20_2_15_vtu/P0000066.vtu"/>
<Piece Source="nvs20_2_15_vtu/P0000067.vtu"/>
<Piece Source="nvs20_2_15_vtu/P0000068.vtu"/>
<Piece Source="nvs20_2_15_vtu/P0000069.vtu"/>
<Piece Source="nvs20_2_15_vtu/P0000070.vtu"/>
<Piece Source="nvs20_2_15_vtu/P0000071.vtu"/>
<Piece Source="nvs20_2_15_vtu/P0000072.vtu"/>
<Piece Source="nvs20_2_15_vtu/P0000073.vtu"/>
<Piece Source="nvs20_2_15_vtu/P0000074.vtu"/>
<Piece Source="nvs20_2_15_vtu/P0000075.vtu"/>
<Piece Source="nvs20_2_15_vtu/P0000076.vtu"/>
<Piece Source="nvs20_2_15_vtu/P0000077.vtu"/>
<Piece Source="nvs20_2_15_vtu/P0000078.vtu"/>
<Piece Source="nvs20_2_15_vtu/P0000079.vtu"/>
<Piece Source="nvs20_2_15_vtu/P0000080.vtu"/>
<Piece Source="nvs20_2_15_vtu/P0000081.vtu"/>
<Piece Source="nvs20_2_15_vtu/P0000082.vtu"/>
<Piece Source="nvs20_2_15_vtu/P0000083.vtu"/>
<Piece Source="nvs20_2_15_vtu/P0000084.vtu"/>
<Piece Source="nvs20_2_15_vtu/P0000085.vtu"/>
<Piece Source="nvs20_2_15_vtu/P0000086.vtu"/>
<Piece Source="nvs20_2_15_vtu/P0000087.vtu"/>
<Piece Source="nvs20_2_15_vtu/P0000088.vtu"/>
<Piece Source="nvs20_2_15_vtu/P0000089.vtu"/>
<Piece Source="nvs20_2_15_vtu/P0000090.vtu"/>
<Piece Source="nvs20_2_15_vtu/P0000091.vtu"/>
<Piece Source="nvs20_2_15_vtu/P0000092.vtu"/>
<Piece Source="nvs20_2_15_vtu/P0000093.vtu"/>
<Piece Source="nvs20_2_15_vtu/P0000094.vtu"/>
<Piece Source="nvs20_2_15_vtu/P0000095.vtu"/>
<Piece Source="nvs20_2_15_vtu/P0000096.vtu"/>
<Piece Source="nvs20_2_15_vtu/P0000097.vtu"/>
<Piece Source="nvs20_2_15_vtu/P0000098.vtu"/>
<Piece Source="nvs20_2_15_vtu/P0000099.vtu"/>
</PUnstructuredGrid>
</VTKFile>
