"p_average","p_minimum","p_maximum","p_stddev","U_average:0","U_average:1","U_average:2","U_minimum:0","U_minimum:1","U_minimum:2","U_maximum:0","U_maximum:1","U_maximum:2","U_stddev:0","U_stddev:1","U_stddev:2","ScalarGradient_average:0","ScalarGradient_average:1","ScalarGradient_average:2","ScalarGradient_minimum:0","ScalarGradient_minimum:1","ScalarGradient_minimum:2","ScalarGradient_maximum:0","ScalarGradient_maximum:1","ScalarGradient_maximum:2","ScalarGradient_stddev:0","ScalarGradient_stddev:1","ScalarGradient_stddev:2","VectorGradient_average:0","VectorGradient_average:1","VectorGradient_average:2","VectorGradient_average:3","VectorGradient_average:4","VectorGradient_average:5","VectorGradient_average:6","VectorGradient_average:7","VectorGradient_average:8","VectorGradient_minimum:0","VectorGradient_minimum:1","VectorGradient_minimum:2","VectorGradient_minimum:3","VectorGradient_minimum:4","VectorGradient_minimum:5","VectorGradient_minimum:6","VectorGradient_minimum:7","VectorGradient_minimum:8","VectorGradient_maximum:0","VectorGradient_maximum:1","VectorGradient_maximum:2","VectorGradient_maximum:3","VectorGradient_maximum:4","VectorGradient_maximum:5","VectorGradient_maximum:6","VectorGradient_maximum:7","VectorGradient_maximum:8","VectorGradient_stddev:0","VectorGradient_stddev:1","VectorGradient_stddev:2","VectorGradient_stddev:3","VectorGradient_stddev:4","VectorGradient_stddev:5","VectorGradient_stddev:6","VectorGradient_stddev:7","VectorGradient_stddev:8","vtkValidPointMask","arc_length","Points:0","Points:1","Points:2"
1.0001e+05,99777,1.0024e+05,78.9,3.9997,0.0052476,-0.014828,3.9178,-0.045743,-0.059911,4.0973,0.057494,0.026249,0.03602,0.024654,0.023669,539.04,-601.94,0,-248.33,-2450,0,1490,2450,0,300.67,1008.9,0,515.5,7.3613,15.529,-9516.7,-384.18,34.357,0,0,0,-5960,-74.963,-48.098,-9837.2,-560.72,-71.6,0,0,0,651.02,83.285,82.971,-4900,0,159.73,0,0,0,493.47,33.393,32.949,370.11,92.845,54.967,0,0,0,1,0,0,0.005,0
1.0001e+05,99777,1.0024e+05,78.923,4.3615,0.060699,0,0,0,0,4.4817,0.095746,0,0.33321,0.017073,0,-120.02,-112.97,0,-993.34,-1837.5,0,993.34,1225,0,389.09,466.58,0,212.29,9.9251,-0,-7793,-336.58,0,0,0,0,-0,-24.556,-0,-7995.6,-391.14,0,0,0,0,270.84,62.993,-0,0,0,0,0,0,0,28.556,19.158,0,595.97,36.138,0,0,0,0,1,0.00175,0.00175,0.005,0
1.0001e+05,99777,1.0024e+05,78.918,4.4396,0.052105,0,0,-0.0035982,0,4.5543,0.092878,0,0.33993,0.021388,0,18.241,19.471,0,-993.33,-1837.5,0,993.33,1837.5,0,372.04,401.08,0,87.868,-0.61064,-0,-6381.4,-146.5,0,0,0,0,-0,-77.929,-0,-6518.9,-212.56,0,0,0,0,156.72,51.909,-0,0,0,0,0,0,0,31.917,28.937,0,487.52,34.324,0,0,0,0,1,0.0035,0.0035,0.005,0
1.0001e+05,99776,1.0024e+05,78.922,4.4381,0.022653,0,0,-0.041209,0,4.5631,0.085312,0,0.34026,0.027308,0,-100.62,12.54,0,-993.34,-1837.5,0,993.34,2450,0,354.49,418.66,0,54.366,1.9253,-0,-5228.5,-70.793,0,0,0,0,-20.756,-62.575,-0,-5312.3,-181.33,0,0,0,0,168.4,112.01,-0,0,5.6096,0,0,0,0,39.186,34.423,0,399.09,40.41,0,0,0,0,1,0.00525,0.00525,0.005,0
1.0001e+05,99776,1.0024e+05,78.9,4.4533,0.037286,0,0,-0.036788,0,4.5924,0.12307,0,0.34355,0.036984,0,-17.126,-20.241,0,-993.33,-1837.5,0,993.33,1225,0,407.39,322.94,0,29.002,2.5225,-0,-4695,-41.657,0,0,0,0,-65.693,-118.46,-0,-4774.8,-154.33,0,0,0,0,140.57,109.11,-0,0,55.216,0,0,0,0,47.226,48.37,0,358.26,47.604,0,0,0,0,1,0.007,0.007,0.005,0
1.0001e+05,99776,1.0024e+05,78.865,4.4409,0.0063407,0,0,-0.10902,0,4.6106,0.093759,0,0.3445,0.048422,0,-139.96,13.201,0,-993.34,-1225,0,993.34,1837.5,0,363.52,377.66,0,26.404,1.2215,-0,-4174.9,-28.726,0,0,0,0,-86.031,-104.23,-0,-4257.9,-171.77,0,0,0,0,182.49,178.16,-0,0,83.551,0,0,0,0,59,60.381,0,319.14,58.012,0,0,0,0,1,0.00875,0.00875,0.005,0
1.0001e+05,99775,1.0024e+05,78.835,4.4529,0.032729,0,0,-0.096071,0,4.6442,0.1988,0,0.34852,0.0623,0,65.244,15.291,0,-993.25,-612.5,0,993.25,1837.5,0,312.52,233.23,0,18.541,10.908,-0,-3906.8,-24.077,0,0,0,0,-102.18,-158.93,-0,-3993.5,-181.85,0,0,0,0,177.98,201.51,-0,0,99.66,0,0,0,0,66.572,75.239,0,298.78,65.25,0,0,0,0,1,0.0105,0.0105,0.005,0
1.0001e+05,99775,1.0024e+05,78.859,4.444,0.0023224,0,0,-0.18029,0,4.6561,0.14738,0,0.3516,0.079379,0,-70.194,1.9801,0,-1063.1,-1225,0,993.25,1225,0,437.16,194.75,0,12.354,-7.86,-0,-3589,-13.358,0,0,0,0,-149.53,-158.35,-0,-3679.9,-171.69,0,0,0,0,186.65,234.08,-0,0,149.6,0,0,0,0,79.015,94.322,0,277.4,76.833,0,0,0,0,1,0.01225,0.01225,0.005,0
1.0001e+05,99776,1.0024e+05,78.827,4.4484,0.023749,0,0,-0.18211,0,4.7043,0.27926,0,0.3575,0.097928,0,-6.6894,47.082,0,-993.25,-612.5,0,993.25,2450,0,466.09,294.06,0,15.052,17.465,-0,-3415.2,-17.984,0,0,0,0,-179.31,-193.69,-0,-3501,-199.08,0,0,0,0,209.6,301.42,-0,0,177.38,0,0,0,0,83.603,107.37,0,263.68,81.117,0,0,0,0,1,0.014,0.014,0.005,0
1.0001e+05,99776,1.0024e+05,78.837,4.4509,0.0098482,0,0,-0.26601,0,4.7403,0.24487,0,0.36289,0.11594,0,-36.123,-4.1802,0,-993.24,-1225,0,993.24,1837.5,0,473.55,290.01,0,10.271,-12.472,-0,-3185.4,-11.879,0,0,0,0,-229.1,-248.82,-0,-3324.8,-214.23,0,0,0,0,223.98,318.14,-0,0,226.23,0,0,0,0,104.6,133.57,0,256.07,101.93,0,0,0,0,1,0.01575,0.01575,0.005,0
1.0001e+05,99777,1.0024e+05,78.859,4.4493,0.014989,0,0,-0.2908,0,4.7782,0.37178,0,0.37512,0.14951,0,-14.943,29.151,0,-993.44,-612.5,0,1738.5,1225,0,575.3,237.26,0,9.23,12.989,-0,-3049.4,-11.548,0,0,0,0,-284.47,-218.66,-0,-3180,-257.89,0,0,0,0,268.45,377.6,-0,0,284.26,0,0,0,0,100.05,139.79,0,244.87,97.149,0,0,0,0,1,0.0175,0.0175,0.005,0
1.0001e+05,99776,1.0024e+05,78.801,4.4552,0.01774,0,0,-0.34502,0,4.8725,0.40723,0,0.37815,0.1592,0,51.821,3.7401,0,-1241.6,-1225,0,1063.1,1225,0,573.95,204.72,0,10.723,-7.9696,-0,-2867.2,-12.799,0,0,0,0,-269.18,-335.7,-0,-3077.6,-233.35,0,0,0,0,249.94,459.72,-0,0,260.09,0,0,0,0,137.02,176.99,0,253.45,134.46,0,0,0,0,1,0.01925,0.01925,0.005,0
1.0001e+05,99775,1.0024e+05,78.813,4.4518,0.0085947,0,0,-0.45256,0,4.9192,0.49359,0,0.40167,0.21972,0,12.712,30.911,0,-1738.5,-1225,0,1986.9,1837.5,0,682.9,283.1,0,6.015,-0.66413,-0,-2739.2,-8.9508,0,0,0,0,-388.49,-324.22,-0,-2933.5,-269.85,0,0,0,0,297.95,562.08,-0,0,386.7,0,0,0,0,120.19,175.52,0,240.91,117.59,0,0,0,0,1,0.021,0.021,0.005,0
1.0001e+05,99777,1.0024e+05,78.796,4.462,0.019874,0,0,-0.45108,0,4.9904,0.66329,0,0.39761,0.21067,0,6.4664,5.6102,0,-1489.9,-1225,0,1986.5,1225,0,620.35,222.57,0,12.942,10.355,-0,-2594.2,-14.462,0,0,0,0,-329.69,-389.52,-0,-2898.6,-314.2,0,0,0,0,317.97,528.56,-0,0,316.44,0,0,0,0,171.76,225.27,0,263.09,167.88,0,0,0,0,1,0.02275,0.02275,0.005,0
1.0001e+05,99778,1.0024e+05,78.735,4.4634,0.019696,0,0,-0.57446,0,5.0123,0.6306,0,0.43172,0.29269,0,39.074,-25.301,0,-1986.9,-1837.5,0,1986.9,612.5,0,765.03,220.75,0,7.9155,-12.502,-0,-2459.1,-11.825,0,0,0,0,-372.78,-435.39,-0,-2722.2,-347.94,0,0,0,0,363.45,603.07,-0,0,363.93,0,0,0,0,144.65,222.51,0,259.79,143.24,0,0,0,0,1,0.0245,0.0245,0.005,0
1.0001e+05,99778,1.0024e+05,78.692,4.4714,0.01194,0,0,-0.55502,0,5.1869,0.88102,0,0.42669,0.28086,0,-42.857,19.031,0,-1986.5,-1225,0,1986.5,1837.5,0,775.84,324.14,0,8.158,21.415,-0,-2326.5,-8.8495,0,0,0,0,-363.87,-424.17,-0,-2705.9,-359.24,0,0,0,0,356.5,648.09,-0,0,368.61,0,0,0,0,193.88,274.91,0,282.31,187.65,0,0,0,0,1,0.02625,0.02625,0.005,0
1.0001e+05,99778,1.0024e+05,78.679,4.4724,0.035508,0,0,-0.67697,0,5.0998,0.73471,0,0.45712,0.36198,0,83.946,-49.722,0,-1986.9,-1837.5,0,1986.9,1225,0,854.68,397.7,0,10.391,-10.668,-0,-2215.4,-14.063,0,0,0,0,-434.29,-521.54,-0,-2624.2,-459.13,0,0,0,0,480.81,546.99,-0,0,421.04,0,0,0,0,178.37,282.44,0,290.58,177.27,0,0,0,0,1,0.028,0.028,0.005,0
1.0001e+05,99777,1.0024e+05,78.553,4.4812,-0.0020661,0,0,-0.74524,0,5.3218,0.96989,0,0.4565,0.3983,0,-142.65,-6.5337e-16,0,-2056.7,-1837.5,0,2103.3,1225,0,993.63,343.74,0,8.3438,8.914,-0,-2045.2,-9.0289,0,0,0,0,-435.6,-457.71,-0,-2543.1,-399.63,0,0,0,0,394.63,721.25,-0,0,427.58,0,0,0,0,197.05,302.74,0,334.15,191.33,0,0,0,0,1,0.02975,0.02975,0.005,0
1.0001e+05,99779,1.0024e+05,78.491,4.4888,0.042231,0,0,-0.84922,0,5.1844,0.86812,0,0.47652,0.4119,0,79.174,-83.713,0,-1986.9,-1837.5,0,1986.9,1225,0,954.54,412.4,0,15.384,19.829,-0,-1978.7,-17.413,0,0,0,0,-487.03,-609.44,-0,-2551.7,-418.31,0,0,0,0,438.68,849.99,-0,0,461.44,0,0,0,0,195.72,375.6,0,318.94,191.31,0,0,0,0,1,0.0315,0.0315,0.005,0
1.0001e+05,99781,1.0024e+05,78.372,4.503,0.019415,0,0,-0.92979,0,5.2985,1.2393,0,0.46947,0.52296,0,-39.922,-48.072,0,-2980.3,-1837.5,0,1986.9,1225,0,1175.9,437.11,0,7.7965,-17.449,-0,-1810.5,-8.5824,0,0,0,0,-426.17,-460.24,-0,-2398.1,-504.53,0,0,0,0,493.83,695.27,-0,0,416.87,0,0,0,0,202.61,319.88,0,348.88,196.99,0,0,0,0,1,0.03325,0.03325,0.005,0
1.0001e+05,99783,1.0024e+05,78.249,4.5053,0.023255,0,0,-0.94721,0,5.3252,1.0087,0,0.49599,0.45922,0,26.49,-46.422,0,-1986.5,-1837.5,0,2064.1,1837.5,0,952.86,451.13,0,14.33,19.581,-0,-1738.7,-14.272,0,0,0,0,-400.99,-682.5,-0,-2468.6,-359.7,0,0,0,0,349.21,995.75,-0,0,391.23,0,0,0,0,180.49,453.73,0,363.41,175.58,0,0,0,0,1,0.035,0.035,0.005,0
1.0001e+05,99782,1.0024e+05,78.201,4.5232,0.032287,0,0,-1.0167,0,5.5289,1.3647,0,0.48542,0.63479,0,-77.568,-112.09,0,-2235.3,-2450,0,2980.3,1837.5,0,1248.1,460.93,0,4.1617,-15.452,-0,-1635.1,-5.8913,0,0,0,0,-461.9,-550.8,-0,-2312.4,-562.63,0,0,0,0,548.92,858.12,-0,0,452.91,0,0,0,0,205.93,337.3,0,336.85,199.77,0,0,0,0,1,0.03675,0.03675,0.005,0
1.0001e+05,99781,1.0024e+05,78.24,4.5213,0.013496,0,0,-1.0836,0,5.3467,1.2818,0,0.5221,0.52702,0,-38.754,-106.81,0,-2234.8,-2450,0,1986.5,1837.5,0,995.04,576.47,0,13.387,2.6812,-0,-1556.7,-11.555,0,0,0,0,-426.51,-654.64,-0,-2427.9,-421.49,0,0,0,0,414.31,858.08,-0,0,435.82,0,0,0,0,170.84,476.83,0,404.29,167.01,0,0,0,0,1,0.0385,0.0385,0.005,0
1.0001e+05,99781,1.0024e+05,78.244,4.5382,0.03944,0,0,-1.2233,0,5.6066,1.4023,0,0.52342,0.69219,0,16.144,-96.804,0,-2234.8,-1837.5,0,2979.7,1837.5,0,1384.5,458.68,0,1.5684,17.516,-0,-1529.3,-4.749,0,0,0,0,-443.76,-539.92,-0,-2272.2,-457.22,0,0,0,0,445.44,998.41,-0,0,414.58,0,0,0,0,210.48,365.46,0,343.08,202.89,0,0,0,0,1,0.04025,0.04025,0.005,0
1.0001e+05,99783,1.0024e+05,78.273,4.5256,0.01319,0,0,-1.1267,0,5.5534,1.4625,0,0.55909,0.59921,0,-86.784,-65.123,0,-1986.5,-1837.5,0,1986.5,1837.5,0,1027.6,546.75,0,9.7799,-20.188,-0,-1411.6,-8.0849,0,0,0,0,-519.32,-626.45,-0,-2280.7,-419.35,0,0,0,0,417.54,789.26,-0,0,507.53,0,0,0,0,171.63,476.41,0,392.48,169.35,0,0,0,0,1,0.042,0.042,0.005,0
1.0001e+05,99781,1.0024e+05,78.14,4.5434,0.020971,0,0,-1.3487,0,5.5192,1.4699,0,0.58134,0.70916,0,-6.6015,-76.123,0,-2980.3,-1837.5,0,2258.5,1837.5,0,1262.9,495.37,0,1.7184,24.167,-0,-1392.8,-3.543,0,0,0,0,-441.33,-650.11,-0,-2170.7,-448.26,0,0,0,0,448.84,880.23,-0,0,436.16,0,0,0,0,201.9,396.4,0,368.55,197.53,0,0,0,0,1,0.04375,0.04375,0.005,0
1.0001e+05,99781,1.0024e+05,77.929,4.5291,0.023231,0,0,-1.2904,0,5.7658,1.5585,0,0.61153,0.66069,0,-46.871,-128.6,0,-2979.7,-1837.5,0,2165,1225,0,1092.9,528.83,0,6.6786,-23.275,-0,-1287.5,-7.3012,0,0,0,0,-480.54,-751.32,-0,-2161.3,-621.04,0,0,0,0,604.74,874.31,-0,0,454.55,0,0,0,0,188.4,442.26,0,379.01,187.16,0,0,0,0,1,0.0455,0.0455,0.005,0
1.0001e+05,99783,1.0024e+05,77.71,4.5481,0.015438,0,0,-1.4291,0,5.8017,1.5348,0,0.64014,0.71705,0,-18.422,-98.894,0,-2980.3,-2450,0,2212,2450,0,1210,563.87,0,9.3337,14.701,-0,-1250.4,-9.4036,0,0,0,0,-440.84,-673.56,-0,-2213.1,-541.4,0,0,0,0,540.38,839.73,-0,0,427.2,0,0,0,0,203.4,411.95,0,389.66,201.23,0,0,0,0,1,0.04725,0.04725,0.005,0
1.0001e+05,99786,1.0024e+05,77.557,4.5406,0.032551,0,0,-1.357,0,5.7912,1.4928,0,0.66337,0.70552,0,-25.197,-145.98,0,-2188.2,-2450,0,2979.7,1225,0,1087.9,625.25,0,7.9426,-12.569,-0,-1177.9,-8.554,0,0,0,0,-334.26,-770.65,-0,-2107.2,-621.38,0,0,0,0,611.2,810.2,-0,0,321.53,0,0,0,0,210.02,403.13,0,383.67,208.37,0,0,0,0,1,0.049,0.049,0.005,0
1.0001e+05,99788,1.0023e+05,77.456,4.5589,0.013371,0,0,-1.371,0,5.9696,1.4107,0,0.68792,0.70817,0,-71.904,-102.96,0,-1986.9,-1837.5,0,1986.9,1837.5,0,1088.1,606.28,0,14.567,0.80644,-0,-1117,-13.334,0,0,0,0,-331.48,-664.11,-0,-2094.6,-586.04,0,0,0,0,598.26,811.89,-0,0,322.98,0,0,0,0,211.22,419.24,0,392.89,210.39,0,0,0,0,1,0.05075,0.05075,0.005,0
1.0001e+05,99788,1.0024e+05,77.411,4.5623,0.027465,0,0,-1.6749,0,5.9588,1.6265,0,0.7077,0.75859,0,-28.324,-123.97,0,-2359.4,-1837.5,0,1986.9,1225,0,1109.3,540.94,0,7.2266,1.2108,-0,-1064.3,-7.7908,0,0,0,0,-335.4,-713.44,-0,-1916.9,-652.27,0,0,0,0,647.01,803.75,-0,0,332.18,0,0,0,0,219.14,373.46,0,389.21,217.41,0,0,0,0,1,0.0525,0.0525,0.005,0
1.0001e+05,99788,1.0024e+05,77.399,4.579,0.011747,0,0,-1.4813,0,6.0338,1.2901,0,0.71828,0.72962,0,-81.002,-110,0,-1986.9,-2450,0,1986.9,2450,0,1000.5,586.23,0,18.165,-17.134,-0,-982.68,-17.296,0,0,0,0,-301.77,-608.18,-0,-1868.4,-742.52,0,0,0,0,742.64,845.6,-0,0,297.49,0,0,0,0,219.46,401.89,0,400.91,219.04,0,0,0,0,1,0.05425,0.05425,0.005,0
1.0001e+05,99786,1.0024e+05,77.368,4.5911,0.0052932,0,0,-1.9307,0,6.1108,1.5308,0,0.73446,0.80649,0,-42.152,-60.172,0,-2165.4,-2450,0,1986.9,2450,0,1129.6,621.87,0,9.3194,4.3486,-0,-944.7,-9.0131,0,0,0,0,-346.52,-580.83,-0,-1859.8,-609.7,0,0,0,0,598.91,815.87,-0,0,335.61,0,0,0,0,218.37,353.15,0,396.32,216.55,0,0,0,0,1,0.056,0.056,0.005,0
1.0001e+05,99783,1.0024e+05,77.3,4.6037,0.0028479,0,0,-1.6077,0,6.1417,1.548,0,0.74382,0.78602,0,-119.14,-107.25,0,-2258.5,-2450,0,1886,1837.5,0,964.39,644.4,0,14.249,-13.283,-0,-879.21,-13.949,0,0,0,0,-302.71,-582,-0,-1797.6,-659.55,0,0,0,0,658.99,824.01,-0,0,302.69,0,0,0,0,221.48,393.6,0,400.17,219.8,0,0,0,0,1,0.05775,0.05775,0.005,0
1.0001e+05,99782,1.0024e+05,77.277,4.6166,-0.032305,0,0,-2.0197,0,6.0355,1.5314,0,0.75193,0.84088,0,-152.91,-58.302,0,-2980.3,-1837.5,0,1986.9,2450,0,1016,593.28,0,6.8447,-4.7787,-0,-832.7,-6.9622,0,0,0,0,-318.23,-593.58,-0,-1829,-554.67,0,0,0,0,549.79,1054.9,-0,0,309.6,0,0,0,0,220.87,359.1,0,391.64,218.97,0,0,0,0,1,0.0595,0.0595,0.005,0
1.0001e+05,99786,1.0023e+05,77.134,4.6293,-0.0317,0,0,-1.9965,0,6.2389,1.7271,0,0.76616,0.85932,0,-157.83,-35.091,0,-2979.7,-1837.5,0,2956.5,2450,0,1037.8,594.48,0,12.397,-4.3628,-0,-788.58,-12.941,0,0,0,0,-306.09,-647.97,-0,-1722.8,-628.05,0,0,0,0,619.56,861.82,-0,0,304.77,0,0,0,0,212.44,372.05,0,398.78,211.16,0,0,0,0,1,0.06125,0.06125,0.005,0
1.0001e+05,99790,1.0023e+05,76.937,4.6528,-0.071946,0,0,-2.1255,0,6.0806,1.5727,0,0.77504,0.87287,0,-217.72,10.67,0,-2980.3,-1225,0,1513.4,1837.5,0,1009.2,466.78,0,15.778,-25.788,-0,-747.57,-15.869,0,0,0,0,-332.27,-684.27,-0,-1809.8,-566.96,0,0,0,0,563.52,997.1,-0,0,324.49,0,0,0,0,214.5,365.61,0,381.13,213.22,0,0,0,0,1,0.063,0.063,0.005,0
1.0001e+05,99792,1.0024e+05,76.818,4.6788,-0.091307,0,0,-2.2559,0,6.2762,1.8608,0,0.78937,0.91369,0,-262.63,11.33,0,-2979.7,-1837.5,0,1986.5,2450,0,1036.2,638.44,0,21.007,-1.3423,-0,-710.95,-20.881,0,0,0,0,-302.32,-619.69,-0,-1725.1,-656.79,0,0,0,0,650.73,862.51,-0,0,296.33,0,0,0,0,197.2,358.72,0,382.62,196.27,0,0,0,0,1,0.06475,0.06475,0.005,0
1.0001e+05,99793,1.0024e+05,76.63,4.7198,-0.12712,0,0,-2.1197,0,6.2338,1.7597,0,0.78516,0.89628,0,-325.22,-6.7103,0,-2980.4,-1837.5,0,2080,1225,0,908.29,447.46,0,29.319,-39.252,-0,-665.79,-29.531,0,0,0,0,-292.47,-693.82,-0,-1779,-614.47,0,0,0,0,611.64,1041.3,-0,0,287.94,0,0,0,0,197.34,387.78,0,365.56,196.14,0,0,0,0,1,0.0665,0.0665,0.005,0
1.0001e+05,99793,1.0024e+05,76.388,4.7743,-0.18213,0,0,-2.6453,0,6.4641,1.7565,0,0.79089,0.97121,0,-440.25,68.203,0,-3088.4,-1837.5,0,1683.9,1837.5,0,1026.4,573.86,0,37.514,-18.276,-0,-654.31,-37.852,0,0,0,0,-285.5,-596.82,-0,-1786.9,-558.72,0,0,0,0,546.47,854.05,-0,0,277.23,0,0,0,0,183.84,333.63,0,363.66,183.28,0,0,0,0,1,0.06825,0.06825,0.005,0
1e+05,99793,1.0024e+05,76.15,4.8498,-0.20964,0,0,-2.205,0,6.5046,1.7977,0,0.78756,0.92091,0,-470.62,96.034,0,-2979.7,-1225,0,1986.5,2450,0,850.21,543.49,0,47.498,-31.962,-0,-610.82,-47.887,0,0,0,0,-234.85,-648.3,-0,-1678.7,-591.83,0,0,0,0,587.71,1079.8,-0,0,224.42,0,0,0,0,169.31,363.36,0,370.68,168.06,0,0,0,0,1,0.07,0.07,0.005,0
1e+05,99792,1.0023e+05,75.949,4.9319,-0.2684,0,0,-2.6033,0,6.4451,1.578,0,0.76547,0.95575,0,-574.57,67.103,0,-2979.7,-1837.5,0,1210.5,1837.5,0,941.5,491.56,0,50.624,-26.764,-0,-602,-51.4,0,0,0,0,-223.53,-676.85,-0,-1718.9,-596.69,0,0,0,0,592.07,1067.8,-0,0,218.79,0,0,0,0,169.56,348.83,0,374.67,169.01,0,0,0,0,1,0.07175,0.07175,0.005,0
1e+05,99790,1.0023e+05,75.742,5.0419,-0.27605,0,0,-2.7631,0,6.7798,1.7403,0,0.75727,0.97771,0,-610.43,-18.921,0,-3003,-2450,0,1885.6,1837.5,0,962.29,485.07,0,80.015,9.9019,-0,-575.91,-78.751,0,0,0,0,-205.24,-610.4,-0,-1650.8,-548.55,0,0,0,0,549.73,911.69,-0,108.94,203.42,0,0,0,0,159.31,325.17,0,396.33,158.14,0,0,0,0,1,0.0735,0.0735,0.005,0
1e+05,99791,1.0023e+05,75.574,5.1728,-0.26907,0,0,-2.1584,0,6.7979,1.804,0,0.75737,0.91299,0,-588.33,-46.312,0,-2222.6,-1818.4,0,1549.7,1837.5,0,754.52,457.32,0,67.483,-3.8655,0,-536.74,-68.724,0,0,0,0,-220.3,-610.27,0,-1524,-586.11,0,0,0,0,578.13,902.73,0,135.9,214.05,0,0,0,0,140.47,318.15,0,387.67,141.09,0,0,0,0,1,0.07525,0.07525,0.005,0
1e+05,99792,1.0023e+05,75.423,5.2787,-0.26817,0,0,-2.4791,0,6.6737,1.62,0,0.7325,0.9384,0,-573.07,-68.093,0,-2976.6,-1837.5,0,1284.4,2450,0,818.78,489.42,0,62.276,11.992,0,-500.17,-62.721,0,0,0,0,-219.98,-586.24,0,-1483.6,-590.22,0,0,0,0,600.44,974.29,0,19.779,187.19,0,0,0,0,158.93,314.71,0,388.22,156.29,0,0,0,0,1,0.077,0.077,0.005,0
99999,99793,1.0022e+05,75.339,5.3989,-0.22019,0,0,-2.5613,0,7.0202,1.7505,0,0.72566,0.96465,0,-517.47,-76.013,0,-3017.9,-1837.5,0,1896.4,2450,0,863.97,410.76,0,77.935,37.988,0,-468.93,-75.697,0,0,0,0,-232.16,-445.48,0,-1484.2,-536.72,0,0,0,0,561.68,819.13,0,81.501,220.18,0,0,0,0,153.84,288.21,0,393.4,150.81,0,0,0,0,1,0.07875,0.07875,0.005,0
99998,99793,1.0022e+05,75.247,5.5096,-0.16868,0,0,-1.9497,0,7.0329,2.0426,0,0.72927,0.91205,0,-369.66,-158.3,0,-2324.6,-1837.5,0,1522.5,1225,0,721.76,475.89,0,48.538,20.61,0,-430.7,-49.569,0,0,0,0,-275.02,-500.14,0,-1421.4,-575.12,0,0,0,0,587.18,898.02,0,176.36,260.83,0,0,0,0,139.61,292.64,0,372.04,138.38,0,0,0,0,1,0.0805,0.0805,0.005,0
99998,99791,1.0022e+05,75.103,5.5755,-0.14188,0,0,-2.0238,0,6.8908,1.7668,0,0.71593,0.9052,0,-272,-81.293,0,-2610.1,-1225,0,1957.5,1837.5,0,709,446.67,0,34.722,16.159,0,-409.19,-35.187,0,0,0,0,-267.49,-587.01,0,-1408.9,-568.68,0,0,0,0,582.45,976.48,0,146.5,256.88,0,0,0,0,154.78,301.99,0,368.59,152.39,0,0,0,0,1,0.08225,0.08225,0.005,0
99997,99790,1.0022e+05,75.027,5.6374,-0.089486,0,0,-2.4695,0,7.1087,1.7737,0,0.71211,0.94488,0,-217.86,-87.893,0,-2610.1,-2450,0,1780.8,1359,0,776.36,475.79,0,36.872,41.937,0,-395.89,-35.518,0,0,0,0,-284.55,-405.66,0,-1374.2,-551.14,0,0,0,0,571.73,849.63,0,154.35,274.26,0,0,0,0,161,296.76,0,369.8,156.83,0,0,0,0,1,0.084,0.084,0.005,0
99997,99789,1.0022e+05,74.945,5.681,-0.032996,0,0,-1.9773,0,7.3079,2.2546,0,0.72044,0.93612,0,-102.42,-86.903,0,-1957.5,-1837.5,0,1672.1,1225,0,743.68,436.39,0,16.203,21.35,0,-372.44,-16.764,0,0,0,0,-265.89,-433.92,0,-1322.4,-498.06,0,0,0,0,496.13,854.79,0,153.34,257.44,0,0,0,0,140.45,287.15,0,339.03,138.89,0,0,0,0,1,0.08575,0.08575,0.005,0
99997,99791,1.0022e+05,74.743,5.6965,-0.016646,0,0,-2.0645,0,7.1293,1.9497,0,0.71265,0.92465,0,-65.626,-28.601,0,-1957.5,-1225,0,1910,1837.5,0,735.4,455.72,0,7.363,6.3739,0,-368.57,-8.1287,0,0,0,0,-334.48,-600.93,0,-1275,-602.54,0,0,0,0,626.75,1077.8,0,162.96,319.61,0,0,0,0,160.83,318.88,0,334.15,158.25,0,0,0,0,1,0.0875,0.0875,0.005,0
99997,99795,1.0022e+05,74.474,5.7135,0.021822,0,0,-2.2759,0,7.3982,1.9249,0,0.71261,0.95234,0,-22.5,-9.4604,0,-2610.1,-1225,0,2175,1837.5,0,833.14,451.37,0,7.7448,32.473,0,-370.75,-6.6461,0,0,0,0,-249.25,-464.51,0,-1380.1,-670.4,0,0,0,0,691.19,1088.7,0,109.8,242.23,0,0,0,0,155.61,325.87,0,333.09,151.86,0,0,0,0,1,0.08925,0.08925,0.005,0
99997,99798,1.0022e+05,74.186,5.7071,0.059829,0,0,-2.184,0,7.2829,2.315,0,0.70514,0.99444,0,119.71,36.631,0,-2174.7,-1416.4,0,2174.7,1837.5,0,861.5,426.76,0,-8.1423,11.149,0,-356.89,7.5163,0,0,0,0,-337.51,-441.89,0,-1258.5,-506.36,0,0,0,0,507.06,959.43,0,186.86,334.51,0,0,0,0,142,306.12,0,309.08,140.67,0,0,0,0,1,0.091,0.091,0.005,0
99997,99801,1.0022e+05,73.819,5.6886,0.057472,0,0,-2.2315,0,7.0789,2.1948,0,0.68527,0.99602,0,87.853,37.071,0,-1957.5,-1225,0,2175,2450,0,883.15,474.18,0,-11.005,-2.678,0,-356.39,10.455,0,0,0,0,-427.04,-503.09,0,-1237.3,-564.06,0,0,0,0,592.09,1112.1,0,165.97,410.61,0,0,0,0,166.19,334.65,0,298.09,162.88,0,0,0,0,1,0.09275,0.09275,0.005,0
99997,99803,1.0022e+05,73.344,5.6747,0.085376,0,0,-2.0727,0,7.3777,2.2017,0,0.69007,0.97545,0,130.28,57.752,0,-2392.6,-1837.5,0,2453.7,2450,0,812.55,579.15,0,-6.8109,25.433,0,-358.05,7.4565,0,0,0,0,-320.7,-618.08,0,-1105.9,-661.9,0,0,0,0,689.8,1067.1,0,160.72,317.5,0,0,0,0,147.24,358.31,0,289.84,144.05,0,0,0,0,1,0.0945,0.0945,0.005,0
99998,99806,1.0022e+05,72.854,5.6602,0.10985,0,0,-1.9921,0,7.2434,2.5097,0,0.67508,1.0241,0,192.46,35.531,0,-1957.5,-1837.5,0,2630.4,1837.5,0,855.56,537.93,0,-8.6119,1.9202,0,-354.1,8.2717,0,0,0,0,-385.79,-532.62,0,-1241.4,-440.89,0,0,0,0,439.7,971.37,0,98.169,379.13,0,0,0,0,135.87,336.14,0,285.29,134.38,0,0,0,0,1,0.09625,0.09625,0.005,0
99998,99808,1.0022e+05,72.49,5.6431,0.082028,0,0,-2.2236,0,6.9313,2.2819,0,0.65295,1.0387,0,138.09,103.51,0,-2610.1,-1837.5,0,1957.5,1837.5,0,853.89,498.99,0,-11.211,-17.316,0,-350.5,11.014,0,0,0,0,-426.51,-451.4,0,-1227.6,-519.75,0,0,0,0,541.26,1070.1,0,332.5,410.9,0,0,0,0,160.69,337.02,0,272.19,157.22,0,0,0,0,1,0.098,0.098,0.005,0
99998,99810,1.0022e+05,72.202,5.6243,0.066547,0,0,-2.0572,0,7.006,2.3472,0,0.67049,1.0034,0,140.74,109.01,0,-1741,-1837.5,0,2611.4,2450,0,778.17,561.27,0,-8.1269,5.4647,0,-353.54,8.4449,0,0,0,0,-355.27,-444.85,0,-1208.7,-386.72,0,0,0,0,417.22,1006.2,0,323.66,351.87,0,0,0,0,132.03,351.95,0,278.61,129.99,0,0,0,0,1,0.09975,0.09975,0.005,0
99998,99812,1.0022e+05,71.959,5.6138,0.069559,0,0,-1.9883,0,7.0285,2.4377,0,0.68097,1.0158,0,134.7,114.62,0,-1891.9,-1837.5,0,3021.6,1837.5,0,879.13,491.38,0,-3.5808,-12.889,0,-353.35,3.5639,0,0,0,0,-308.06,-537.99,0,-1215.5,-506.13,0,0,0,0,512.38,989.21,0,164.04,303.9,0,0,0,0,143.47,343.94,0,283.36,140.62,0,0,0,0,1,0.1015,0.1015,0.005,0
99999,99813,1.0022e+05,71.779,5.6061,0.037894,0,0,-2.0408,0,6.8105,2.3809,0,0.68556,1.0303,0,40.644,97.134,0,-1739.1,-1837.5,0,2703.8,2450,0,876.98,566.38,0,-5.8209,-20.24,0,-346.86,5.5999,0,0,0,0,-397.41,-444.51,0,-1176.9,-483.89,0,0,0,0,492.13,1067.3,0,251.47,391.03,0,0,0,0,162.08,323.62,0,273.87,158.59,0,0,0,0,1,0.10325,0.10325,0.005,0
99999,99815,1.0021e+05,71.725,5.5957,0.014937,0,0,-2.0691,0,6.977,2.3644,0,0.7262,0.99053,0,57.275,135.42,0,-1739.1,-1837.5,0,2608.7,2450,0,792.44,564.15,0,-4.1345,1.7732,0,-345.88,4.4476,0,0,0,0,-395.3,-448.53,0,-1214.7,-327.01,0,0,0,0,333.61,1031.5,0,313.65,387.14,0,0,0,0,138.03,338.95,0,284.25,136.24,0,0,0,0,1,0.105,0.105,0.005,0
99999,99816,1.0021e+05,71.684,5.5919,0.022064,0,0,-1.9889,0,7.1166,2.4293,0,0.75984,0.98094,0,69.497,149.83,0,-1827.5,-1837.5,0,2608.7,2450,0,760.36,604.17,0,-0.65915,-1.4608,0,-350.98,0.76597,0,0,0,0,-339.27,-477.34,0,-1299.5,-394.03,0,0,0,0,408.72,1006.7,0,485.75,332.97,0,0,0,0,138.75,330.71,0,297.05,136.5,0,0,0,0,1,0.10675,0.10675,0.005,0
99999,99816,1.0021e+05,71.62,5.5915,0.0097763,0,0,-1.8179,0,7.344,2.2291,0,0.76286,0.99162,0,33.304,118.69,0,-1739.1,-1225,0,2608.7,2450,0,788.72,535.56,0,1.0153,-12.088,0,-343.23,-1.0544,0,0,0,0,-414.3,-588.84,0,-1111.9,-438.24,0,0,0,0,448.97,1060.7,0,387.61,408.64,0,0,0,0,164.18,308.62,0,291.07,161.32,0,0,0,0,1,0.1085,0.1085,0.005,0
99999,99817,1.0021e+05,71.502,5.5917,-0.0080293,0,0,-1.9506,0,7.2279,2.1005,0,0.78265,0.96595,0,13.977,111.1,0,-1827.4,-1225,0,1786.7,2450,0,752.11,533.19,0,1.0066,-4.8751,0,-333.2,-0.99955,0,0,0,0,-480.39,-430.18,0,-1103.7,-390.54,0,0,0,0,391.35,1039.4,0,470.05,475.38,0,0,0,0,163.16,311.14,0,301.32,160.67,0,0,0,0,1,0.11025,0.11025,0.005,0
99999,99817,1.0021e+05,71.336,5.5966,-0.012705,0,0,-1.8687,0,7.2854,2.372,0,0.81883,0.94174,0,20.768,91.194,0,-1762.6,-1225,0,2000.8,2450,0,741.34,532.86,0,6.2498,-4.0728,0,-323.89,-5.6878,0,0,0,0,-318.73,-426.83,0,-1148.3,-365.27,0,0,0,0,378.24,854.47,0,1026,318.9,0,0,0,0,139.9,308.01,0,320.69,138.23,0,0,0,0,1,0.112,0.112,0.005,0
99999,99818,1.002e+05,71.134,5.605,-0.02147,0,0,-1.7709,0,7.4166,2.3753,0,0.82295,0.94309,0,20.103,93.284,0,-1742.2,-995.32,0,1742.2,1225,0,754.36,493.47,0,1.4241,-3.0839,0,-325.37,-1.9424,0,0,0,0,-448.9,-723,0,-1139.2,-435.18,0,0,0,0,436.71,902.66,0,457.86,443.11,0,0,0,0,169.32,295.43,0,319.23,166.46,0,0,0,0,1,0.11375,0.11375,0.005,0
99999,99820,1.0021e+05,70.843,5.6085,-0.02054,0,0,-1.8359,0,7.5467,2.052,0,0.83334,0.92488,0,-21.981,83.053,0,-1739.1,-1837.5,0,1909,2450,0,788.08,553.8,0,4.6969,1.3741,0,-317.3,-4.626,0,0,0,0,-526.96,-494.02,0,-1136.4,-445.89,0,0,0,0,443.35,1057.6,0,777.11,515.01,0,0,0,0,181.97,289.07,0,332.75,179.02,0,0,0,0,1,0.1155,0.1155,0.005,0
99999,99823,1.0021e+05,70.488,5.6193,-0.022988,0,0,-1.7503,0,7.6072,2.2842,0,0.86851,0.911,0,-46.852,67.103,0,-1807.1,-2450,0,1997.3,1837.5,0,785.18,553.18,0,9.0857,-0.90173,0,-306.74,-7.8711,0,0,0,0,-577.38,-458.99,0,-1256.7,-456.74,0,0,0,0,472.46,797.45,0,838.05,516.88,0,0,0,0,165.6,289.31,0,339.94,161.41,0,0,0,0,1,0.11725,0.11725,0.005,0
99999,99826,1.0021e+05,70.113,5.6268,-0.019068,0,0,-1.7677,0,7.4541,2.4238,0,0.8781,0.89594,0,19.912,36.741,0,-1521.7,-2450,0,2323.4,2450,0,726.72,605.21,0,-0.84924,4.323,0,-314.97,-0.52162,0,0,0,0,-669.09,-644.63,0,-1198.4,-416.19,0,0,0,0,417.41,834.71,0,911.7,570.42,0,0,0,0,181.7,274.37,0,340.18,177.08,0,0,0,0,1,0.119,0.119,0.005,0
99999,99828,1.0021e+05,69.777,5.6343,-0.007544,0,0,-1.713,0,7.7953,2.083,0,0.88233,0.8708,0,7.4572,37.291,0,-1739.1,-1837.5,0,1739.1,2450,0,679.54,566.57,0,9.4797,6.9719,0,-316.25,-9.1458,0,0,0,0,-570.58,-751.72,0,-1185.3,-402.18,0,0,0,0,407.27,1177,0,961.58,558.75,0,0,0,0,188.92,291.22,0,334.09,185.79,0,0,0,0,1,0.12075,0.12075,0.005,0
99999,99830,1.0021e+05,69.461,5.6489,-0.0033407,0,0,-1.8045,0,8.0204,2.1043,0,0.90936,0.89003,0,16.554,57.422,0,-1739.1,-1894.9,0,1895.4,2450,0,700.53,500.73,0,5.5444,-1.3019,0,-302.31,-5.3566,0,0,0,0,-622.55,-478.65,0,-1220.4,-505.97,0,0,0,0,507.97,721.49,0,533.63,570.71,0,0,0,0,178.03,262.03,0,335.63,175.23,0,0,0,0,1,0.1225,0.1225,0.005,0
99999,99832,1.0021e+05,69.174,5.6493,-0.0073696,0,0,-1.8128,0,7.965,2.3078,0,0.91595,0.86439,0,-17.013,75.573,0,-1742.2,-2450,0,1891.9,2450,0,634.31,551.85,0,-1.6518,-2.33,0,-313.35,0.90024,0,0,0,0,-641.6,-510.13,0,-1270.4,-402.54,0,0,0,0,409.24,827.93,0,560.26,620.31,0,0,0,0,175.21,262.92,0,328.1,172.37,0,0,0,0,1,0.12425,0.12425,0.005,0
99999,99832,1.0021e+05,68.93,5.6587,-0.0081324,0,0,-1.7331,0,7.7305,1.9571,0,0.9128,0.83642,0,-16.818,53.022,0,-1742.2,-1837.5,0,1572,1837.5,0,665.73,515.85,0,9.5258,1.6288,0,-313.45,-9.1126,0,0,0,0,-524.36,-906.21,0,-1202,-408.45,0,0,0,0,412.43,964.55,0,724.09,513.58,0,0,0,0,182.48,284.88,0,327.61,179.71,0,0,0,0,1,0.126,0.126,0.005,0
99999,99833,1.002e+05,68.646,5.6735,-0.0038854,0,0,-1.8401,0,7.9518,1.8772,0,0.92341,0.87522,0,31.664,55.332,0,-1739.1,-1894.9,0,1847.8,1837.5,0,722.36,512.62,0,5.2372,0.33641,0,-317.52,-5.137,0,0,0,0,-505.28,-512.21,0,-1140.9,-418.7,0,0,0,0,417.83,754.07,0,342.92,501.2,0,0,0,0,172.51,247.7,0,316.87,170.92,0,0,0,0,1,0.12775,0.12775,0.005,0
99999,99833,1.002e+05,68.348,5.6743,-0.014899,0,0,-1.9126,0,7.9851,2.0912,0,0.92452,0.86061,0,-45.328,27.611,0,-1739.1,-2450,0,1739.1,1837.5,0,666.64,574.42,0,0.83392,-8.641,0,-315.64,-1.1911,0,0,0,0,-561.25,-477.69,0,-1250.3,-377.04,0,0,0,0,373.29,720.17,0,427.5,542.55,0,0,0,0,172.6,243.05,0,316.95,169.7,0,0,0,0,1,0.1295,0.1295,0.005,0
99999,99833,1.002e+05,68.056,5.6843,-0.01966,0,0,-1.7785,0,7.7855,1.8356,0,0.92969,0.81811,0,-41.972,64.353,0,-1739.2,-1837.5,0,1501.4,2450,0,649.29,502.36,0,7.2671,3.0739,0,-308.42,-7.0088,0,0,0,0,-477.41,-955.99,0,-1274.2,-416.03,0,0,0,0,414.23,891.55,0,523.65,456.77,0,0,0,0,173.64,283.63,0,323.41,171.07,0,0,0,0,1,0.13125,0.13125,0.005,0
99999,99835,1.002e+05,67.762,5.6952,-0.004366,0,0,-1.9538,0,7.9374,1.7739,0,0.93505,0.85339,0,-20.497,44.332,0,-1739.1,-2450,0,1739.1,2450,0,715.54,538.84,0,5.3861,8.8774,0,-315.71,-5.4133,0,0,0,0,-511.12,-516.05,0,-1146,-454.06,0,0,0,0,452.75,728.9,0,407.38,510.85,0,0,0,0,168.65,248.74,0,312.17,167,0,0,0,0,1,0.133,0.133,0.005,0
99999,99838,1.0019e+05,67.37,5.7014,-0.00061232,0,0,-1.9928,0,8.0412,2.0011,0,0.93767,0.85464,0,-22.489,58.082,0,-1739.1,-2220.3,0,2160.3,1837.5,0,704.53,522.13,0,3.1054,-1.7465,0,-315.01,-3.5241,0,0,0,0,-444.74,-471.16,0,-1187.6,-418.15,0,0,0,0,416.52,686.6,0,463.83,435.91,0,0,0,0,168.29,234.61,0,307.36,165.8,0,0,0,0,1,0.13475,0.13475,0.005,0
99999,99842,1.0019e+05,67.053,5.711,-0.002463,0,0,-2.0004,0,7.934,2.0965,0,0.93998,0.81519,0,-27.994,44.112,0,-1739.1,-1837.5,0,1542.1,2450,0,659.3,532.97,0,6.3753,6.8346,0,-309.92,-6.3957,0,0,0,0,-597.6,-958.78,0,-1310.6,-439.56,0,0,0,0,434.48,957.5,0,437.32,566.86,0,0,0,0,174.24,273.77,0,324.2,171.42,0,0,0,0,1,0.1365,0.1365,0.005,0
99999,99844,1.002e+05,66.804,5.7225,0.015044,0,0,-1.9281,0,7.8043,1.9447,0,0.94796,0.83189,0,2.1864,66.443,0,-1915.7,-2450,0,1739.1,1837.5,0,686.95,496.49,0,7.8071,8.8403,0,-305.97,-8.1383,0,0,0,0,-416.81,-539.69,0,-1185.6,-465.45,0,0,0,0,461.03,816.55,0,401.92,398.46,0,0,0,0,168.68,245.02,0,316.31,166.62,0,0,0,0,1,0.13825,0.13825,0.005,0
99999,99845,1.002e+05,66.627,5.737,0.019328,0,0,-2.0636,0,7.9222,2.1666,0,0.955,0.84996,0,-37.117,22.551,0,-1742.2,-1837.5,0,1742.2,1837.5,0,683.05,497.14,0,9.2523,-5.1749,0,-301.67,-8.9672,0,0,0,0,-485.89,-399.59,0,-1140,-410.4,0,0,0,0,408.24,714.56,0,391.26,470.27,0,0,0,0,171.36,235.55,0,310.92,168.79,0,0,0,0,1,0.14,0.14,0.005,0
99999,99845,1.002e+05,66.443,5.7491,0.015024,0,0,-2.077,0,8.1399,2.245,0,0.95468,0.82633,0,-49.983,6.1602,0,-1742.1,-2450,0,2259.3,2450,0,617,550.36,0,2.6586,3.2924,0,-305.31,-2.9142,0,0,0,0,-579.87,-909.72,0,-1156.6,-430.04,0,0,0,0,425.78,1088.1,0,342.96,555.38,0,0,0,0,173.43,267.54,0,317.11,170.62,0,0,0,0,1,0.14175,0.14175,0.005,0
99999,99846,1.002e+05,66.326,5.755,0.019781,0,0,-1.9962,0,8.1131,1.9174,0,0.95518,0.82346,0,-10.541,86.463,0,-1582.9,-2450,0,1542.1,2450,0,596.41,493.59,0,5.3992,-0.36795,0,-307.19,-5.4092,0,0,0,0,-536.16,-502.16,0,-1139.3,-472.29,0,0,0,0,468.94,922.78,0,345.91,507.91,0,0,0,0,169.73,242.93,0,307.53,167.14,0,0,0,0,1,0.1435,0.1435,0.005,0
99999,99845,1.002e+05,66.257,5.764,0.018054,0,0,-2.0805,0,8.1487,2.2101,0,0.96387,0.84147,0,-0.078087,30.581,0,-1440.2,-2450,0,2085.6,1837.5,0,610.57,505.7,0,2.565,0.94707,0,-304.91,-2.5633,0,0,0,0,-444.95,-484.83,0,-1130.1,-425.86,0,0,0,0,423.87,722.15,0,272.23,440.47,0,0,0,0,161.36,234.48,0,294.87,159.48,0,0,0,0,1,0.14525,0.14525,0.005,0
99999,99843,1.002e+05,66.183,5.7653,0.02066,0,0,-2.2044,0,8.4551,2.2612,0,0.95821,0.8344,0,-27.994,89.874,0,-1521.7,-1837.5,0,1739.1,2450,0,607.47,513.91,0,1.0428,0.34082,0,-306.14,-1.2251,0,0,0,0,-579.81,-813.17,0,-1093.9,-421.03,0,0,0,0,432.91,952.09,0,310.47,551.63,0,0,0,0,174.71,254.4,0,306.96,171.77,0,0,0,0,1,0.147,0.147,0.005,0
99999,99842,1.0019e+05,66.004,5.7719,0.018588,0,0,-2.1217,0,8.1498,1.8594,0,0.94827,0.83214,0,-20.146,65.123,0,-1739.1,-2450,0,1739.1,2450,0,637.57,484.57,0,6.3336,-3.7143,0,-310.16,-6.3383,0,0,0,0,-447.79,-544.6,0,-1125.2,-455.37,0,0,0,0,457.94,985.15,0,375.72,448.67,0,0,0,0,169.99,243.12,0,301.29,168.07,0,0,0,0,1,0.14875,0.14875,0.005,0
99999,99842,1.0019e+05,65.763,5.7837,0.012144,0,0,-2.3031,0,8.0255,2.2639,0,0.9527,0.83347,0,-33.968,30.581,0,-1562.5,-1837.5,0,1739.2,2450,0,625.15,486.14,0,3.8633,-0.53251,0,-313.89,-3.6718,0,0,0,0,-401.94,-556.83,0,-1174.9,-476.96,0,0,0,0,473.21,828.74,0,196.07,392.57,0,0,0,0,158.44,242.59,0,283.15,156.67,0,0,0,0,1,0.1505,0.1505,0.005,0
99999,99842,1.0019e+05,65.461,5.7835,0.017548,0,0,-2.3379,0,8.0401,2.1933,0,0.9438,0.8494,0,-42.948,71.723,0,-1739.2,-1339.9,0,1739.2,1837.5,0,682.83,481.46,0,-3.2022,5.2281,0,-320,2.7979,0,0,0,0,-537.52,-513,0,-1147.3,-449.59,0,0,0,0,447,895.83,0,231.24,523.37,0,0,0,0,159.07,246.2,0,289.44,156.89,0,0,0,0,1,0.15225,0.15225,0.005,0
99998,99845,1.0019e+05,65.041,5.7829,0.019787,0,0,-2.1802,0,7.9736,1.8357,0,0.92626,0.85556,0,-13.728,102.19,0,-1742.1,-1397.3,0,2021.2,2450,0,661.28,470.77,0,6.0733,-4.9496,0,-312.73,-6.0104,0,0,0,0,-366.01,-700.1,0,-1414.7,-477.39,0,0,0,0,478.9,968.23,0,390.22,359.95,0,0,0,0,167.81,245.76,0,305.64,166.02,0,0,0,0,1,0.154,0.154,0.005,0
99998,99847,1.0019e+05,64.58,5.7996,0.0074624,0,0,-2.2843,0,8.192,2.2661,0,0.93396,0.85454,0,-51.236,43.562,0,-1742.2,-2450,0,2109.7,1225,0,688.68,443.5,0,8.0763,-6.3042,0,-311.85,-7.5648,0,0,0,0,-369.14,-634.04,0,-1559.3,-527.69,0,0,0,0,526.28,810.92,0,196.72,357.38,0,0,0,0,162.23,240.83,0,291.23,159.89,0,0,0,0,1,0.15575,0.15575,0.005,0
99998,99848,1.0018e+05,64.081,5.8002,0.0035048,0,0,-1.9393,0,8.0101,2.0834,0,0.94561,0.85199,0,-2.4597,108.79,0,-2391.3,-1837.5,0,1881.8,2450,0,715.86,532,0,-7.1852,1.966,0,-320.44,6.8321,0,0,0,0,-422.54,-454,0,-1155.3,-465.88,0,0,0,0,465.17,852.65,0,145.69,412.86,0,0,0,0,141.86,236.85,0,273,140.62,0,0,0,0,1,0.1575,0.1575,0.005,0
99998,99850,1.0018e+05,63.635,5.7858,0.0047157,0,0,-1.9859,0,7.6708,1.9062,0,0.92336,0.84982,0,-22.996,73.373,0,-2391.3,-1837.5,0,1718.7,2450,0,698.92,528.37,0,-4.1899,-0.46568,0,-312.61,3.9385,0,0,0,0,-433.8,-700.75,0,-1374.8,-389.74,0,0,0,0,392.14,857.59,0,401.34,415.98,0,0,0,0,161.74,244.25,0,287.71,159.58,0,0,0,0,1,0.15925,0.15925,0.005,0
99998,99851,1.0018e+05,63.253,5.7912,0.0088855,0,0,-1.844,0,7.9966,2.0879,0,0.9194,0.84786,0,-17.413,60.942,0,-1739.1,-2450,0,2112.7,2450,0,659.24,517.85,0,8.4815,3.5282,0,-301.26,-8.0105,0,0,0,0,-403.1,-570.05,0,-1145.4,-535.28,0,0,0,0,540.8,862.16,0,401.39,400.89,0,0,0,0,163.86,233.3,0,286.22,161.95,0,0,0,0,1,0.161,0.161,0.005,0
99998,99852,1.0018e+05,62.961,5.8039,0.012001,0,0,-1.8285,0,8.1582,1.9192,0,0.93691,0.83252,0,22.333,66.663,0,-1739.2,-1837.5,0,1807.1,2450,0,653.98,502.11,0,4.8907,-0.95257,0,-295.67,-4.4866,0,0,0,0,-383.75,-647.1,0,-1064.3,-501.43,0,0,0,0,504.98,799.64,0,143.39,379.82,0,0,0,0,145.89,244.68,0,273.7,144.53,0,0,0,0,1,0.16275,0.16275,0.005,0
99998,99852,1.0018e+05,62.777,5.7994,0.004403,0,0,-1.6875,0,7.8858,1.9144,0,0.93106,0.83161,0,13.47,95.374,0,-1739.1,-1837.5,0,1739.1,1837.5,0,632.54,511.74,0,-6.4925,-2.7743,0,-289.43,5.886,0,0,0,0,-457.15,-561.89,0,-1202.8,-300.37,0,0,0,0,304.35,791.32,0,370.18,433,0,0,0,0,151.64,235.13,0,268.71,148.98,0,0,0,0,1,0.1645,0.1645,0.005,0
99998,99852,1.0018e+05,62.632,5.7927,0.014008,0,0,-1.7098,0,7.864,1.908,0,0.91115,0.83689,0,39.775,109.67,0,-1742.1,-2450,0,1844.2,1837.5,0,638.43,558.77,0,1.7,9.5676,0,-281.55,-1.7492,0,0,0,0,-399.43,-530.39,0,-1045.2,-402.62,0,0,0,0,411.63,893.84,0,406.99,382.09,0,0,0,0,158.53,232.56,0,277.37,156.53,0,0,0,0,1,0.16625,0.16625,0.005,0
99998,99851,1.0018e+05,62.558,5.8088,0.02744,0,0,-1.6679,0,7.8381,2.2358,0,0.91574,0.84025,0,8.3307,68.973,0,-2613.3,-1837.5,0,1742.2,1837.5,0,627.89,520.95,0,12.514,1.8401,0,-272.93,-11.908,0,0,0,0,-371.5,-616.81,0,-1135.6,-476.56,0,0,0,0,478.81,895.37,0,224.01,365.69,0,0,0,0,152.18,238.82,0,274.99,150.47,0,0,0,0,1,0.168,0.168,0.005,0
99999,99850,1.0018e+05,62.564,5.8202,0.010601,0,0,-1.8559,0,8.0126,2.2105,0,0.92772,0.84438,0,51.108,155.88,0,-1739.2,-1397.3,0,1304.4,2450,0,545.25,702.65,0,0.98597,-11.806,0,-268.92,-0.98458,0,0,0,0,-372.83,-652.57,0,-1303.9,-375.1,0,0,0,0,373.49,848.19,0,227.02,363.97,0,0,0,0,139.81,249.12,0,272.49,138.27,0,0,0,0,1,0.16975,0.16975,0.005,0
99999,99848,1.0018e+05,62.566,5.8118,0.0060408,0,0,-1.7564,0,8.0202,2.2666,0,0.91203,0.88744,0,27.33,74.143,0,-1678,-1837.5,0,1603.2,2450,0,530.47,639.74,0,-5.0672,3.7024,0,-274.59,4.4014,0,0,0,0,-340.43,-383.11,0,-1281.8,-443.89,0,0,0,0,444.41,973.8,0,329.11,341.09,0,0,0,0,146.26,236.07,0,270.59,144.75,0,0,0,0,1,0.1715,0.1715,0.005,0
99999,99847,1.0018e+05,62.49,5.8175,0.016162,0,0,-2.1767,0,8.0018,3.0306,0,0.89802,0.94205,0,-2.9282,65.013,0,-1351.9,-1837.5,0,1304.3,2450,0,454.57,680.74,0,8.1784,3.3577,0,-267.01,-7.4979,0,0,0,0,-324.69,-604.66,0,-1210.1,-430.82,0,0,0,0,450.31,946.65,0,223.09,325.07,0,0,0,0,156.05,246.58,0,271.72,149,0,0,0,0,1,0.17325,0.17325,0.005,0
99999,99848,1.0018e+05,62.263,5.8327,0.011626,0,0,-2.5346,0,8.3404,2.9281,0,0.90862,0.99351,0,-2.7721,81.293,0,-1739.2,-1837.5,0,1087,2450,0,396.52,732.96,0,6.9096,-2.3167,0,-263.99,-7.4729,0,0,0,0,-228.05,-535.34,0,-1364.4,-423.74,0,0,0,0,392.82,745.56,0,262.9,249.95,0,0,0,0,129.52,220.05,0,281.12,141.59,0,0,0,0,1,0.175,0.175,0.005,0
