\relax 
\@writefile{toc}{\contentsline {section}{\numberline {1}Objective}{1}}
\@writefile{toc}{\contentsline {subsection}{\numberline {1.1}Non-dimensionalization}{1}}
\@writefile{toc}{\contentsline {subsection}{\numberline {1.2}Test Matrix}{2}}
